measure/Measure_meeting_2/16MHz_without_optimization-3.3-99.9.csv

;Scopy version,f4beeb1
;Exported on,samedi mars 16/03/2024
;Device,M2K
;Nr of samples,160000
;Sample rate,10000
;Tool,Oscilloscope
;Additional Information,
Sample,Time(S),CH1(V)
0,-0.8192,0.197345
1,-0.8191,0.197345
2,-0.819,0.197345
3,-0.8189,0.197345
4,-0.8188,0.197345
5,-0.8187,0.197345
6,-0.8186,0.197345
7,-0.8185,0.197345
8,-0.8184,0.197345
9,-0.8183,0.197345
10,-0.8182,0.197345
11,-0.8181,0.197345
12,-0.818,0.197345
13,-0.8179,0.197345
14,-0.8178,0.197345
15,-0.8177,0.197345
16,-0.8176,0.197345
17,-0.8175,0.197345
18,-0.8174,0.197345
19,-0.8173,0.197345
20,-0.8172,0.197345
21,-0.8171,0.197345
22,-0.817,0.197345
23,-0.8169,0.197345
24,-0.8168,0.197345
25,-0.8167,0.197345
26,-0.8166,0.197345
27,-0.8165,0.197345
28,-0.8164,0.197345
29,-0.8163,0.197345
30,-0.8162,0.197345
31,-0.8161,0.197345
32,-0.816,0.197345
33,-0.8159,0.197345
34,-0.8158,0.197345
35,-0.8157,0.197345
36,-0.8156,0.197345
37,-0.8155,0.197345
38,-0.8154,0.197345
39,-0.8153,0.197345
40,-0.8152,0.197345
41,-0.8151,0.197345
42,-0.815,0.197345
43,-0.8149,0.197345
44,-0.8148,0.197345
45,-0.8147,0.197345
46,-0.8146,0.197345
47,-0.8145,0.197345
48,-0.8144,0.197345
49,-0.8143,0.197345
50,-0.8142,0.197345
51,-0.8141,0.197345
52,-0.814,0.197345
53,-0.8139,0.197345
54,-0.8138,0.197345
55,-0.8137,0.197345
56,-0.8136,0.197345
57,-0.8135,0.197345
58,-0.8134,0.197345
59,-0.8133,0.197345
60,-0.8132,0.197345
61,-0.8131,0.197345
62,-0.813,0.197345
63,-0.8129,0.197345
64,-0.8128,0.197345
65,-0.8127,0.197345
66,-0.8126,0.197345
67,-0.8125,0.197345
68,-0.8124,0.197345
69,-0.8123,0.197345
70,-0.8122,0.197345
71,-0.8121,0.197345
72,-0.812,0.197345
73,-0.8119,0.197345
74,-0.8118,0.197345
75,-0.8117,0.197345
76,-0.8116,0.197345
77,-0.8115,0.197345
78,-0.8114,0.197345
79,-0.8113,0.197345
80,-0.8112,0.197345
81,-0.8111,0.197345
82,-0.811,0.197345
83,-0.8109,0.197345
84,-0.8108,0.197345
85,-0.8107,0.197345
86,-0.8106,0.197345
87,-0.8105,0.197345
88,-0.8104,0.197345
89,-0.8103,0.197345
90,-0.8102,0.197345
91,-0.8101,0.197345
92,-0.81,0.197345
93,-0.8099,0.197345
94,-0.8098,0.197345
95,-0.8097,0.197345
96,-0.8096,0.197345
97,-0.8095,0.197345
98,-0.8094,0.197345
99,-0.8093,0.197345
100,-0.8092,0.197345
101,-0.8091,0.197345
102,-0.809,0.197345
103,-0.8089,0.197345
104,-0.8088,0.197345
105,-0.8087,0.197345
106,-0.8086,0.197345
107,-0.8085,0.197345
108,-0.8084,0.197345
109,-0.8083,0.197345
110,-0.8082,0.197345
111,-0.8081,0.197345
112,-0.808,0.197345
113,-0.8079,0.197345
114,-0.8078,0.197345
115,-0.8077,0.197345
116,-0.8076,0.197345
117,-0.8075,0.197345
118,-0.8074,0.197345
119,-0.8073,0.197345
120,-0.8072,0.197345
121,-0.8071,0.197345
122,-0.807,0.197345
123,-0.8069,0.197345
124,-0.8068,0.197345
125,-0.8067,0.197345
126,-0.8066,0.197345
127,-0.8065,0.197345
128,-0.8064,0.197345
129,-0.8063,0.197345
130,-0.8062,0.197345
131,-0.8061,0.197345
132,-0.806,0.197345
133,-0.8059,0.197345
134,-0.8058,0.197345
135,-0.8057,0.197345
136,-0.8056,0.197345
137,-0.8055,0.197345
138,-0.8054,0.197345
139,-0.8053,0.197345
140,-0.8052,0.197345
141,-0.8051,0.197345
142,-0.805,0.197345
143,-0.8049,0.197345
144,-0.8048,0.197345
145,-0.8047,0.197345
146,-0.8046,0.197345
147,-0.8045,0.197345
148,-0.8044,0.197345
149,-0.8043,0.197345
150,-0.8042,0.197345
151,-0.8041,0.197345
152,-0.804,0.197345
153,-0.8039,0.197345
154,-0.8038,0.197345
155,-0.8037,0.197345
156,-0.8036,0.197345
157,-0.8035,0.197345
158,-0.8034,0.197345
159,-0.8033,0.197345
160,-0.8032,0.197345
161,-0.8031,0.197345
162,-0.803,0.197345
163,-0.8029,0.197345
164,-0.8028,0.197345
165,-0.8027,0.197345
166,-0.8026,0.197345
167,-0.8025,0.197345
168,-0.8024,0.197345
169,-0.8023,0.197345
170,-0.8022,0.197345
171,-0.8021,0.197345
172,-0.802,0.197345
173,-0.8019,0.197345
174,-0.8018,0.197345
175,-0.8017,0.197345
176,-0.8016,0.197345
177,-0.8015,0.197345
178,-0.8014,0.197345
179,-0.8013,0.197345
180,-0.8012,0.197345
181,-0.8011,0.197345
182,-0.801,0.197345
183,-0.8009,0.197345
184,-0.8008,0.197345
185,-0.8007,0.197345
186,-0.8006,0.197345
187,-0.8005,0.197345
188,-0.8004,0.199001
189,-0.8003,0.205625
190,-0.8002,0.212249
191,-0.8001,0.217217
192,-0.8,0.222185
193,-0.7999,0.228809
194,-0.7998,0.232122
195,-0.7997,0.23709
196,-0.7996,0.238746
197,-0.7995,0.247026
198,-0.7994,0.250338
199,-0.7993,0.25365
200,-0.7992,0.256962
201,-0.7991,0.26193
202,-0.799,0.265243
203,-0.7989,0.270211
204,-0.7988,0.276835
205,-0.7987,0.280147
206,-0.7986,0.283459
207,-0.7985,0.286771
208,-0.7984,0.291739
209,-0.7983,0.295051
210,-0.7982,0.296707
211,-0.7981,0.298363
212,-0.798,0.301676
213,-0.7979,0.304988
214,-0.7978,0.309956
215,-0.7977,0.31658
216,-0.7976,0.319892
217,-0.7975,0.321548
218,-0.7974,0.32486
219,-0.7973,0.32486
220,-0.7972,0.326516
221,-0.7971,0.326516
222,-0.797,0.328172
223,-0.7969,0.331484
224,-0.7968,0.331484
225,-0.7967,0.331484
226,-0.7966,0.334797
227,-0.7965,0.334797
228,-0.7964,0.334797
229,-0.7963,0.331484
230,-0.7962,0.331484
231,-0.7961,0.331484
232,-0.796,0.334797
233,-0.7959,0.329828
234,-0.7958,0.329828
235,-0.7957,0.329828
236,-0.7956,0.329828
237,-0.7955,0.329828
238,-0.7954,0.334797
239,-0.7953,0.331484
240,-0.7952,0.331484
241,-0.7951,0.331484
242,-0.795,0.331484
243,-0.7949,0.331484
244,-0.7948,0.336453
245,-0.7947,0.334797
246,-0.7946,0.334797
247,-0.7945,0.334797
248,-0.7944,0.334797
249,-0.7943,0.334797
250,-0.7942,0.338109
251,-0.7941,0.338109
252,-0.794,0.334797
253,-0.7939,0.334797
254,-0.7938,0.334797
255,-0.7937,0.334797
256,-0.7936,0.334797
257,-0.7935,0.331484
258,-0.7934,0.331484
259,-0.7933,0.331484
260,-0.7932,0.329828
261,-0.7931,0.329828
262,-0.793,0.329828
263,-0.7929,0.326516
264,-0.7928,0.319892
265,-0.7927,0.314924
266,-0.7926,0.309956
267,-0.7925,0.304988
268,-0.7924,0.298363
269,-0.7923,0.295051
270,-0.7922,0.291739
271,-0.7921,0.286771
272,-0.792,0.281803
273,-0.7919,0.278491
274,-0.7918,0.275179
275,-0.7917,0.270211
276,-0.7916,0.270211
277,-0.7915,0.265243
278,-0.7914,0.260274
279,-0.7913,0.260274
280,-0.7912,0.255306
281,-0.7911,0.255306
282,-0.791,0.251994
283,-0.7909,0.248682
284,-0.7908,0.248682
285,-0.7907,0.243714
286,-0.7906,0.242058
287,-0.7905,0.240402
288,-0.7904,0.238746
289,-0.7903,0.23709
290,-0.7902,0.235434
291,-0.7901,0.233778
292,-0.79,0.232122
293,-0.7899,0.230465
294,-0.7898,0.230465
295,-0.7897,0.230465
296,-0.7896,0.227153
297,-0.7895,0.227153
298,-0.7894,0.227153
299,-0.7893,0.222185
300,-0.7892,0.222185
301,-0.7891,0.220529
302,-0.789,0.220529
303,-0.7889,0.220529
304,-0.7888,0.217217
305,-0.7887,0.217217
306,-0.7886,0.217217
307,-0.7885,0.215561
308,-0.7884,0.215561
309,-0.7883,0.213905
310,-0.7882,0.215561
311,-0.7881,0.212249
312,-0.788,0.212249
313,-0.7879,0.213905
314,-0.7878,0.210593
315,-0.7877,0.210593
316,-0.7876,0.210593
317,-0.7875,0.210593
318,-0.7874,0.208937
319,-0.7873,0.208937
320,-0.7872,0.210593
321,-0.7871,0.207281
322,-0.787,0.207281
323,-0.7869,0.207281
324,-0.7868,0.208937
325,-0.7867,0.205625
326,-0.7866,0.205625
327,-0.7865,0.205625
328,-0.7864,0.205625
329,-0.7863,0.205625
330,-0.7862,0.205625
331,-0.7861,0.205625
332,-0.786,0.203969
333,-0.7859,0.203969
334,-0.7858,0.203969
335,-0.7857,0.203969
336,-0.7856,0.203969
337,-0.7855,0.203969
338,-0.7854,0.203969
339,-0.7853,0.203969
340,-0.7852,0.200657
341,-0.7851,0.200657
342,-0.785,0.200657
343,-0.7849,0.200657
344,-0.7848,0.200657
345,-0.7847,0.200657
346,-0.7846,0.200657
347,-0.7845,0.200657
348,-0.7844,0.200657
349,-0.7843,0.200657
350,-0.7842,0.200657
351,-0.7841,0.200657
352,-0.784,0.199001
353,-0.7839,0.199001
354,-0.7838,0.199001
355,-0.7837,0.199001
356,-0.7836,0.199001
357,-0.7835,0.199001
358,-0.7834,0.199001
359,-0.7833,0.199001
360,-0.7832,0.199001
361,-0.7831,0.199001
362,-0.783,0.199001
363,-0.7829,0.199001
364,-0.7828,0.199001
365,-0.7827,0.199001
366,-0.7826,0.199001
367,-0.7825,0.199001
368,-0.7824,0.199001
369,-0.7823,0.199001
370,-0.7822,0.199001
371,-0.7821,0.199001
372,-0.782,0.199001
373,-0.7819,0.199001
374,-0.7818,0.200657
375,-0.7817,0.197345
376,-0.7816,0.199001
377,-0.7815,0.199001
378,-0.7814,0.199001
379,-0.7813,0.199001
380,-0.7812,0.199001
381,-0.7811,0.199001
382,-0.781,0.197345
383,-0.7809,0.197345
384,-0.7808,0.197345
385,-0.7807,0.197345
386,-0.7806,0.199001
387,-0.7805,0.197345
388,-0.7804,0.197345
389,-0.7803,0.197345
390,-0.7802,0.197345
391,-0.7801,0.197345
392,-0.78,0.197345
393,-0.7799,0.197345
394,-0.7798,0.197345
395,-0.7797,0.197345
396,-0.7796,0.197345
397,-0.7795,0.197345
398,-0.7794,0.197345
399,-0.7793,0.197345
400,-0.7792,0.197345
401,-0.7791,0.197345
402,-0.779,0.197345
403,-0.7789,0.197345
404,-0.7788,0.197345
405,-0.7787,0.197345
406,-0.7786,0.197345
407,-0.7785,0.197345
408,-0.7784,0.197345
409,-0.7783,0.197345
410,-0.7782,0.197345
411,-0.7781,0.197345
412,-0.778,0.197345
413,-0.7779,0.197345
414,-0.7778,0.197345
415,-0.7777,0.197345
416,-0.7776,0.197345
417,-0.7775,0.197345
418,-0.7774,0.197345
419,-0.7773,0.197345
420,-0.7772,0.197345
421,-0.7771,0.197345
422,-0.777,0.197345
423,-0.7769,0.197345
424,-0.7768,0.197345
425,-0.7767,0.197345
426,-0.7766,0.197345
427,-0.7765,0.197345
428,-0.7764,0.197345
429,-0.7763,0.197345
430,-0.7762,0.197345
431,-0.7761,0.197345
432,-0.776,0.197345
433,-0.7759,0.197345
434,-0.7758,0.197345
435,-0.7757,0.197345
436,-0.7756,0.197345
437,-0.7755,0.197345
438,-0.7754,0.197345
439,-0.7753,0.197345
440,-0.7752,0.197345
441,-0.7751,0.197345
442,-0.775,0.197345
443,-0.7749,0.197345
444,-0.7748,0.197345
445,-0.7747,0.197345
446,-0.7746,0.197345
447,-0.7745,0.197345
448,-0.7744,0.197345
449,-0.7743,0.197345
450,-0.7742,0.197345
451,-0.7741,0.197345
452,-0.774,0.197345
453,-0.7739,0.197345
454,-0.7738,0.197345
455,-0.7737,0.197345
456,-0.7736,0.197345
457,-0.7735,0.197345
458,-0.7734,0.197345
459,-0.7733,0.197345
460,-0.7732,0.197345
461,-0.7731,0.197345
462,-0.773,0.197345
463,-0.7729,0.197345
464,-0.7728,0.197345
465,-0.7727,0.197345
466,-0.7726,0.197345
467,-0.7725,0.197345
468,-0.7724,0.197345
469,-0.7723,0.197345
470,-0.7722,0.197345
471,-0.7721,0.197345
472,-0.772,0.197345
473,-0.7719,0.197345
474,-0.7718,0.197345
475,-0.7717,0.197345
476,-0.7716,0.197345
477,-0.7715,0.197345
478,-0.7714,0.197345
479,-0.7713,0.197345
480,-0.7712,0.197345
481,-0.7711,0.197345
482,-0.771,0.197345
483,-0.7709,0.197345
484,-0.7708,0.197345
485,-0.7707,0.197345
486,-0.7706,0.197345
487,-0.7705,0.197345
488,-0.7704,0.197345
489,-0.7703,0.197345
490,-0.7702,0.197345
491,-0.7701,0.197345
492,-0.77,0.197345
493,-0.7699,0.197345
494,-0.7698,0.197345
495,-0.7697,0.197345
496,-0.7696,0.197345
497,-0.7695,0.197345
498,-0.7694,0.197345
499,-0.7693,0.197345
500,-0.7692,0.197345
501,-0.7691,0.197345
502,-0.769,0.197345
503,-0.7689,0.197345
504,-0.7688,0.197345
505,-0.7687,0.197345
506,-0.7686,0.197345
507,-0.7685,0.197345
508,-0.7684,0.197345
509,-0.7683,0.197345
510,-0.7682,0.197345
511,-0.7681,0.197345
512,-0.768,0.197345
513,-0.7679,0.197345
514,-0.7678,0.197345
515,-0.7677,0.197345
516,-0.7676,0.197345
517,-0.7675,0.197345
518,-0.7674,0.197345
519,-0.7673,0.197345
520,-0.7672,0.197345
521,-0.7671,0.197345
522,-0.767,0.197345
523,-0.7669,0.197345
524,-0.7668,0.197345
525,-0.7667,0.197345
526,-0.7666,0.197345
527,-0.7665,0.197345
528,-0.7664,0.197345
529,-0.7663,0.197345
530,-0.7662,0.197345
531,-0.7661,0.197345
532,-0.766,0.197345
533,-0.7659,0.197345
534,-0.7658,0.197345
535,-0.7657,0.197345
536,-0.7656,0.197345
537,-0.7655,0.197345
538,-0.7654,0.197345
539,-0.7653,0.197345
540,-0.7652,0.197345
541,-0.7651,0.197345
542,-0.765,0.197345
543,-0.7649,0.197345
544,-0.7648,0.197345
545,-0.7647,0.197345
546,-0.7646,0.197345
547,-0.7645,0.197345
548,-0.7644,0.197345
549,-0.7643,0.197345
550,-0.7642,0.197345
551,-0.7641,0.197345
552,-0.764,0.197345
553,-0.7639,0.197345
554,-0.7638,0.197345
555,-0.7637,0.197345
556,-0.7636,0.197345
557,-0.7635,0.197345
558,-0.7634,0.197345
559,-0.7633,0.197345
560,-0.7632,0.197345
561,-0.7631,0.197345
562,-0.763,0.197345
563,-0.7629,0.197345
564,-0.7628,0.197345
565,-0.7627,0.197345
566,-0.7626,0.197345
567,-0.7625,0.197345
568,-0.7624,0.197345
569,-0.7623,0.197345
570,-0.7622,0.197345
571,-0.7621,0.197345
572,-0.762,0.197345
573,-0.7619,0.197345
574,-0.7618,0.197345
575,-0.7617,0.197345
576,-0.7616,0.197345
577,-0.7615,0.197345
578,-0.7614,0.197345
579,-0.7613,0.197345
580,-0.7612,0.197345
581,-0.7611,0.197345
582,-0.761,0.197345
583,-0.7609,0.197345
584,-0.7608,0.197345
585,-0.7607,0.197345
586,-0.7606,0.197345
587,-0.7605,0.197345
588,-0.7604,0.197345
589,-0.7603,0.197345
590,-0.7602,0.197345
591,-0.7601,0.197345
592,-0.76,0.197345
593,-0.7599,0.197345
594,-0.7598,0.197345
595,-0.7597,0.197345
596,-0.7596,0.197345
597,-0.7595,0.197345
598,-0.7594,0.197345
599,-0.7593,0.197345
600,-0.7592,0.197345
601,-0.7591,0.197345
602,-0.759,0.197345
603,-0.7589,0.197345
604,-0.7588,0.197345
605,-0.7587,0.197345
606,-0.7586,0.197345
607,-0.7585,0.197345
608,-0.7584,0.197345
609,-0.7583,0.197345
610,-0.7582,0.197345
611,-0.7581,0.197345
612,-0.758,0.197345
613,-0.7579,0.197345
614,-0.7578,0.197345
615,-0.7577,0.197345
616,-0.7576,0.197345
617,-0.7575,0.197345
618,-0.7574,0.197345
619,-0.7573,0.197345
620,-0.7572,0.197345
621,-0.7571,0.197345
622,-0.757,0.197345
623,-0.7569,0.197345
624,-0.7568,0.197345
625,-0.7567,0.197345
626,-0.7566,0.197345
627,-0.7565,0.197345
628,-0.7564,0.197345
629,-0.7563,0.197345
630,-0.7562,0.197345
631,-0.7561,0.197345
632,-0.756,0.197345
633,-0.7559,0.197345
634,-0.7558,0.197345
635,-0.7557,0.197345
636,-0.7556,0.197345
637,-0.7555,0.197345
638,-0.7554,0.197345
639,-0.7553,0.197345
640,-0.7552,0.197345
641,-0.7551,0.197345
642,-0.755,0.197345
643,-0.7549,0.197345
644,-0.7548,0.197345
645,-0.7547,0.197345
646,-0.7546,0.197345
647,-0.7545,0.197345
648,-0.7544,0.197345
649,-0.7543,0.197345
650,-0.7542,0.197345
651,-0.7541,0.197345
652,-0.754,0.197345
653,-0.7539,0.197345
654,-0.7538,0.197345
655,-0.7537,0.197345
656,-0.7536,0.197345
657,-0.7535,0.197345
658,-0.7534,0.197345
659,-0.7533,0.197345
660,-0.7532,0.197345
661,-0.7531,0.197345
662,-0.753,0.197345
663,-0.7529,0.197345
664,-0.7528,0.197345
665,-0.7527,0.197345
666,-0.7526,0.197345
667,-0.7525,0.197345
668,-0.7524,0.197345
669,-0.7523,0.197345
670,-0.7522,0.197345
671,-0.7521,0.197345
672,-0.752,0.197345
673,-0.7519,0.197345
674,-0.7518,0.197345
675,-0.7517,0.197345
676,-0.7516,0.197345
677,-0.7515,0.197345
678,-0.7514,0.197345
679,-0.7513,0.197345
680,-0.7512,0.197345
681,-0.7511,0.197345
682,-0.751,0.197345
683,-0.7509,0.197345
684,-0.7508,0.197345
685,-0.7507,0.197345
686,-0.7506,0.197345
687,-0.7505,0.197345
688,-0.7504,0.197345
689,-0.7503,0.207281
690,-0.7502,0.210593
691,-0.7501,0.215561
692,-0.75,0.220529
693,-0.7499,0.225497
694,-0.7498,0.232122
695,-0.7497,0.235434
696,-0.7496,0.240402
697,-0.7495,0.243714
698,-0.7494,0.248682
699,-0.7493,0.251994
700,-0.7492,0.255306
701,-0.7491,0.260274
702,-0.749,0.263586
703,-0.7489,0.270211
704,-0.7488,0.273523
705,-0.7487,0.280147
706,-0.7486,0.283459
707,-0.7485,0.286771
708,-0.7484,0.291739
709,-0.7483,0.293395
710,-0.7482,0.296707
711,-0.7481,0.296707
712,-0.748,0.30002
713,-0.7479,0.304988
714,-0.7478,0.3083
715,-0.7477,0.313268
716,-0.7476,0.319892
717,-0.7475,0.321548
718,-0.7474,0.323204
719,-0.7473,0.326516
720,-0.7472,0.326516
721,-0.7471,0.328172
722,-0.747,0.328172
723,-0.7469,0.331484
724,-0.7468,0.331484
725,-0.7467,0.331484
726,-0.7466,0.336453
727,-0.7465,0.336453
728,-0.7464,0.331484
729,-0.7463,0.331484
730,-0.7462,0.331484
731,-0.7461,0.331484
732,-0.746,0.331484
733,-0.7459,0.331484
734,-0.7458,0.329828
735,-0.7457,0.329828
736,-0.7456,0.329828
737,-0.7455,0.331484
738,-0.7454,0.331484
739,-0.7453,0.331484
740,-0.7452,0.331484
741,-0.7451,0.331484
742,-0.745,0.331484
743,-0.7449,0.334797
744,-0.7448,0.334797
745,-0.7447,0.334797
746,-0.7446,0.334797
747,-0.7445,0.334797
748,-0.7444,0.334797
749,-0.7443,0.334797
750,-0.7442,0.334797
751,-0.7441,0.338109
752,-0.744,0.334797
753,-0.7439,0.334797
754,-0.7438,0.334797
755,-0.7437,0.334797
756,-0.7436,0.336453
757,-0.7435,0.331484
758,-0.7434,0.331484
759,-0.7433,0.334797
760,-0.7432,0.329828
761,-0.7431,0.329828
762,-0.743,0.329828
763,-0.7429,0.329828
764,-0.7428,0.326516
765,-0.7427,0.319892
766,-0.7426,0.314924
767,-0.7425,0.3083
768,-0.7424,0.303332
769,-0.7423,0.30002
770,-0.7422,0.293395
771,-0.7421,0.288427
772,-0.742,0.285115
773,-0.7419,0.281803
774,-0.7418,0.278491
775,-0.7417,0.275179
776,-0.7416,0.271867
777,-0.7415,0.265243
778,-0.7414,0.265243
779,-0.7413,0.26193
780,-0.7412,0.258618
781,-0.7411,0.256962
782,-0.741,0.25365
783,-0.7409,0.250338
784,-0.7408,0.250338
785,-0.7407,0.247026
786,-0.7406,0.243714
787,-0.7405,0.242058
788,-0.7404,0.238746
789,-0.7403,0.238746
790,-0.7402,0.23709
791,-0.7401,0.235434
792,-0.74,0.235434
793,-0.7399,0.232122
794,-0.7398,0.230465
795,-0.7397,0.230465
796,-0.7396,0.228809
797,-0.7395,0.228809
798,-0.7394,0.225497
799,-0.7393,0.225497
800,-0.7392,0.225497
801,-0.7391,0.220529
802,-0.739,0.222185
803,-0.7389,0.218873
804,-0.7388,0.220529
805,-0.7387,0.217217
806,-0.7386,0.218873
807,-0.7385,0.215561
808,-0.7384,0.217217
809,-0.7383,0.213905
810,-0.7382,0.213905
811,-0.7381,0.213905
812,-0.738,0.212249
813,-0.7379,0.212249
814,-0.7378,0.212249
815,-0.7377,0.210593
816,-0.7376,0.210593
817,-0.7375,0.212249
818,-0.7374,0.208937
819,-0.7373,0.208937
820,-0.7372,0.208937
821,-0.7371,0.210593
822,-0.737,0.207281
823,-0.7369,0.207281
824,-0.7368,0.207281
825,-0.7367,0.207281
826,-0.7366,0.208937
827,-0.7365,0.205625
828,-0.7364,0.205625
829,-0.7363,0.205625
830,-0.7362,0.205625
831,-0.7361,0.207281
832,-0.736,0.203969
833,-0.7359,0.203969
834,-0.7358,0.203969
835,-0.7357,0.203969
836,-0.7356,0.203969
837,-0.7355,0.203969
838,-0.7354,0.203969
839,-0.7353,0.203969
840,-0.7352,0.200657
841,-0.7351,0.200657
842,-0.735,0.200657
843,-0.7349,0.200657
844,-0.7348,0.200657
845,-0.7347,0.200657
846,-0.7346,0.200657
847,-0.7345,0.200657
848,-0.7344,0.200657
849,-0.7343,0.200657
850,-0.7342,0.200657
851,-0.7341,0.200657
852,-0.734,0.200657
853,-0.7339,0.199001
854,-0.7338,0.200657
855,-0.7337,0.200657
856,-0.7336,0.199001
857,-0.7335,0.199001
858,-0.7334,0.199001
859,-0.7333,0.199001
860,-0.7332,0.199001
861,-0.7331,0.199001
862,-0.733,0.199001
863,-0.7329,0.199001
864,-0.7328,0.199001
865,-0.7327,0.199001
866,-0.7326,0.199001
867,-0.7325,0.199001
868,-0.7324,0.199001
869,-0.7323,0.199001
870,-0.7322,0.199001
871,-0.7321,0.199001
872,-0.732,0.199001
873,-0.7319,0.199001
874,-0.7318,0.199001
875,-0.7317,0.199001
876,-0.7316,0.199001
877,-0.7315,0.199001
878,-0.7314,0.199001
879,-0.7313,0.197345
880,-0.7312,0.197345
881,-0.7311,0.197345
882,-0.731,0.197345
883,-0.7309,0.197345
884,-0.7308,0.197345
885,-0.7307,0.197345
886,-0.7306,0.197345
887,-0.7305,0.199001
888,-0.7304,0.197345
889,-0.7303,0.197345
890,-0.7302,0.197345
891,-0.7301,0.197345
892,-0.73,0.197345
893,-0.7299,0.197345
894,-0.7298,0.197345
895,-0.7297,0.197345
896,-0.7296,0.197345
897,-0.7295,0.197345
898,-0.7294,0.197345
899,-0.7293,0.197345
900,-0.7292,0.197345
901,-0.7291,0.197345
902,-0.729,0.197345
903,-0.7289,0.197345
904,-0.7288,0.197345
905,-0.7287,0.197345
906,-0.7286,0.197345
907,-0.7285,0.197345
908,-0.7284,0.197345
909,-0.7283,0.197345
910,-0.7282,0.197345
911,-0.7281,0.197345
912,-0.728,0.197345
913,-0.7279,0.197345
914,-0.7278,0.197345
915,-0.7277,0.197345
916,-0.7276,0.197345
917,-0.7275,0.197345
918,-0.7274,0.197345
919,-0.7273,0.197345
920,-0.7272,0.197345
921,-0.7271,0.197345
922,-0.727,0.197345
923,-0.7269,0.197345
924,-0.7268,0.197345
925,-0.7267,0.197345
926,-0.7266,0.197345
927,-0.7265,0.197345
928,-0.7264,0.197345
929,-0.7263,0.197345
930,-0.7262,0.197345
931,-0.7261,0.197345
932,-0.726,0.197345
933,-0.7259,0.197345
934,-0.7258,0.197345
935,-0.7257,0.197345
936,-0.7256,0.197345
937,-0.7255,0.197345
938,-0.7254,0.197345
939,-0.7253,0.197345
940,-0.7252,0.197345
941,-0.7251,0.197345
942,-0.725,0.197345
943,-0.7249,0.197345
944,-0.7248,0.197345
945,-0.7247,0.197345
946,-0.7246,0.197345
947,-0.7245,0.197345
948,-0.7244,0.197345
949,-0.7243,0.197345
950,-0.7242,0.197345
951,-0.7241,0.197345
952,-0.724,0.197345
953,-0.7239,0.197345
