measure/Measure_meeting_2/2MHz_voltage_test_2-2.1-52.2.csv

;Scopy version,f4beeb1
;Exported on,dimanche mars 17/03/2024
;Device,M2K
;Nr of samples,16000
;Sample rate,1000
;Tool,Oscilloscope
;Additional Information,
Sample,Time(S),CH1(V)
0,-0.919,0.0560544
1,-0.918,0.0560544
2,-0.917,0.0560544
3,-0.916,0.0560544
4,-0.915,0.0560544
5,-0.914,0.0560544
6,-0.913,0.0560544
7,-0.912,0.0560544
8,-0.911,0.0560544
9,-0.91,0.0560544
10,-0.909,0.0560544
11,-0.908,0.0560544
12,-0.907,0.0560544
13,-0.906,0.0560544
14,-0.905,0.0560544
15,-0.904,0.0560544
16,-0.903,0.0560544
17,-0.902,0.0560544
18,-0.901,0.0560544
19,-0.9,0.0560544
20,-0.899,0.0560544
21,-0.898,0.0560544
22,-0.897,0.0560544
23,-0.896,0.0560544
24,-0.895,0.0560544
25,-0.894,0.0560544
26,-0.893,0.0560544
27,-0.892,0.0560544
28,-0.891,0.0560544
29,-0.89,0.0560544
30,-0.889,0.0560544
31,-0.888,0.0560544
32,-0.887,0.0560544
33,-0.886,0.0560544
34,-0.885,0.0560544
35,-0.884,0.0560544
36,-0.883,0.0560544
37,-0.882,0.0560544
38,-0.881,0.0560544
39,-0.88,0.0560544
40,-0.879,0.0560544
41,-0.878,0.0560544
42,-0.877,0.0560544
43,-0.876,0.0560544
44,-0.875,0.0560544
45,-0.874,0.0560544
46,-0.873,0.0560544
47,-0.872,0.0560544
48,-0.871,0.0560544
49,-0.87,0.0560544
50,-0.869,0.0560544
51,-0.868,0.0560544
52,-0.867,0.0560544
53,-0.866,0.0560544
54,-0.865,0.0560544
55,-0.864,0.0560544
56,-0.863,0.0560544
57,-0.862,0.0560544
58,-0.861,0.0560544
59,-0.86,0.0560544
60,-0.859,0.0560544
61,-0.858,0.0560544
62,-0.857,0.0560544
63,-0.856,0.0560544
64,-0.855,0.0560544
65,-0.854,0.0560544
66,-0.853,0.0560544
67,-0.852,0.0560544
68,-0.851,0.0560544
69,-0.85,0.0560544
70,-0.849,0.0560544
71,-0.848,0.0560544
72,-0.847,0.0560544
73,-0.846,0.0560544
74,-0.845,0.0560544
75,-0.844,0.0560544
76,-0.843,0.0560544
77,-0.842,0.0560544
78,-0.841,0.0560544
79,-0.84,0.0560544
80,-0.839,0.0560544
81,-0.838,0.0560544
82,-0.837,0.0560544
83,-0.836,0.0560544
84,-0.835,0.0560544
85,-0.834,0.0560544
86,-0.833,0.0560544
87,-0.832,0.0560544
88,-0.831,0.0560544
89,-0.83,0.0560544
90,-0.829,0.0560544
91,-0.828,0.0560544
92,-0.827,0.0560544
93,-0.826,0.0560544
94,-0.825,0.0560544
95,-0.824,0.0560544
96,-0.823,0.0560544
97,-0.822,0.0560544
98,-0.821,0.0560544
99,-0.82,0.0560544
100,-0.819,0.0560544
101,-0.818,0.0560544
102,-0.817,0.0560544
103,-0.816,0.0560544
104,-0.815,0.0560544
105,-0.814,0.0560544
106,-0.813,0.0560544
107,-0.812,0.0560544
108,-0.811,0.0560544
109,-0.81,0.0560544
110,-0.809,0.0560544
111,-0.808,0.0560544
112,-0.807,0.0560544
113,-0.806,0.0560544
114,-0.805,0.0560544
115,-0.804,0.0560544
116,-0.803,0.0560544
117,-0.802,0.0560544
118,-0.801,0.0560544
119,-0.8,0.0560544
120,-0.799,0.0560544
121,-0.798,0.0560544
122,-0.797,0.0560544
123,-0.796,0.0560544
124,-0.795,0.0560544
125,-0.794,0.0560544
126,-0.793,0.0560544
127,-0.792,0.0560544
128,-0.791,0.0560544
129,-0.79,0.0560544
130,-0.789,0.0560544
131,-0.788,0.0560544
132,-0.787,0.0560544
133,-0.786,0.0560544
134,-0.785,0.0560544
135,-0.784,0.0560544
136,-0.783,0.0560544
137,-0.782,0.0560544
138,-0.781,0.0560544
139,-0.78,0.0560544
140,-0.779,0.0560544
141,-0.778,0.0560544
142,-0.777,0.0543156
143,-0.776,0.0508379
144,-0.775,0.0473602
145,-0.774,0.0473602
146,-0.773,0.0438825
147,-0.772,0.0456213
148,-0.771,0.0456213
149,-0.77,0.0456213
150,-0.769,0.0456213
151,-0.768,0.0456213
152,-0.767,0.0456213
153,-0.766,0.0456213
154,-0.765,0.0456213
155,-0.764,0.0456213
156,-0.763,0.0456213
157,-0.762,0.0456213
158,-0.761,0.0456213
159,-0.76,0.0456213
160,-0.759,0.0456213
161,-0.758,0.0456213
162,-0.757,0.0456213
163,-0.756,0.0456213
164,-0.755,0.0456213
165,-0.754,0.0456213
166,-0.753,0.0456213
167,-0.752,0.0456213
168,-0.751,0.0456213
169,-0.75,0.0456213
170,-0.749,0.0456213
171,-0.748,0.0456213
172,-0.747,0.0456213
173,-0.746,0.0456213
174,-0.745,0.0456213
175,-0.744,0.0456213
176,-0.743,0.0456213
177,-0.742,0.0456213
178,-0.741,0.0456213
179,-0.74,0.0456213
180,-0.739,0.0456213
181,-0.738,0.0456213
182,-0.737,0.0456213
183,-0.736,0.0456213
184,-0.735,0.0456213
185,-0.734,0.0456213
186,-0.733,0.0456213
187,-0.732,0.0456213
188,-0.731,0.0456213
189,-0.73,0.0456213
190,-0.729,0.0456213
191,-0.728,0.0456213
192,-0.727,0.0456213
193,-0.726,0.0456213
194,-0.725,0.0508379
195,-0.724,0.0543156
196,-0.723,0.0543156
197,-0.722,0.0560544
198,-0.721,0.0560544
199,-0.72,0.0560544
200,-0.719,0.0560544
201,-0.718,0.0560544
202,-0.717,0.0560544
203,-0.716,0.0543156
204,-0.715,0.0577933
205,-0.714,0.0577933
206,-0.713,0.0577933
207,-0.712,0.0577933
208,-0.711,0.0577933
209,-0.71,0.0577933
210,-0.709,0.0577933
211,-0.708,0.0577933
212,-0.707,0.0577933
213,-0.706,0.0560544
214,-0.705,0.0595321
215,-0.704,0.061271
216,-0.703,0.061271
217,-0.702,0.0577933
218,-0.701,0.0577933
219,-0.7,0.0577933
220,-0.699,0.0577933
221,-0.698,0.0577933
222,-0.697,0.0577933
223,-0.696,0.0577933
224,-0.695,0.0577933
225,-0.694,0.0543156
226,-0.693,0.0560544
227,-0.692,0.0560544
228,-0.691,0.0560544
229,-0.69,0.0560544
230,-0.689,0.0560544
231,-0.688,0.0560544
232,-0.687,0.0560544
233,-0.686,0.0560544
234,-0.685,0.0560544
235,-0.684,0.0560544
236,-0.683,0.0560544
237,-0.682,0.0560544
238,-0.681,0.0560544
239,-0.68,0.0560544
240,-0.679,0.0560544
241,-0.678,0.0560544
242,-0.677,0.0560544
243,-0.676,0.0560544
244,-0.675,0.0560544
245,-0.674,0.0560544
246,-0.673,0.0560544
247,-0.672,0.0560544
248,-0.671,0.0560544
249,-0.67,0.0560544
250,-0.669,0.0560544
251,-0.668,0.0560544
252,-0.667,0.0560544
253,-0.666,0.0560544
254,-0.665,0.0560544
255,-0.664,0.0560544
256,-0.663,0.0560544
257,-0.662,0.0560544
258,-0.661,0.0560544
259,-0.66,0.0560544
260,-0.659,0.0560544
261,-0.658,0.0560544
262,-0.657,0.0560544
263,-0.656,0.0560544
264,-0.655,0.0560544
265,-0.654,0.0560544
266,-0.653,0.0560544
267,-0.652,0.0543156
268,-0.651,0.0577933
269,-0.65,0.0577933
270,-0.649,0.0577933
271,-0.648,0.0595321
272,-0.647,0.0560544
273,-0.646,0.0577933
274,-0.645,0.0577933
275,-0.644,0.0577933
276,-0.643,0.0577933
277,-0.642,0.0560544
278,-0.641,0.0595321
279,-0.64,0.061271
280,-0.639,0.061271
281,-0.638,0.0577933
282,-0.637,0.0577933
283,-0.636,0.0577933
284,-0.635,0.0577933
285,-0.634,0.0577933
286,-0.633,0.0577933
287,-0.632,0.0577933
288,-0.631,0.0577933
289,-0.63,0.0543156
290,-0.629,0.0560544
291,-0.628,0.0560544
292,-0.627,0.0560544
293,-0.626,0.0560544
294,-0.625,0.0560544
295,-0.624,0.0560544
296,-0.623,0.0560544
297,-0.622,0.0560544
298,-0.621,0.0560544
299,-0.62,0.0560544
300,-0.619,0.0560544
301,-0.618,0.0560544
302,-0.617,0.0560544
303,-0.616,0.0560544
304,-0.615,0.0560544
305,-0.614,0.0560544
306,-0.613,0.0560544
307,-0.612,0.0560544
308,-0.611,0.0560544
309,-0.61,0.0560544
310,-0.609,0.0560544
311,-0.608,0.0560544
312,-0.607,0.0560544
313,-0.606,0.0560544
314,-0.605,0.0560544
315,-0.604,0.0560544
316,-0.603,0.0560544
317,-0.602,0.0560544
318,-0.601,0.0560544
319,-0.6,0.0560544
320,-0.599,0.0560544
321,-0.598,0.0560544
322,-0.597,0.0560544
323,-0.596,0.0560544
324,-0.595,0.0560544
325,-0.594,0.0560544
326,-0.593,0.0560544
327,-0.592,0.0560544
328,-0.591,0.0560544
329,-0.59,0.0560544
330,-0.589,0.0560544
331,-0.588,0.0560544
332,-0.587,0.0577933
333,-0.586,0.0560544
334,-0.585,0.0595321
335,-0.584,0.0577933
336,-0.583,0.0577933
337,-0.582,0.0577933
338,-0.581,0.0577933
339,-0.58,0.0577933
340,-0.579,0.0577933
341,-0.578,0.0577933
342,-0.577,0.0577933
343,-0.576,0.061271
344,-0.575,0.0595321
345,-0.574,0.0595321
346,-0.573,0.0560544
347,-0.572,0.0577933
348,-0.571,0.0577933
349,-0.57,0.0577933
350,-0.569,0.0577933
351,-0.568,0.0577933
352,-0.567,0.0577933
353,-0.566,0.0560544
354,-0.565,0.0560544
355,-0.564,0.0560544
356,-0.563,0.0560544
357,-0.562,0.0560544
358,-0.561,0.0560544
359,-0.56,0.0560544
360,-0.559,0.0560544
361,-0.558,0.0560544
362,-0.557,0.0560544
363,-0.556,0.0560544
364,-0.555,0.0560544
365,-0.554,0.0560544
366,-0.553,0.0560544
367,-0.552,0.0560544
368,-0.551,0.0560544
369,-0.55,0.0560544
370,-0.549,0.0560544
371,-0.548,0.0560544
372,-0.547,0.0560544
373,-0.546,0.0560544
374,-0.545,0.0560544
375,-0.544,0.0560544
376,-0.543,0.0560544
377,-0.542,0.0560544
378,-0.541,0.0560544
379,-0.54,0.0560544
380,-0.539,0.0560544
381,-0.538,0.0560544
382,-0.537,0.0525767
383,-0.536,0.0560544
384,-0.535,0.0560544
385,-0.534,0.0560544
386,-0.533,0.0560544
387,-0.532,0.0560544
388,-0.531,0.0560544
389,-0.53,0.0560544
390,-0.529,0.0560544
391,-0.528,0.0560544
392,-0.527,0.0560544
393,-0.526,0.0560544
394,-0.525,0.0560544
395,-0.524,0.0577933
396,-0.523,0.0560544
397,-0.522,0.0595321
398,-0.521,0.0595321
399,-0.52,0.0577933
400,-0.519,0.0577933
401,-0.518,0.0577933
402,-0.517,0.0577933
403,-0.516,0.0577933
404,-0.515,0.0577933
405,-0.514,0.0577933
406,-0.513,0.061271
407,-0.512,0.061271
408,-0.511,0.0577933
409,-0.51,0.0577933
410,-0.509,0.0577933
411,-0.508,0.0577933
412,-0.507,0.0577933
413,-0.506,0.0577933
414,-0.505,0.0577933
415,-0.504,0.0577933
416,-0.503,0.0577933
417,-0.502,0.0543156
418,-0.501,0.0560544
419,-0.5,0.0560544
420,-0.499,0.0560544
421,-0.498,0.0560544
422,-0.497,0.0560544
423,-0.496,0.0560544
424,-0.495,0.0560544
425,-0.494,0.0560544
426,-0.493,0.0560544
427,-0.492,0.0560544
428,-0.491,0.0560544
429,-0.49,0.0560544
430,-0.489,0.0560544
431,-0.488,0.0560544
432,-0.487,0.0560544
433,-0.486,0.0560544
434,-0.485,0.0560544
435,-0.484,0.0560544
436,-0.483,0.0560544
437,-0.482,0.0560544
438,-0.481,0.0560544
439,-0.48,0.0560544
440,-0.479,0.0560544
441,-0.478,0.0560544
442,-0.477,0.0560544
443,-0.476,0.0560544
444,-0.475,0.0560544
445,-0.474,0.0560544
446,-0.473,0.0560544
447,-0.472,0.0560544
448,-0.471,0.0560544
449,-0.47,0.0560544
450,-0.469,0.0560544
451,-0.468,0.0560544
452,-0.467,0.0560544
453,-0.466,0.0560544
454,-0.465,0.0560544
455,-0.464,0.0560544
456,-0.463,0.0560544
457,-0.462,0.0560544
458,-0.461,0.0577933
459,-0.46,0.0560544
460,-0.459,0.0595321
461,-0.458,0.0595321
462,-0.457,0.0577933
463,-0.456,0.0577933
464,-0.455,0.0577933
465,-0.454,0.0577933
466,-0.453,0.0577933
467,-0.452,0.0577933
468,-0.451,0.0577933
469,-0.45,0.061271
470,-0.449,0.061271
471,-0.448,0.0577933
472,-0.447,0.0577933
473,-0.446,0.0577933
474,-0.445,0.0577933
475,-0.444,0.0577933
476,-0.443,0.0577933
477,-0.442,0.0577933
478,-0.441,0.0577933
479,-0.44,0.0560544
480,-0.439,0.0560544
481,-0.438,0.0560544
482,-0.437,0.0560544
483,-0.436,0.0560544
484,-0.435,0.0560544
485,-0.434,0.0560544
486,-0.433,0.0560544
487,-0.432,0.0560544
488,-0.431,0.0560544
489,-0.43,0.0560544
490,-0.429,0.0560544
491,-0.428,0.0560544
492,-0.427,0.0560544
493,-0.426,0.0560544
494,-0.425,0.0560544
495,-0.424,0.0560544
496,-0.423,0.0560544
497,-0.422,0.0560544
498,-0.421,0.0560544
499,-0.42,0.0560544
500,-0.419,0.0560544
501,-0.418,0.0560544
502,-0.417,0.0560544
503,-0.416,0.0560544
504,-0.415,0.0560544
505,-0.414,0.0560544
506,-0.413,0.0560544
507,-0.412,0.0560544
508,-0.411,0.0560544
509,-0.41,0.0560544
510,-0.409,0.0560544
511,-0.408,0.0560544
512,-0.407,0.0560544
513,-0.406,0.0560544
514,-0.405,0.0560544
515,-0.404,0.0560544
516,-0.403,0.0560544
517,-0.402,0.0560544
518,-0.401,0.0560544
519,-0.4,0.0560544
520,-0.399,0.0543156
521,-0.398,0.0577933
522,-0.397,0.0577933
523,-0.396,0.0577933
524,-0.395,0.0577933
525,-0.394,0.0577933
526,-0.393,0.0577933
527,-0.392,0.0577933
528,-0.391,0.0577933
529,-0.39,0.0577933
530,-0.389,0.0560544
531,-0.388,0.0595321
532,-0.387,0.061271
533,-0.386,0.061271
534,-0.385,0.061271
535,-0.384,0.0577933
536,-0.383,0.0577933
537,-0.382,0.0577933
538,-0.381,0.0577933
539,-0.38,0.0577933
540,-0.379,0.0577933
541,-0.378,0.0577933
542,-0.377,0.0560544
543,-0.376,0.0560544
544,-0.375,0.0560544
545,-0.374,0.0560544
546,-0.373,0.0560544
547,-0.372,0.0560544
548,-0.371,0.0560544
549,-0.37,0.0560544
550,-0.369,0.0560544
551,-0.368,0.0560544
552,-0.367,0.0560544
553,-0.366,0.0560544
554,-0.365,0.0560544
555,-0.364,0.0560544
556,-0.363,0.0560544
557,-0.362,0.0560544
558,-0.361,0.0560544
559,-0.36,0.0560544
560,-0.359,0.0560544
561,-0.358,0.0560544
562,-0.357,0.0560544
563,-0.356,0.0560544
564,-0.355,0.0560544
565,-0.354,0.0560544
566,-0.353,0.0560544
567,-0.352,0.0560544
568,-0.351,0.0560544
569,-0.35,0.0560544
570,-0.349,0.0560544
571,-0.348,0.0560544
572,-0.347,0.0560544
573,-0.346,0.0560544
574,-0.345,0.0560544
575,-0.344,0.0560544
576,-0.343,0.0560544
577,-0.342,0.0560544
578,-0.341,0.0560544
579,-0.34,0.0560544
580,-0.339,0.0560544
581,-0.338,0.0560544
582,-0.337,0.0560544
583,-0.336,0.0560544
584,-0.335,0.0543156
585,-0.334,0.0577933
586,-0.333,0.0577933
587,-0.332,0.0560544
588,-0.331,0.0595321
589,-0.33,0.0560544
590,-0.329,0.0577933
591,-0.328,0.0577933
592,-0.327,0.0577933
593,-0.326,0.0577933
594,-0.325,0.0560544
595,-0.324,0.0595321
596,-0.323,0.0595321
597,-0.322,0.0595321
598,-0.321,0.0595321
599,-0.32,0.0595321
600,-0.319,0.0560544
601,-0.318,0.0577933
602,-0.317,0.0577933
603,-0.316,0.0577933
604,-0.315,0.0577933
605,-0.314,0.0577933
606,-0.313,0.0577933
607,-0.312,0.0560544
608,-0.311,0.0560544
609,-0.31,0.0560544
610,-0.309,0.0560544
611,-0.308,0.0560544
612,-0.307,0.0560544
613,-0.306,0.0560544
614,-0.305,0.0560544
615,-0.304,0.0560544
616,-0.303,0.0560544
617,-0.302,0.0560544
618,-0.301,0.0560544
619,-0.3,0.0560544
620,-0.299,0.0560544
621,-0.298,0.0560544
622,-0.297,0.0560544
623,-0.296,0.0560544
624,-0.295,0.0560544
625,-0.294,0.0560544
626,-0.293,0.0560544
627,-0.292,0.0560544
628,-0.291,0.0560544
629,-0.29,0.0560544
630,-0.289,0.0560544
631,-0.288,0.0560544
632,-0.287,0.0560544
633,-0.286,0.0560544
634,-0.285,0.0560544
635,-0.284,0.0560544
636,-0.283,0.0560544
637,-0.282,0.0560544
638,-0.281,0.0560544
639,-0.28,0.0560544
640,-0.279,0.0560544
641,-0.278,0.0560544
642,-0.277,0.0560544
643,-0.276,0.0560544
644,-0.275,0.0560544
645,-0.274,0.0560544
646,-0.273,0.0560544
647,-0.272,0.0560544
648,-0.271,0.0577933
649,-0.27,0.0560544
650,-0.269,0.0595321
651,-0.268,0.0595321
652,-0.267,0.0560544
653,-0.266,0.0577933
654,-0.265,0.0577933
655,-0.264,0.0577933
656,-0.263,0.0577933
657,-0.262,0.0577933
658,-0.261,0.0595321
659,-0.26,0.061271
660,-0.259,0.061271
661,-0.258,0.0577933
662,-0.257,0.0577933
663,-0.256,0.0577933
664,-0.255,0.0577933
665,-0.254,0.0577933
666,-0.253,0.0577933
667,-0.252,0.0577933
668,-0.251,0.0577933
669,-0.25,0.0577933
670,-0.249,0.0543156
671,-0.248,0.0560544
672,-0.247,0.0560544
673,-0.246,0.0560544
674,-0.245,0.0560544
675,-0.244,0.0560544
676,-0.243,0.0560544
677,-0.242,0.0560544
678,-0.241,0.0560544
679,-0.24,0.0560544
680,-0.239,0.0560544
681,-0.238,0.0560544
682,-0.237,0.0560544
683,-0.236,0.0560544
684,-0.235,0.0560544
685,-0.234,0.0560544
686,-0.233,0.0560544
687,-0.232,0.0560544
688,-0.231,0.0560544
689,-0.23,0.0560544
690,-0.229,0.0560544
691,-0.228,0.0560544
692,-0.227,0.0560544
693,-0.226,0.0560544
694,-0.225,0.0560544
695,-0.224,0.0560544
696,-0.223,0.0560544
697,-0.222,0.0560544
698,-0.221,0.0560544
699,-0.22,0.0560544
700,-0.219,0.0560544
701,-0.218,0.0560544
702,-0.217,0.0560544
703,-0.216,0.0560544
704,-0.215,0.0560544
705,-0.214,0.0560544
706,-0.213,0.0560544
707,-0.212,0.0560544
708,-0.211,0.0560544
709,-0.21,0.0560544
710,-0.209,0.0543156
711,-0.208,0.0577933
712,-0.207,0.0577933
713,-0.206,0.0577933
714,-0.205,0.0595321
715,-0.204,0.0595321
716,-0.203,0.0560544
717,-0.202,0.0577933
718,-0.201,0.0577933
719,-0.2,0.0577933
720,-0.199,0.0577933
721,-0.198,0.0577933
722,-0.197,0.061271
723,-0.196,0.061271
724,-0.195,0.0595321
725,-0.194,0.0595321
726,-0.193,0.0560544
727,-0.192,0.0577933
728,-0.191,0.0577933
729,-0.19,0.0577933
730,-0.189,0.0577933
731,-0.188,0.0577933
732,-0.187,0.0560544
733,-0.186,0.0560544
734,-0.185,0.0560544
735,-0.184,0.0560544
736,-0.183,0.0560544
737,-0.182,0.0560544
738,-0.181,0.0560544
739,-0.18,0.0560544
740,-0.179,0.0560544
741,-0.178,0.0560544
742,-0.177,0.0560544
743,-0.176,0.0560544
744,-0.175,0.0560544
745,-0.174,0.0560544
746,-0.173,0.0560544
747,-0.172,0.0560544
748,-0.171,0.0560544
749,-0.17,0.0560544
750,-0.169,0.0560544
751,-0.168,0.0560544
752,-0.167,0.0560544
753,-0.166,0.0560544
754,-0.165,0.0560544
755,-0.164,0.0560544
756,-0.163,0.0560544
757,-0.162,0.0560544
758,-0.161,0.0560544
759,-0.16,0.0560544
760,-0.159,0.0560544
761,-0.158,0.0560544
762,-0.157,0.0560544
763,-0.156,0.0560544
764,-0.155,0.0560544
765,-0.154,0.0560544
766,-0.153,0.0560544
767,-0.152,0.0560544
768,-0.151,0.0560544
769,-0.15,0.0560544
770,-0.149,0.0560544
771,-0.148,0.0560544
772,-0.147,0.0560544
773,-0.146,0.0560544
774,-0.145,0.0560544
775,-0.144,0.0577933
776,-0.143,0.0560544
777,-0.142,0.0595321
778,-0.141,0.0595321
779,-0.14,0.0595321
780,-0.139,0.0560544
781,-0.138,0.0577933
782,-0.137,0.0577933
783,-0.136,0.0577933
784,-0.135,0.0577933
785,-0.134,0.0595321
786,-0.133,0.061271
787,-0.132,0.061271
788,-0.131,0.0595321
789,-0.13,0.0595321
790,-0.129,0.0577933
791,-0.128,0.0577933
792,-0.127,0.0577933
793,-0.126,0.0577933
794,-0.125,0.0577933
795,-0.124,0.0577933
796,-0.123,0.0560544
797,-0.122,0.0560544
798,-0.121,0.0560544
799,-0.12,0.0560544
800,-0.119,0.0560544
801,-0.118,0.0560544
802,-0.117,0.0560544
803,-0.116,0.0560544
804,-0.115,0.0560544
805,-0.114,0.0560544
806,-0.113,0.0560544
807,-0.112,0.0560544
808,-0.111,0.0560544
809,-0.11,0.0560544
810,-0.109,0.0560544
811,-0.108,0.0560544
812,-0.107,0.0560544
813,-0.106,0.0560544
814,-0.105,0.0560544
815,-0.104,0.0560544
816,-0.103,0.0560544
817,-0.102,0.0560544
818,-0.101,0.0560544
819,-0.1,0.0560544
820,-0.099,0.0560544
821,-0.098,0.0560544
822,-0.097,0.0560544
823,-0.096,0.0560544
824,-0.095,0.0560544
825,-0.094,0.0560544
826,-0.093,0.0560544
827,-0.092,0.0543156
828,-0.091,0.0577933
829,-0.09,0.0577933
830,-0.089,0.0543156
831,-0.088,0.0560544
832,-0.087,0.0560544
833,-0.086,0.0560544
834,-0.085,0.0560544
835,-0.084,0.0560544
836,-0.083,0.0560544
837,-0.082,0.0543156
838,-0.081,0.0577933
839,-0.08,0.0560544
840,-0.079,0.0595321
841,-0.078,0.0595321
842,-0.077,0.0595321
843,-0.076,0.0595321
844,-0.075,0.0560544
845,-0.074,0.0577933
846,-0.073,0.0577933
847,-0.072,0.0560544
848,-0.071,0.0595321
849,-0.07,0.061271
850,-0.069,0.061271
851,-0.068,0.061271
852,-0.067,0.0577933
853,-0.066,0.0595321
854,-0.065,0.0560544
855,-0.064,0.0577933
856,-0.063,0.0577933
857,-0.062,0.0577933
858,-0.061,0.0577933
859,-0.06,0.0577933
860,-0.059,0.0543156
861,-0.058,0.0560544
862,-0.057,0.0560544
863,-0.056,0.0560544
864,-0.055,0.0560544
865,-0.054,0.0560544
866,-0.053,0.0560544
867,-0.052,0.0560544
868,-0.051,0.0560544
869,-0.05,0.0560544
870,-0.049,0.0560544
871,-0.048,0.0560544
872,-0.047,0.0560544
873,-0.046,0.0560544
874,-0.045,0.0560544
875,-0.044,0.0560544
876,-0.043,0.0560544
877,-0.042,0.0560544
878,-0.041,0.0560544
879,-0.04,0.0560544
880,-0.039,0.0560544
881,-0.038,0.0560544
882,-0.037,0.0560544
883,-0.036,0.0560544
884,-0.035,0.0560544
885,-0.034,0.0560544
886,-0.033,0.0560544
887,-0.032,0.0560544
888,-0.031,0.0560544
889,-0.03,0.0560544
890,-0.029,0.0560544
891,-0.028,0.0560544
892,-0.027,0.0560544
893,-0.026,0.0560544
894,-0.025,0.0560544
895,-0.024,0.0560544
896,-0.023,0.0560544
897,-0.022,0.0560544
898,-0.021,0.0560544
899,-0.02,0.0560544
900,-0.019,0.0543156
901,-0.018,0.0577933
902,-0.017,0.0577933
903,-0.016,0.0577933
904,-0.015,0.0595321
905,-0.014,0.0595321
906,-0.013,0.0560544
907,-0.012,0.0577933
908,-0.011,0.0577933
909,-0.01,0.0577933
910,-0.009,0.0560544
911,-0.008,0.0595321
912,-0.007,0.0595321
913,-0.006,0.061271
914,-0.005,0.061271
915,-0.004,0.0577933
916,-0.003,0.0577933
917,-0.002,0.0577933
918,-0.001,0.0577933
919,0,0.0577933
920,0.001,0.0577933
921,0.002,0.0577933
922,0.003,0.0577933
923,0.004,0.0560544
924,0.005,0.0560544
925,0.006,0.0560544
926,0.007,0.0560544
927,0.008,0.0560544
928,0.009,0.0560544
929,0.01,0.0560544
930,0.011,0.0560544
931,0.012,0.0560544
932,0.013,0.0560544
933,0.014,0.0560544
934,0.015,0.0560544
935,0.016,0.0560544
936,0.017,0.0560544
937,0.018,0.0560544
938,0.019,0.0560544
939,0.02,0.0560544
940,0.021,0.0560544
941,0.022,0.0560544
942,0.023,0.0560544
943,0.024,0.0560544
944,0.025,0.0560544
945,0.026,0.0560544
946,0.027,0.0560544
947,0.028,0.0560544
948,0.029,0.0560544
949,0.03,0.0560544
950,0.031,0.0560544
951,0.032,0.0560544
952,0.033,0.0560544
953,0.034,0.0560544
954,0.035,0.0560544
955,0.036,0.0560544
956,0.037,0.0560544
