measure/Measure_meeting_2/2MHz_voltage_test_3-2.1-52.2.csv

;Scopy version,f4beeb1
;Exported on,dimanche mars 17/03/2024
;Device,M2K
;Nr of samples,16000
;Sample rate,1000
;Tool,Oscilloscope
;Additional Information,
Sample,Time(S),CH1(V)
0,-0.919,0.0543156
1,-0.918,0.0543156
2,-0.917,0.0543156
3,-0.916,0.0543156
4,-0.915,0.0543156
5,-0.914,0.0543156
6,-0.913,0.0543156
7,-0.912,0.0543156
8,-0.911,0.0543156
9,-0.91,0.0543156
10,-0.909,0.0543156
11,-0.908,0.0543156
12,-0.907,0.0543156
13,-0.906,0.0543156
14,-0.905,0.0543156
15,-0.904,0.0543156
16,-0.903,0.0543156
17,-0.902,0.0543156
18,-0.901,0.0543156
19,-0.9,0.0543156
20,-0.899,0.0543156
21,-0.898,0.0543156
22,-0.897,0.0543156
23,-0.896,0.0543156
24,-0.895,0.0543156
25,-0.894,0.0543156
26,-0.893,0.0543156
27,-0.892,0.0543156
28,-0.891,0.0543156
29,-0.89,0.0543156
30,-0.889,0.0543156
31,-0.888,0.0543156
32,-0.887,0.0543156
33,-0.886,0.0543156
34,-0.885,0.0543156
35,-0.884,0.0543156
36,-0.883,0.0543156
37,-0.882,0.0543156
38,-0.881,0.0543156
39,-0.88,0.0543156
40,-0.879,0.0543156
41,-0.878,0.0543156
42,-0.877,0.0543156
43,-0.876,0.0543156
44,-0.875,0.0543156
45,-0.874,0.0543156
46,-0.873,0.0543156
47,-0.872,0.0543156
48,-0.871,0.0543156
49,-0.87,0.0543156
50,-0.869,0.0543156
51,-0.868,0.0543156
52,-0.867,0.0543156
53,-0.866,0.0543156
54,-0.865,0.0543156
55,-0.864,0.0543156
56,-0.863,0.0543156
57,-0.862,0.0543156
58,-0.861,0.0543156
59,-0.86,0.0543156
60,-0.859,0.0543156
61,-0.858,0.0543156
62,-0.857,0.0543156
63,-0.856,0.0543156
64,-0.855,0.0543156
65,-0.854,0.0543156
66,-0.853,0.0543156
67,-0.852,0.0543156
68,-0.851,0.0543156
69,-0.85,0.0543156
70,-0.849,0.0543156
71,-0.848,0.0543156
72,-0.847,0.0543156
73,-0.846,0.0543156
74,-0.845,0.0543156
75,-0.844,0.0543156
76,-0.843,0.0543156
77,-0.842,0.0543156
78,-0.841,0.0543156
79,-0.84,0.0543156
80,-0.839,0.0543156
81,-0.838,0.0543156
82,-0.837,0.0543156
83,-0.836,0.0543156
84,-0.835,0.0543156
85,-0.834,0.0543156
86,-0.833,0.0543156
87,-0.832,0.0543156
88,-0.831,0.0543156
89,-0.83,0.0543156
90,-0.829,0.0543156
91,-0.828,0.0543156
92,-0.827,0.0543156
93,-0.826,0.0543156
94,-0.825,0.0543156
95,-0.824,0.0543156
96,-0.823,0.0543156
97,-0.822,0.0543156
98,-0.821,0.0543156
99,-0.82,0.0543156
100,-0.819,0.0543156
101,-0.818,0.0543156
102,-0.817,0.0543156
103,-0.816,0.0543156
104,-0.815,0.0543156
105,-0.814,0.0543156
106,-0.813,0.0543156
107,-0.812,0.0543156
108,-0.811,0.0543156
109,-0.81,0.0543156
110,-0.809,0.0543156
111,-0.808,0.0543156
112,-0.807,0.0543156
113,-0.806,0.0543156
114,-0.805,0.0543156
115,-0.804,0.0543156
116,-0.803,0.0543156
117,-0.802,0.0543156
118,-0.801,0.0543156
119,-0.8,0.0543156
120,-0.799,0.0543156
121,-0.798,0.0543156
122,-0.797,0.0543156
123,-0.796,0.0543156
124,-0.795,0.0543156
125,-0.794,0.0543156
126,-0.793,0.0543156
127,-0.792,0.0543156
128,-0.791,0.0543156
129,-0.79,0.0543156
130,-0.789,0.0543156
131,-0.788,0.0543156
132,-0.787,0.0543156
133,-0.786,0.0543156
134,-0.785,0.0543156
135,-0.784,0.0543156
136,-0.783,0.0543156
137,-0.782,0.0543156
138,-0.781,0.0543156
139,-0.78,0.0543156
140,-0.779,0.0543156
141,-0.778,0.0543156
142,-0.777,0.0543156
143,-0.776,0.0543156
144,-0.775,0.0543156
145,-0.774,0.0543156
146,-0.773,0.0543156
147,-0.772,0.0543156
148,-0.771,0.0543156
149,-0.77,0.0543156
150,-0.769,0.0543156
151,-0.768,0.0543156
152,-0.767,0.0543156
153,-0.766,0.0543156
154,-0.765,0.0543156
155,-0.764,0.0543156
156,-0.763,0.0543156
157,-0.762,0.0543156
158,-0.761,0.0543156
159,-0.76,0.0543156
160,-0.759,0.0543156
161,-0.758,0.0543156
162,-0.757,0.0543156
163,-0.756,0.0543156
164,-0.755,0.0543156
165,-0.754,0.0543156
166,-0.753,0.0543156
167,-0.752,0.0543156
168,-0.751,0.0543156
169,-0.75,0.0543156
170,-0.749,0.0543156
171,-0.748,0.0543156
172,-0.747,0.0543156
173,-0.746,0.0543156
174,-0.745,0.0543156
175,-0.744,0.0543156
176,-0.743,0.0543156
177,-0.742,0.0543156
178,-0.741,0.0543156
179,-0.74,0.0543156
180,-0.739,0.0543156
181,-0.738,0.0543156
182,-0.737,0.0543156
183,-0.736,0.0543156
184,-0.735,0.0543156
185,-0.734,0.0543156
186,-0.733,0.0543156
187,-0.732,0.0543156
188,-0.731,0.0543156
189,-0.73,0.0543156
190,-0.729,0.0543156
191,-0.728,0.0543156
192,-0.727,0.0543156
193,-0.726,0.0543156
194,-0.725,0.0543156
195,-0.724,0.0543156
196,-0.723,0.0543156
197,-0.722,0.0543156
198,-0.721,0.0543156
199,-0.72,0.0543156
200,-0.719,0.0543156
201,-0.718,0.0543156
202,-0.717,0.0543156
203,-0.716,0.0543156
204,-0.715,0.0508379
205,-0.714,0.0473602
206,-0.713,0.0438825
207,-0.712,0.0438825
208,-0.711,0.0438825
209,-0.71,0.0438825
210,-0.709,0.0438825
211,-0.708,0.0438825
212,-0.707,0.0438825
213,-0.706,0.0438825
214,-0.705,0.0438825
215,-0.704,0.0438825
216,-0.703,0.0438825
217,-0.702,0.0438825
218,-0.701,0.0438825
219,-0.7,0.0438825
220,-0.699,0.0438825
221,-0.698,0.0438825
222,-0.697,0.0438825
223,-0.696,0.0438825
224,-0.695,0.0438825
225,-0.694,0.0438825
226,-0.693,0.0438825
227,-0.692,0.0438825
228,-0.691,0.0438825
229,-0.69,0.0438825
230,-0.689,0.0438825
231,-0.688,0.0438825
232,-0.687,0.0438825
233,-0.686,0.0438825
234,-0.685,0.0438825
235,-0.684,0.0438825
236,-0.683,0.0438825
237,-0.682,0.0438825
238,-0.681,0.0438825
239,-0.68,0.0438825
240,-0.679,0.0438825
241,-0.678,0.0438825
242,-0.677,0.0438825
243,-0.676,0.0438825
244,-0.675,0.0438825
245,-0.674,0.0438825
246,-0.673,0.0438825
247,-0.672,0.0438825
248,-0.671,0.0438825
249,-0.67,0.0438825
250,-0.669,0.0438825
251,-0.668,0.0438825
252,-0.667,0.0438825
253,-0.666,0.0438825
254,-0.665,0.0438825
255,-0.664,0.0473602
256,-0.663,0.0525767
257,-0.662,0.0543156
258,-0.661,0.0543156
259,-0.66,0.0543156
260,-0.659,0.0543156
261,-0.658,0.0543156
262,-0.657,0.0543156
263,-0.656,0.0543156
264,-0.655,0.0543156
265,-0.654,0.0560544
266,-0.653,0.0560544
267,-0.652,0.0577933
268,-0.651,0.0577933
269,-0.65,0.0577933
270,-0.649,0.0560544
271,-0.648,0.0560544
272,-0.647,0.0560544
273,-0.646,0.0560544
274,-0.645,0.0543156
275,-0.644,0.0577933
276,-0.643,0.0595321
277,-0.642,0.0595321
278,-0.641,0.0577933
279,-0.64,0.0577933
280,-0.639,0.0560544
281,-0.638,0.0560544
282,-0.637,0.0560544
283,-0.636,0.0560544
284,-0.635,0.0560544
285,-0.634,0.0560544
286,-0.633,0.0560544
287,-0.632,0.0560544
288,-0.631,0.0525767
289,-0.63,0.0543156
290,-0.629,0.0543156
291,-0.628,0.0543156
292,-0.627,0.0543156
293,-0.626,0.0543156
294,-0.625,0.0543156
295,-0.624,0.0543156
296,-0.623,0.0543156
297,-0.622,0.0543156
298,-0.621,0.0543156
299,-0.62,0.0543156
300,-0.619,0.0543156
301,-0.618,0.0543156
302,-0.617,0.0543156
303,-0.616,0.0525767
304,-0.615,0.0560544
305,-0.614,0.0560544
306,-0.613,0.0560544
307,-0.612,0.0560544
308,-0.611,0.0525767
309,-0.61,0.0543156
310,-0.609,0.0543156
311,-0.608,0.0543156
312,-0.607,0.0543156
313,-0.606,0.0543156
314,-0.605,0.0543156
315,-0.604,0.0543156
316,-0.603,0.0543156
317,-0.602,0.0525767
318,-0.601,0.0560544
319,-0.6,0.0543156
320,-0.599,0.0543156
321,-0.598,0.0543156
322,-0.597,0.0543156
323,-0.596,0.0543156
324,-0.595,0.0543156
325,-0.594,0.0543156
326,-0.593,0.0525767
327,-0.592,0.0560544
328,-0.591,0.0560544
329,-0.59,0.0560544
330,-0.589,0.0577933
331,-0.588,0.0577933
332,-0.587,0.0577933
333,-0.586,0.0560544
334,-0.585,0.0560544
335,-0.584,0.0560544
336,-0.583,0.0560544
337,-0.582,0.0560544
338,-0.581,0.0577933
339,-0.58,0.0595321
340,-0.579,0.0595321
341,-0.578,0.0577933
342,-0.577,0.0577933
343,-0.576,0.0543156
344,-0.575,0.0560544
345,-0.574,0.0560544
346,-0.573,0.0560544
347,-0.572,0.0560544
348,-0.571,0.0560544
349,-0.57,0.0560544
350,-0.569,0.0560544
351,-0.568,0.0525767
352,-0.567,0.0543156
353,-0.566,0.0543156
354,-0.565,0.0543156
355,-0.564,0.0543156
356,-0.563,0.0543156
357,-0.562,0.0543156
358,-0.561,0.0543156
359,-0.56,0.0560544
360,-0.559,0.0560544
361,-0.558,0.0560544
362,-0.557,0.0560544
363,-0.556,0.0560544
364,-0.555,0.0560544
365,-0.554,0.0560544
366,-0.553,0.0560544
367,-0.552,0.0560544
368,-0.551,0.0560544
369,-0.55,0.0560544
370,-0.549,0.0560544
371,-0.548,0.0543156
372,-0.547,0.0543156
373,-0.546,0.0543156
374,-0.545,0.0543156
375,-0.544,0.0543156
376,-0.543,0.0543156
377,-0.542,0.0543156
378,-0.541,0.0543156
379,-0.54,0.0543156
380,-0.539,0.0543156
381,-0.538,0.0543156
382,-0.537,0.0543156
383,-0.536,0.0543156
384,-0.535,0.0543156
385,-0.534,0.0543156
386,-0.533,0.0543156
387,-0.532,0.0543156
388,-0.531,0.0543156
389,-0.53,0.0543156
390,-0.529,0.0560544
391,-0.528,0.0543156
392,-0.527,0.0577933
393,-0.526,0.0577933
394,-0.525,0.0577933
395,-0.524,0.0577933
396,-0.523,0.0560544
397,-0.522,0.0560544
398,-0.521,0.0560544
399,-0.52,0.0543156
400,-0.519,0.0577933
401,-0.518,0.0595321
402,-0.517,0.0595321
403,-0.516,0.0595321
404,-0.515,0.0577933
405,-0.514,0.0543156
406,-0.513,0.0560544
407,-0.512,0.0560544
408,-0.511,0.0560544
409,-0.51,0.0560544
410,-0.509,0.0560544
411,-0.508,0.0560544
412,-0.507,0.0560544
413,-0.506,0.0543156
414,-0.505,0.0543156
415,-0.504,0.0543156
416,-0.503,0.0543156
417,-0.502,0.0543156
418,-0.501,0.0543156
419,-0.5,0.0543156
420,-0.499,0.0543156
421,-0.498,0.0543156
422,-0.497,0.0560544
423,-0.496,0.0560544
424,-0.495,0.0560544
425,-0.494,0.0560544
426,-0.493,0.0560544
427,-0.492,0.0560544
428,-0.491,0.0560544
429,-0.49,0.0560544
430,-0.489,0.0560544
431,-0.488,0.0560544
432,-0.487,0.0560544
433,-0.486,0.0560544
434,-0.485,0.0543156
435,-0.484,0.0543156
436,-0.483,0.0543156
437,-0.482,0.0543156
438,-0.481,0.0543156
439,-0.48,0.0543156
440,-0.479,0.0543156
441,-0.478,0.0543156
442,-0.477,0.0543156
443,-0.476,0.0525767
444,-0.475,0.0560544
445,-0.474,0.0543156
446,-0.473,0.0543156
447,-0.472,0.0543156
448,-0.471,0.0543156
449,-0.47,0.0543156
450,-0.469,0.0543156
451,-0.468,0.0543156
452,-0.467,0.0543156
453,-0.466,0.0560544
454,-0.465,0.0543156
455,-0.464,0.0577933
456,-0.463,0.0577933
457,-0.462,0.0577933
458,-0.461,0.0577933
459,-0.46,0.0577933
460,-0.459,0.0577933
461,-0.458,0.0543156
462,-0.457,0.0543156
463,-0.456,0.0577933
464,-0.455,0.0595321
465,-0.454,0.0595321
466,-0.453,0.0595321
467,-0.452,0.0560544
468,-0.451,0.0577933
469,-0.45,0.0543156
470,-0.449,0.0560544
471,-0.448,0.0560544
472,-0.447,0.0560544
473,-0.446,0.0560544
474,-0.445,0.0560544
475,-0.444,0.0560544
476,-0.443,0.0560544
477,-0.442,0.0525767
478,-0.441,0.0543156
479,-0.44,0.0543156
480,-0.439,0.0543156
481,-0.438,0.0543156
482,-0.437,0.0543156
483,-0.436,0.0525767
484,-0.435,0.0560544
485,-0.434,0.0560544
486,-0.433,0.0560544
487,-0.432,0.0560544
488,-0.431,0.0560544
489,-0.43,0.0560544
490,-0.429,0.0560544
491,-0.428,0.0560544
492,-0.427,0.0560544
493,-0.426,0.0560544
494,-0.425,0.0560544
495,-0.424,0.0560544
496,-0.423,0.0560544
497,-0.422,0.0543156
498,-0.421,0.0543156
499,-0.42,0.0543156
500,-0.419,0.0543156
501,-0.418,0.0543156
502,-0.417,0.0543156
503,-0.416,0.0543156
504,-0.415,0.0543156
505,-0.414,0.0543156
506,-0.413,0.0525767
507,-0.412,0.0560544
508,-0.411,0.0543156
509,-0.41,0.0543156
510,-0.409,0.0543156
511,-0.408,0.0543156
512,-0.407,0.0543156
513,-0.406,0.0543156
514,-0.405,0.0543156
515,-0.404,0.0543156
516,-0.403,0.0560544
517,-0.402,0.0560544
518,-0.401,0.0577933
519,-0.4,0.0577933
520,-0.399,0.0577933
521,-0.398,0.0577933
522,-0.397,0.0577933
523,-0.396,0.0560544
524,-0.395,0.0560544
525,-0.394,0.0543156
526,-0.393,0.0577933
527,-0.392,0.0595321
528,-0.391,0.0595321
529,-0.39,0.0595321
530,-0.389,0.0560544
531,-0.388,0.0560544
532,-0.387,0.0560544
533,-0.386,0.0560544
534,-0.385,0.0560544
535,-0.384,0.0560544
536,-0.383,0.0560544
537,-0.382,0.0560544
538,-0.381,0.0560544
539,-0.38,0.0525767
540,-0.379,0.0543156
541,-0.378,0.0543156
542,-0.377,0.0543156
543,-0.376,0.0543156
544,-0.375,0.0543156
545,-0.374,0.0543156
546,-0.373,0.0543156
547,-0.372,0.0560544
548,-0.371,0.0560544
549,-0.37,0.0560544
550,-0.369,0.0560544
551,-0.368,0.0560544
552,-0.367,0.0560544
553,-0.366,0.0560544
554,-0.365,0.0560544
555,-0.364,0.0560544
556,-0.363,0.0560544
557,-0.362,0.0560544
558,-0.361,0.0560544
559,-0.36,0.0543156
560,-0.359,0.0543156
561,-0.358,0.0543156
562,-0.357,0.0543156
563,-0.356,0.0543156
564,-0.355,0.0543156
565,-0.354,0.0543156
566,-0.353,0.0543156
567,-0.352,0.0543156
568,-0.351,0.0543156
569,-0.35,0.0543156
570,-0.349,0.0560544
571,-0.348,0.0525767
572,-0.347,0.0543156
573,-0.346,0.0543156
574,-0.345,0.0543156
575,-0.344,0.0543156
576,-0.343,0.0543156
577,-0.342,0.0543156
578,-0.341,0.0543156
579,-0.34,0.0560544
580,-0.339,0.0560544
581,-0.338,0.0577933
582,-0.337,0.0577933
583,-0.336,0.0577933
584,-0.335,0.0577933
585,-0.334,0.0577933
586,-0.333,0.0560544
587,-0.332,0.0560544
588,-0.331,0.0543156
589,-0.33,0.0577933
590,-0.329,0.0595321
591,-0.328,0.0595321
592,-0.327,0.0595321
593,-0.326,0.0560544
594,-0.325,0.0560544
595,-0.324,0.0560544
596,-0.323,0.0560544
597,-0.322,0.0560544
598,-0.321,0.0560544
599,-0.32,0.0560544
600,-0.319,0.0560544
601,-0.318,0.0560544
602,-0.317,0.0543156
603,-0.316,0.0543156
604,-0.315,0.0543156
605,-0.314,0.0543156
606,-0.313,0.0543156
607,-0.312,0.0543156
608,-0.311,0.0543156
609,-0.31,0.0525767
610,-0.309,0.0560544
611,-0.308,0.0560544
612,-0.307,0.0560544
613,-0.306,0.0560544
614,-0.305,0.0560544
615,-0.304,0.0560544
616,-0.303,0.0560544
617,-0.302,0.0560544
618,-0.301,0.0560544
619,-0.3,0.0560544
620,-0.299,0.0560544
621,-0.298,0.0560544
622,-0.297,0.0525767
623,-0.296,0.0543156
624,-0.295,0.0543156
625,-0.294,0.0543156
626,-0.293,0.0543156
627,-0.292,0.0543156
628,-0.291,0.0543156
629,-0.29,0.0543156
630,-0.289,0.0543156
631,-0.288,0.0525767
632,-0.287,0.0560544
633,-0.286,0.0560544
634,-0.285,0.0525767
635,-0.284,0.0543156
636,-0.283,0.0543156
637,-0.282,0.0543156
638,-0.281,0.0543156
639,-0.28,0.0543156
640,-0.279,0.0543156
641,-0.278,0.0543156
642,-0.277,0.0560544
643,-0.276,0.0560544
644,-0.275,0.0577933
645,-0.274,0.0577933
646,-0.273,0.0577933
647,-0.272,0.0577933
648,-0.271,0.0560544
649,-0.27,0.0560544
650,-0.269,0.0560544
651,-0.268,0.0543156
652,-0.267,0.0577933
653,-0.266,0.0595321
654,-0.265,0.0595321
655,-0.264,0.0577933
656,-0.263,0.0577933
657,-0.262,0.0543156
658,-0.261,0.0560544
659,-0.26,0.0560544
660,-0.259,0.0560544
661,-0.258,0.0560544
662,-0.257,0.0560544
663,-0.256,0.0560544
664,-0.255,0.0560544
665,-0.254,0.0543156
666,-0.253,0.0543156
667,-0.252,0.0543156
668,-0.251,0.0543156
669,-0.25,0.0543156
670,-0.249,0.0543156
671,-0.248,0.0543156
672,-0.247,0.0543156
673,-0.246,0.0560544
674,-0.245,0.0560544
675,-0.244,0.0560544
676,-0.243,0.0560544
677,-0.242,0.0560544
678,-0.241,0.0560544
679,-0.24,0.0560544
680,-0.239,0.0560544
681,-0.238,0.0560544
682,-0.237,0.0560544
683,-0.236,0.0560544
684,-0.235,0.0560544
685,-0.234,0.0560544
686,-0.233,0.0543156
687,-0.232,0.0543156
688,-0.231,0.0543156
689,-0.23,0.0543156
690,-0.229,0.0543156
691,-0.228,0.0543156
692,-0.227,0.0543156
693,-0.226,0.0543156
694,-0.225,0.0543156
695,-0.224,0.0525767
696,-0.223,0.0560544
697,-0.222,0.0543156
698,-0.221,0.0543156
699,-0.22,0.0543156
700,-0.219,0.0543156
701,-0.218,0.0543156
702,-0.217,0.0543156
703,-0.216,0.0543156
704,-0.215,0.0543156
705,-0.214,0.0560544
706,-0.213,0.0543156
707,-0.212,0.0577933
708,-0.211,0.0577933
709,-0.21,0.0577933
710,-0.209,0.0577933
711,-0.208,0.0543156
712,-0.207,0.0560544
713,-0.206,0.0560544
714,-0.205,0.0543156
715,-0.204,0.0577933
716,-0.203,0.0595321
717,-0.202,0.0595321
718,-0.201,0.0595321
719,-0.2,0.0560544
720,-0.199,0.0560544
721,-0.198,0.0560544
722,-0.197,0.0560544
723,-0.196,0.0560544
724,-0.195,0.0560544
725,-0.194,0.0560544
726,-0.193,0.0560544
727,-0.192,0.0560544
728,-0.191,0.0543156
729,-0.19,0.0543156
730,-0.189,0.0543156
731,-0.188,0.0543156
732,-0.187,0.0543156
733,-0.186,0.0543156
734,-0.185,0.0543156
735,-0.184,0.0543156
736,-0.183,0.0560544
737,-0.182,0.0560544
738,-0.181,0.0560544
739,-0.18,0.0560544
740,-0.179,0.0560544
741,-0.178,0.0560544
742,-0.177,0.0560544
743,-0.176,0.0560544
744,-0.175,0.0560544
745,-0.174,0.0560544
746,-0.173,0.0560544
747,-0.172,0.0560544
748,-0.171,0.0560544
749,-0.17,0.0525767
750,-0.169,0.0543156
751,-0.168,0.0543156
752,-0.167,0.0543156
753,-0.166,0.0543156
754,-0.165,0.0543156
755,-0.164,0.0543156
756,-0.163,0.0543156
757,-0.162,0.0525767
758,-0.161,0.0560544
759,-0.16,0.0560544
760,-0.159,0.0525767
761,-0.158,0.0543156
762,-0.157,0.0543156
763,-0.156,0.0543156
764,-0.155,0.0543156
765,-0.154,0.0543156
766,-0.153,0.0525767
767,-0.152,0.0560544
768,-0.151,0.0560544
769,-0.15,0.0560544
770,-0.149,0.0577933
771,-0.148,0.0577933
772,-0.147,0.0577933
773,-0.146,0.0577933
774,-0.145,0.0577933
775,-0.144,0.0543156
776,-0.143,0.0560544
777,-0.142,0.0543156
778,-0.141,0.0577933
779,-0.14,0.0595321
780,-0.139,0.0595321
781,-0.138,0.0595321
782,-0.137,0.0560544
783,-0.136,0.0560544
784,-0.135,0.0560544
785,-0.134,0.0560544
786,-0.133,0.0560544
787,-0.132,0.0560544
788,-0.131,0.0560544
789,-0.13,0.0560544
790,-0.129,0.0560544
791,-0.128,0.0525767
792,-0.127,0.0543156
793,-0.126,0.0543156
794,-0.125,0.0543156
795,-0.124,0.0543156
796,-0.123,0.0543156
797,-0.122,0.0543156
798,-0.121,0.0543156
799,-0.12,0.0560544
800,-0.119,0.0560544
801,-0.118,0.0525767
802,-0.117,0.0543156
803,-0.116,0.0560544
804,-0.115,0.0560544
805,-0.114,0.0560544
806,-0.113,0.0560544
807,-0.112,0.0560544
808,-0.111,0.0560544
809,-0.11,0.0560544
810,-0.109,0.0560544
811,-0.108,0.0560544
812,-0.107,0.0543156
813,-0.106,0.0543156
814,-0.105,0.0543156
815,-0.104,0.0543156
816,-0.103,0.0543156
817,-0.102,0.0543156
818,-0.101,0.0543156
819,-0.1,0.0543156
820,-0.099,0.0525767
821,-0.098,0.0560544
822,-0.097,0.0560544
823,-0.096,0.0543156
824,-0.095,0.0543156
825,-0.094,0.0543156
826,-0.093,0.0543156
827,-0.092,0.0543156
828,-0.091,0.0543156
829,-0.09,0.0525767
830,-0.089,0.0560544
831,-0.088,0.0560544
832,-0.087,0.0560544
833,-0.086,0.0577933
834,-0.085,0.0577933
835,-0.084,0.0577933
836,-0.083,0.0577933
837,-0.082,0.0577933
838,-0.081,0.0560544
839,-0.08,0.0560544
840,-0.079,0.0560544
841,-0.078,0.0577933
842,-0.077,0.0595321
843,-0.076,0.0595321
844,-0.075,0.0577933
845,-0.074,0.0577933
846,-0.073,0.0577933
847,-0.072,0.0543156
848,-0.071,0.0560544
849,-0.07,0.0560544
850,-0.069,0.0560544
851,-0.068,0.0560544
852,-0.067,0.0543156
853,-0.066,0.0543156
854,-0.065,0.0543156
855,-0.064,0.0543156
856,-0.063,0.0543156
857,-0.062,0.0543156
858,-0.061,0.0543156
859,-0.06,0.0543156
860,-0.059,0.0543156
861,-0.058,0.0543156
862,-0.057,0.0560544
863,-0.056,0.0560544
864,-0.055,0.0560544
865,-0.054,0.0560544
866,-0.053,0.0560544
867,-0.052,0.0560544
868,-0.051,0.0560544
869,-0.05,0.0560544
870,-0.049,0.0560544
871,-0.048,0.0560544
872,-0.047,0.0560544
873,-0.046,0.0560544
874,-0.045,0.0560544
875,-0.044,0.0560544
876,-0.043,0.0525767
877,-0.042,0.0543156
878,-0.041,0.0543156
879,-0.04,0.0543156
880,-0.039,0.0543156
881,-0.038,0.0543156
882,-0.037,0.0543156
883,-0.036,0.0525767
884,-0.035,0.0560544
885,-0.034,0.0560544
886,-0.033,0.0560544
887,-0.032,0.0525767
888,-0.031,0.0543156
889,-0.03,0.0543156
890,-0.029,0.0543156
891,-0.028,0.0543156
892,-0.027,0.0543156
893,-0.026,0.0543156
894,-0.025,0.0560544
895,-0.024,0.0543156
896,-0.023,0.0577933
897,-0.022,0.0577933
898,-0.021,0.0577933
899,-0.02,0.0577933
900,-0.019,0.0577933
901,-0.018,0.0577933
902,-0.017,0.0543156
903,-0.016,0.0543156
904,-0.015,0.0577933
905,-0.014,0.0595321
906,-0.013,0.0595321
907,-0.012,0.0595321
908,-0.011,0.0560544
909,-0.01,0.0577933
910,-0.009,0.0560544
911,-0.008,0.0560544
912,-0.007,0.0560544
913,-0.006,0.0560544
914,-0.005,0.0560544
915,-0.004,0.0560544
916,-0.003,0.0525767
917,-0.002,0.0543156
918,-0.001,0.0543156
919,0,0.0543156
920,0.001,0.0543156
921,0.002,0.0543156
922,0.003,0.0543156
923,0.004,0.0543156
924,0.005,0.0525767
925,0.006,0.0560544
926,0.007,0.0560544
927,0.008,0.0560544
928,0.009,0.0560544
929,0.01,0.0560544
930,0.011,0.0560544
931,0.012,0.0560544
932,0.013,0.0560544
933,0.014,0.0560544
934,0.015,0.0560544
935,0.016,0.0560544
936,0.017,0.0560544
937,0.018,0.0560544
938,0.019,0.0560544
939,0.02,0.0543156
940,0.021,0.0543156
941,0.022,0.0543156
942,0.023,0.0543156
943,0.024,0.0543156
944,0.025,0.0543156
945,0.026,0.0543156
946,0.027,0.0543156
947,0.028,0.0543156
948,0.029,0.0543156
949,0.03,0.0543156
950,0.031,0.0543156
951,0.032,0.0543156
952,0.033,0.0543156
953,0.034,0.0543156
954,0.035,0.0543156
955,0.036,0.0543156
