measure/Measure_meeting_2/2MHz_LP_final-3.3-19.7.csv

;Scopy version,f4beeb1
;Exported on,dimanche mars 17/03/2024
;Device,M2K
;Nr of samples,160000
;Sample rate,10000
;Tool,Oscilloscope
;Additional Information,
Sample,Time(S),CH1(V)
0,-0.8192,0.0402642
1,-0.8191,0.0402642
2,-0.819,0.0402642
3,-0.8189,0.0402642
4,-0.8188,0.0402642
5,-0.8187,0.0402642
6,-0.8186,0.0402642
7,-0.8185,0.0402642
8,-0.8184,0.0402642
9,-0.8183,0.0402642
10,-0.8182,0.0402642
11,-0.8181,0.0402642
12,-0.818,0.0402642
13,-0.8179,0.0402642
14,-0.8178,0.0402642
15,-0.8177,0.0402642
16,-0.8176,0.0402642
17,-0.8175,0.0402642
18,-0.8174,0.0402642
19,-0.8173,0.0402642
20,-0.8172,0.0402642
21,-0.8171,0.0402642
22,-0.817,0.0402642
23,-0.8169,0.0402642
24,-0.8168,0.0402642
25,-0.8167,0.0402642
26,-0.8166,0.0402642
27,-0.8165,0.0402642
28,-0.8164,0.0402642
29,-0.8163,0.0402642
30,-0.8162,0.0402642
31,-0.8161,0.0402642
32,-0.816,0.0402642
33,-0.8159,0.0402642
34,-0.8158,0.0402642
35,-0.8157,0.0402642
36,-0.8156,0.0402642
37,-0.8155,0.0402642
38,-0.8154,0.0402642
39,-0.8153,0.0402642
40,-0.8152,0.0402642
41,-0.8151,0.0402642
42,-0.815,0.0402642
43,-0.8149,0.0402642
44,-0.8148,0.0402642
45,-0.8147,0.0402642
46,-0.8146,0.0402642
47,-0.8145,0.0402642
48,-0.8144,0.0402642
49,-0.8143,0.0402642
50,-0.8142,0.0402642
51,-0.8141,0.0402642
52,-0.814,0.0402642
53,-0.8139,0.0402642
54,-0.8138,0.0402642
55,-0.8137,0.0402642
56,-0.8136,0.0402642
57,-0.8135,0.0402642
58,-0.8134,0.0402642
59,-0.8133,0.0402642
60,-0.8132,0.0402642
61,-0.8131,0.0402642
62,-0.813,0.0402642
63,-0.8129,0.0402642
64,-0.8128,0.0402642
65,-0.8127,0.0402642
66,-0.8126,0.0402642
67,-0.8125,0.0402642
68,-0.8124,0.0402642
69,-0.8123,0.0402642
70,-0.8122,0.0402642
71,-0.8121,0.0402642
72,-0.812,0.0402642
73,-0.8119,0.0402642
74,-0.8118,0.0402642
75,-0.8117,0.0402642
76,-0.8116,0.0402642
77,-0.8115,0.0402642
78,-0.8114,0.0402642
79,-0.8113,0.0402642
80,-0.8112,0.0402642
81,-0.8111,0.0402642
82,-0.811,0.0402642
83,-0.8109,0.0402642
84,-0.8108,0.0402642
85,-0.8107,0.0402642
86,-0.8106,0.0402642
87,-0.8105,0.0402642
88,-0.8104,0.0402642
89,-0.8103,0.0402642
90,-0.8102,0.0402642
91,-0.8101,0.0402642
92,-0.81,0.0402642
93,-0.8099,0.0402642
94,-0.8098,0.0402642
95,-0.8097,0.0402642
96,-0.8096,0.0402642
97,-0.8095,0.0402642
98,-0.8094,0.0402642
99,-0.8093,0.0402642
100,-0.8092,0.0402642
101,-0.8091,0.0402642
102,-0.809,0.0402642
103,-0.8089,0.0402642
104,-0.8088,0.0402642
105,-0.8087,0.0402642
106,-0.8086,0.0402642
107,-0.8085,0.0402642
108,-0.8084,0.0402642
109,-0.8083,0.0402642
110,-0.8082,0.0402642
111,-0.8081,0.0402642
112,-0.808,0.0402642
113,-0.8079,0.0402642
114,-0.8078,0.0402642
115,-0.8077,0.0402642
116,-0.8076,0.0402642
117,-0.8075,0.0402642
118,-0.8074,0.0402642
119,-0.8073,0.0402642
120,-0.8072,0.0402642
121,-0.8071,0.0402642
122,-0.807,0.0402642
123,-0.8069,0.0402642
124,-0.8068,0.0402642
125,-0.8067,0.0402642
126,-0.8066,0.0402642
127,-0.8065,0.0402642
128,-0.8064,0.0402642
129,-0.8063,0.0402642
130,-0.8062,0.0402642
131,-0.8061,0.0402642
132,-0.806,0.0402642
133,-0.8059,0.0402642
134,-0.8058,0.0402642
135,-0.8057,0.0402642
136,-0.8056,0.0402642
137,-0.8055,0.0402642
138,-0.8054,0.0402642
139,-0.8053,0.0402642
140,-0.8052,0.0402642
141,-0.8051,0.0402642
142,-0.805,0.0402642
143,-0.8049,0.0402642
144,-0.8048,0.0402642
145,-0.8047,0.0402642
146,-0.8046,0.0402642
147,-0.8045,0.0402642
148,-0.8044,0.0402642
149,-0.8043,0.0402642
150,-0.8042,0.0402642
151,-0.8041,0.0402642
152,-0.804,0.0402642
153,-0.8039,0.0402642
154,-0.8038,0.0402642
155,-0.8037,0.0402642
156,-0.8036,0.0402642
157,-0.8035,0.0402642
158,-0.8034,0.0402642
159,-0.8033,0.0402642
160,-0.8032,0.0402642
161,-0.8031,0.0402642
162,-0.803,0.0402642
163,-0.8029,0.0402642
164,-0.8028,0.0402642
165,-0.8027,0.0402642
166,-0.8026,0.0402642
167,-0.8025,0.0402642
168,-0.8024,0.0402642
169,-0.8023,0.0402642
170,-0.8022,0.0402642
171,-0.8021,0.0402642
172,-0.802,0.0402642
173,-0.8019,0.0402642
174,-0.8018,0.0402642
175,-0.8017,0.0402642
176,-0.8016,0.0402642
177,-0.8015,0.0402642
178,-0.8014,0.0402642
179,-0.8013,0.0402642
180,-0.8012,0.0402642
181,-0.8011,0.0402642
182,-0.801,0.0402642
183,-0.8009,0.0402642
184,-0.8008,0.0402642
185,-0.8007,0.0402642
186,-0.8006,0.0402642
187,-0.8005,0.0402642
188,-0.8004,0.0402642
189,-0.8003,0.0402642
190,-0.8002,0.0402642
191,-0.8001,0.0402642
192,-0.8,0.0402642
193,-0.7999,0.0402642
194,-0.7998,0.0402642
195,-0.7997,0.0402642
196,-0.7996,0.0402642
197,-0.7995,0.0402642
198,-0.7994,0.0402642
199,-0.7993,0.0402642
200,-0.7992,0.0402642
201,-0.7991,0.0402642
202,-0.799,0.0402642
203,-0.7989,0.0402642
204,-0.7988,0.0402642
205,-0.7987,0.0402642
206,-0.7986,0.0402642
207,-0.7985,0.0402642
208,-0.7984,0.0402642
209,-0.7983,0.0402642
210,-0.7982,0.0402642
211,-0.7981,0.0402642
212,-0.798,0.0402642
213,-0.7979,0.0402642
214,-0.7978,0.0402642
215,-0.7977,0.0402642
216,-0.7976,0.0402642
217,-0.7975,0.0402642
218,-0.7974,0.0402642
219,-0.7973,0.0402642
220,-0.7972,0.0402642
221,-0.7971,0.0402642
222,-0.797,0.0402642
223,-0.7969,0.0402642
224,-0.7968,0.0402642
225,-0.7967,0.0402642
226,-0.7966,0.0402642
227,-0.7965,0.0402642
228,-0.7964,0.0402642
229,-0.7963,0.0402642
230,-0.7962,0.0402642
231,-0.7961,0.0402642
232,-0.796,0.0402642
233,-0.7959,0.0402642
234,-0.7958,0.0402642
235,-0.7957,0.0402642
236,-0.7956,0.0402642
237,-0.7955,0.0402642
238,-0.7954,0.0402642
239,-0.7953,0.0402642
240,-0.7952,0.0402642
241,-0.7951,0.0402642
242,-0.795,0.0402642
243,-0.7949,0.0402642
244,-0.7948,0.0402642
245,-0.7947,0.0402642
246,-0.7946,0.0402642
247,-0.7945,0.0402642
248,-0.7944,0.0402642
249,-0.7943,0.0402642
250,-0.7942,0.0402642
251,-0.7941,0.0402642
252,-0.794,0.0402642
253,-0.7939,0.0402642
254,-0.7938,0.0402642
255,-0.7937,0.0402642
256,-0.7936,0.0402642
257,-0.7935,0.0402642
258,-0.7934,0.0402642
259,-0.7933,0.0402642
260,-0.7932,0.0402642
261,-0.7931,0.0402642
262,-0.793,0.0402642
263,-0.7929,0.0402642
264,-0.7928,0.0402642
265,-0.7927,0.0402642
266,-0.7926,0.0402642
267,-0.7925,0.0402642
268,-0.7924,0.0402642
269,-0.7923,0.0402642
270,-0.7922,0.0402642
271,-0.7921,0.0402642
272,-0.792,0.0402642
273,-0.7919,0.0402642
274,-0.7918,0.0402642
275,-0.7917,0.0402642
276,-0.7916,0.0402642
277,-0.7915,0.0402642
278,-0.7914,0.0402642
279,-0.7913,0.0402642
280,-0.7912,0.0402642
281,-0.7911,0.0402642
282,-0.791,0.0402642
283,-0.7909,0.0402642
284,-0.7908,0.0402642
285,-0.7907,0.0402642
286,-0.7906,0.0402642
287,-0.7905,0.0402642
288,-0.7904,0.0402642
289,-0.7903,0.0402642
290,-0.7902,0.0402642
291,-0.7901,0.0402642
292,-0.79,0.0402642
293,-0.7899,0.0402642
294,-0.7898,0.0402642
295,-0.7897,0.0402642
296,-0.7896,0.0402642
297,-0.7895,0.0402642
298,-0.7894,0.0402642
299,-0.7893,0.0402642
300,-0.7892,0.0402642
301,-0.7891,0.0402642
302,-0.789,0.0402642
303,-0.7889,0.0402642
304,-0.7888,0.0402642
305,-0.7887,0.0402642
306,-0.7886,0.0402642
307,-0.7885,0.0402642
308,-0.7884,0.0402642
309,-0.7883,0.0402642
310,-0.7882,0.0402642
311,-0.7881,0.0402642
312,-0.788,0.0402642
313,-0.7879,0.0402642
314,-0.7878,0.0402642
315,-0.7877,0.0402642
316,-0.7876,0.0402642
317,-0.7875,0.0402642
318,-0.7874,0.0402642
319,-0.7873,0.0402642
320,-0.7872,0.0402642
321,-0.7871,0.0402642
322,-0.787,0.0402642
323,-0.7869,0.0402642
324,-0.7868,0.0402642
325,-0.7867,0.0402642
326,-0.7866,0.0402642
327,-0.7865,0.0402642
328,-0.7864,0.0402642
329,-0.7863,0.0402642
330,-0.7862,0.0402642
331,-0.7861,0.0402642
332,-0.786,0.0402642
333,-0.7859,0.0402642
334,-0.7858,0.0402642
335,-0.7857,0.0402642
336,-0.7856,0.0402642
337,-0.7855,0.0402642
338,-0.7854,0.0402642
339,-0.7853,0.0402642
340,-0.7852,0.0402642
341,-0.7851,0.0402642
342,-0.785,0.0402642
343,-0.7849,0.0402642
344,-0.7848,0.0402642
345,-0.7847,0.0402642
346,-0.7846,0.0402642
347,-0.7845,0.0402642
348,-0.7844,0.0402642
349,-0.7843,0.0402642
350,-0.7842,0.0402642
351,-0.7841,0.0402642
352,-0.784,0.0402642
353,-0.7839,0.0402642
354,-0.7838,0.0402642
355,-0.7837,0.0402642
356,-0.7836,0.0402642
357,-0.7835,0.0402642
358,-0.7834,0.0402642
359,-0.7833,0.0402642
360,-0.7832,0.0402642
361,-0.7831,0.0402642
362,-0.783,0.0402642
363,-0.7829,0.0402642
364,-0.7828,0.0402642
365,-0.7827,0.0402642
366,-0.7826,0.0402642
367,-0.7825,0.0402642
368,-0.7824,0.0402642
369,-0.7823,0.0402642
370,-0.7822,0.0402642
371,-0.7821,0.0402642
372,-0.782,0.0402642
373,-0.7819,0.0402642
374,-0.7818,0.0402642
375,-0.7817,0.0402642
376,-0.7816,0.0402642
377,-0.7815,0.0402642
378,-0.7814,0.0402642
379,-0.7813,0.0402642
380,-0.7812,0.0402642
381,-0.7811,0.0402642
382,-0.781,0.0369521
383,-0.7809,0.0369521
384,-0.7808,0.0319839
385,-0.7807,0.0319839
386,-0.7806,0.0319839
387,-0.7805,0.0286718
388,-0.7804,0.0303279
389,-0.7803,0.0270158
390,-0.7802,0.0286718
391,-0.7801,0.0270158
392,-0.78,0.0270158
393,-0.7799,0.0270158
394,-0.7798,0.0270158
395,-0.7797,0.0270158
396,-0.7796,0.0270158
397,-0.7795,0.0270158
398,-0.7794,0.0270158
399,-0.7793,0.0270158
400,-0.7792,0.0270158
401,-0.7791,0.0270158
402,-0.779,0.0270158
403,-0.7789,0.0270158
404,-0.7788,0.0270158
405,-0.7787,0.0270158
406,-0.7786,0.0270158
407,-0.7785,0.0270158
408,-0.7784,0.0270158
409,-0.7783,0.0253598
410,-0.7782,0.0253598
411,-0.7781,0.0270158
412,-0.778,0.0270158
413,-0.7779,0.0270158
414,-0.7778,0.0270158
415,-0.7777,0.0270158
416,-0.7776,0.0270158
417,-0.7775,0.0270158
418,-0.7774,0.0270158
419,-0.7773,0.0270158
420,-0.7772,0.0270158
421,-0.7771,0.0270158
422,-0.777,0.0270158
423,-0.7769,0.0270158
424,-0.7768,0.0270158
425,-0.7767,0.0270158
426,-0.7766,0.0270158
427,-0.7765,0.0270158
428,-0.7764,0.0270158
429,-0.7763,0.0270158
430,-0.7762,0.0270158
431,-0.7761,0.0270158
432,-0.776,0.0270158
433,-0.7759,0.0270158
434,-0.7758,0.0270158
435,-0.7757,0.0270158
436,-0.7756,0.0270158
437,-0.7755,0.0270158
438,-0.7754,0.0270158
439,-0.7753,0.0270158
440,-0.7752,0.0270158
441,-0.7751,0.0270158
442,-0.775,0.0270158
443,-0.7749,0.0270158
444,-0.7748,0.0270158
445,-0.7747,0.0270158
446,-0.7746,0.0270158
447,-0.7745,0.0270158
448,-0.7744,0.0270158
449,-0.7743,0.0270158
450,-0.7742,0.0270158
451,-0.7741,0.0270158
452,-0.774,0.0270158
453,-0.7739,0.0270158
454,-0.7738,0.0270158
455,-0.7737,0.0270158
456,-0.7736,0.0270158
457,-0.7735,0.0237037
458,-0.7734,0.0253598
459,-0.7733,0.0253598
460,-0.7732,0.0270158
461,-0.7731,0.0253598
462,-0.773,0.0237037
463,-0.7729,0.0253598
464,-0.7728,0.0237037
465,-0.7727,0.0270158
466,-0.7726,0.0253598
467,-0.7725,0.0253598
468,-0.7724,0.0237037
469,-0.7723,0.0270158
470,-0.7722,0.0270158
471,-0.7721,0.0270158
472,-0.772,0.0270158
473,-0.7719,0.0270158
474,-0.7718,0.0270158
475,-0.7717,0.0270158
476,-0.7716,0.0270158
477,-0.7715,0.0270158
478,-0.7714,0.0270158
479,-0.7713,0.0270158
480,-0.7712,0.0270158
481,-0.7711,0.0270158
482,-0.771,0.0270158
483,-0.7709,0.0270158
484,-0.7708,0.0270158
485,-0.7707,0.0270158
486,-0.7706,0.0270158
487,-0.7705,0.0270158
488,-0.7704,0.0270158
489,-0.7703,0.0270158
490,-0.7702,0.0270158
491,-0.7701,0.0270158
492,-0.77,0.0270158
493,-0.7699,0.0270158
494,-0.7698,0.0270158
495,-0.7697,0.0270158
496,-0.7696,0.0270158
497,-0.7695,0.0270158
498,-0.7694,0.0270158
499,-0.7693,0.0270158
500,-0.7692,0.0270158
501,-0.7691,0.0270158
502,-0.769,0.0270158
503,-0.7689,0.0270158
504,-0.7688,0.0270158
505,-0.7687,0.0270158
506,-0.7686,0.0270158
507,-0.7685,0.0270158
508,-0.7684,0.0270158
509,-0.7683,0.0270158
510,-0.7682,0.0270158
511,-0.7681,0.0270158
512,-0.768,0.0270158
513,-0.7679,0.0270158
514,-0.7678,0.0270158
515,-0.7677,0.0270158
516,-0.7676,0.0270158
517,-0.7675,0.0270158
518,-0.7674,0.0270158
519,-0.7673,0.0270158
520,-0.7672,0.0270158
521,-0.7671,0.0270158
522,-0.767,0.0270158
523,-0.7669,0.0270158
524,-0.7668,0.0270158
525,-0.7667,0.0270158
526,-0.7666,0.0270158
527,-0.7665,0.0270158
528,-0.7664,0.0270158
529,-0.7663,0.0270158
530,-0.7662,0.0270158
531,-0.7661,0.0270158
532,-0.766,0.0270158
533,-0.7659,0.0270158
534,-0.7658,0.0270158
535,-0.7657,0.0270158
536,-0.7656,0.0270158
537,-0.7655,0.0270158
538,-0.7654,0.0270158
539,-0.7653,0.0270158
540,-0.7652,0.0270158
541,-0.7651,0.0253598
542,-0.765,0.0253598
543,-0.7649,0.0270158
544,-0.7648,0.0270158
545,-0.7647,0.0270158
546,-0.7646,0.0270158
547,-0.7645,0.0270158
548,-0.7644,0.0270158
549,-0.7643,0.0270158
550,-0.7642,0.0270158
551,-0.7641,0.0270158
552,-0.764,0.0270158
553,-0.7639,0.0270158
554,-0.7638,0.0270158
555,-0.7637,0.0270158
556,-0.7636,0.0270158
557,-0.7635,0.0270158
558,-0.7634,0.0270158
559,-0.7633,0.0270158
560,-0.7632,0.0270158
561,-0.7631,0.0270158
562,-0.763,0.0270158
563,-0.7629,0.0270158
564,-0.7628,0.0270158
565,-0.7627,0.0270158
566,-0.7626,0.0270158
567,-0.7625,0.0270158
568,-0.7624,0.0270158
569,-0.7623,0.0270158
570,-0.7622,0.0270158
571,-0.7621,0.0270158
572,-0.762,0.0270158
573,-0.7619,0.0270158
574,-0.7618,0.0270158
575,-0.7617,0.0270158
576,-0.7616,0.0270158
577,-0.7615,0.0270158
578,-0.7614,0.0270158
579,-0.7613,0.0270158
580,-0.7612,0.0270158
581,-0.7611,0.0270158
582,-0.761,0.0270158
583,-0.7609,0.0270158
584,-0.7608,0.0270158
585,-0.7607,0.0270158
586,-0.7606,0.0270158
587,-0.7605,0.0270158
588,-0.7604,0.0270158
589,-0.7603,0.0270158
590,-0.7602,0.0270158
591,-0.7601,0.0270158
592,-0.76,0.0270158
593,-0.7599,0.0270158
594,-0.7598,0.0270158
595,-0.7597,0.0270158
596,-0.7596,0.0270158
597,-0.7595,0.0270158
598,-0.7594,0.0270158
599,-0.7593,0.0270158
600,-0.7592,0.0270158
601,-0.7591,0.0270158
602,-0.759,0.0270158
603,-0.7589,0.0270158
604,-0.7588,0.0270158
605,-0.7587,0.0270158
606,-0.7586,0.0270158
607,-0.7585,0.0270158
608,-0.7584,0.0270158
609,-0.7583,0.0270158
610,-0.7582,0.0270158
611,-0.7581,0.0270158
612,-0.758,0.0270158
613,-0.7579,0.0270158
614,-0.7578,0.0270158
615,-0.7577,0.0270158
616,-0.7576,0.0270158
617,-0.7575,0.0270158
618,-0.7574,0.0270158
619,-0.7573,0.0270158
620,-0.7572,0.0270158
621,-0.7571,0.0270158
622,-0.757,0.0270158
623,-0.7569,0.0270158
624,-0.7568,0.0270158
625,-0.7567,0.0270158
626,-0.7566,0.0270158
627,-0.7565,0.0270158
628,-0.7564,0.0270158
629,-0.7563,0.0270158
630,-0.7562,0.0270158
631,-0.7561,0.0270158
632,-0.756,0.0270158
633,-0.7559,0.0270158
634,-0.7558,0.0270158
635,-0.7557,0.0270158
636,-0.7556,0.0270158
637,-0.7555,0.0270158
638,-0.7554,0.0270158
639,-0.7553,0.0270158
640,-0.7552,0.0270158
641,-0.7551,0.0270158
642,-0.755,0.0270158
643,-0.7549,0.0270158
644,-0.7548,0.0270158
645,-0.7547,0.0270158
646,-0.7546,0.0270158
647,-0.7545,0.0270158
648,-0.7544,0.0270158
649,-0.7543,0.0270158
650,-0.7542,0.0270158
651,-0.7541,0.0270158
652,-0.754,0.0270158
653,-0.7539,0.0270158
654,-0.7538,0.0270158
655,-0.7537,0.0270158
656,-0.7536,0.0270158
657,-0.7535,0.0270158
658,-0.7534,0.0270158
659,-0.7533,0.0270158
660,-0.7532,0.0270158
661,-0.7531,0.0270158
662,-0.753,0.0270158
663,-0.7529,0.0270158
664,-0.7528,0.0270158
665,-0.7527,0.0270158
666,-0.7526,0.0270158
667,-0.7525,0.0270158
668,-0.7524,0.0270158
669,-0.7523,0.0270158
670,-0.7522,0.0270158
671,-0.7521,0.0270158
672,-0.752,0.0270158
673,-0.7519,0.0270158
674,-0.7518,0.0270158
675,-0.7517,0.0270158
676,-0.7516,0.0270158
677,-0.7515,0.0270158
678,-0.7514,0.0270158
679,-0.7513,0.0270158
680,-0.7512,0.0270158
681,-0.7511,0.0270158
682,-0.751,0.0270158
683,-0.7509,0.0270158
684,-0.7508,0.0270158
685,-0.7507,0.0270158
686,-0.7506,0.0270158
687,-0.7505,0.0270158
688,-0.7504,0.0270158
689,-0.7503,0.0270158
690,-0.7502,0.0270158
691,-0.7501,0.0270158
692,-0.75,0.0270158
693,-0.7499,0.0270158
694,-0.7498,0.0270158
695,-0.7497,0.0270158
696,-0.7496,0.0270158
697,-0.7495,0.0270158
698,-0.7494,0.0270158
699,-0.7493,0.0270158
700,-0.7492,0.0270158
701,-0.7491,0.0270158
702,-0.749,0.0270158
703,-0.7489,0.0270158
704,-0.7488,0.0270158
705,-0.7487,0.0270158
706,-0.7486,0.0270158
707,-0.7485,0.0270158
708,-0.7484,0.0270158
709,-0.7483,0.0270158
710,-0.7482,0.0270158
711,-0.7481,0.0270158
712,-0.748,0.0270158
713,-0.7479,0.0270158
714,-0.7478,0.0270158
715,-0.7477,0.0270158
716,-0.7476,0.0270158
717,-0.7475,0.0270158
718,-0.7474,0.0270158
719,-0.7473,0.0270158
720,-0.7472,0.0270158
721,-0.7471,0.0270158
722,-0.747,0.0270158
723,-0.7469,0.0270158
724,-0.7468,0.0270158
725,-0.7467,0.0270158
726,-0.7466,0.0270158
727,-0.7465,0.0270158
728,-0.7464,0.0270158
729,-0.7463,0.0270158
730,-0.7462,0.0270158
731,-0.7461,0.0270158
732,-0.746,0.0270158
733,-0.7459,0.0270158
734,-0.7458,0.0270158
735,-0.7457,0.0270158
736,-0.7456,0.0270158
737,-0.7455,0.0270158
738,-0.7454,0.0270158
739,-0.7453,0.0270158
740,-0.7452,0.0270158
741,-0.7451,0.0270158
742,-0.745,0.0270158
743,-0.7449,0.0270158
744,-0.7448,0.0270158
745,-0.7447,0.0270158
746,-0.7446,0.0270158
747,-0.7445,0.0270158
748,-0.7444,0.0270158
749,-0.7443,0.0270158
750,-0.7442,0.0270158
751,-0.7441,0.0270158
752,-0.744,0.0270158
753,-0.7439,0.0270158
754,-0.7438,0.0270158
755,-0.7437,0.0270158
756,-0.7436,0.0270158
757,-0.7435,0.0270158
758,-0.7434,0.0270158
759,-0.7433,0.0270158
760,-0.7432,0.0270158
761,-0.7431,0.0270158
762,-0.743,0.0270158
763,-0.7429,0.0270158
764,-0.7428,0.0270158
765,-0.7427,0.0270158
766,-0.7426,0.0270158
767,-0.7425,0.0270158
768,-0.7424,0.0270158
769,-0.7423,0.0270158
770,-0.7422,0.0270158
771,-0.7421,0.0270158
772,-0.742,0.0270158
773,-0.7419,0.0270158
774,-0.7418,0.0270158
775,-0.7417,0.0270158
776,-0.7416,0.0270158
777,-0.7415,0.0270158
778,-0.7414,0.0270158
779,-0.7413,0.0270158
780,-0.7412,0.0270158
781,-0.7411,0.0270158
782,-0.741,0.0270158
783,-0.7409,0.0270158
784,-0.7408,0.0270158
785,-0.7407,0.0270158
786,-0.7406,0.0270158
787,-0.7405,0.0270158
788,-0.7404,0.0270158
789,-0.7403,0.0270158
790,-0.7402,0.0270158
791,-0.7401,0.0270158
792,-0.74,0.0270158
793,-0.7399,0.0270158
794,-0.7398,0.0270158
795,-0.7397,0.0270158
796,-0.7396,0.0270158
797,-0.7395,0.0270158
798,-0.7394,0.0270158
799,-0.7393,0.0270158
800,-0.7392,0.0270158
801,-0.7391,0.0270158
802,-0.739,0.0270158
803,-0.7389,0.0270158
804,-0.7388,0.0270158
805,-0.7387,0.0270158
806,-0.7386,0.0270158
807,-0.7385,0.0270158
808,-0.7384,0.0270158
809,-0.7383,0.0270158
810,-0.7382,0.0270158
811,-0.7381,0.0270158
812,-0.738,0.0270158
813,-0.7379,0.0270158
814,-0.7378,0.0270158
815,-0.7377,0.0270158
816,-0.7376,0.0270158
817,-0.7375,0.0270158
818,-0.7374,0.0270158
819,-0.7373,0.0270158
820,-0.7372,0.0270158
821,-0.7371,0.0270158
822,-0.737,0.0270158
823,-0.7369,0.0270158
824,-0.7368,0.0270158
825,-0.7367,0.0270158
826,-0.7366,0.0270158
827,-0.7365,0.0253598
828,-0.7364,0.0253598
829,-0.7363,0.0253598
830,-0.7362,0.0253598
831,-0.7361,0.0270158
832,-0.736,0.0270158
833,-0.7359,0.0270158
834,-0.7358,0.0270158
835,-0.7357,0.0270158
836,-0.7356,0.0270158
837,-0.7355,0.0270158
838,-0.7354,0.0270158
839,-0.7353,0.0270158
840,-0.7352,0.0270158
841,-0.7351,0.0270158
842,-0.735,0.0270158
843,-0.7349,0.0270158
844,-0.7348,0.0270158
845,-0.7347,0.0270158
846,-0.7346,0.0270158
847,-0.7345,0.0270158
848,-0.7344,0.0270158
849,-0.7343,0.0270158
850,-0.7342,0.0270158
851,-0.7341,0.0270158
852,-0.734,0.0270158
853,-0.7339,0.0270158
854,-0.7338,0.0270158
855,-0.7337,0.0270158
856,-0.7336,0.0270158
857,-0.7335,0.0270158
858,-0.7334,0.0270158
859,-0.7333,0.0270158
860,-0.7332,0.0253598
861,-0.7331,0.0253598
862,-0.733,0.0270158
863,-0.7329,0.0270158
864,-0.7328,0.0270158
865,-0.7327,0.0270158
866,-0.7326,0.0270158
867,-0.7325,0.0270158
868,-0.7324,0.0270158
869,-0.7323,0.0270158
870,-0.7322,0.0270158
871,-0.7321,0.0270158
872,-0.732,0.0270158
873,-0.7319,0.0270158
874,-0.7318,0.0270158
875,-0.7317,0.0270158
876,-0.7316,0.0270158
877,-0.7315,0.0253598
878,-0.7314,0.0253598
879,-0.7313,0.0270158
880,-0.7312,0.0270158
881,-0.7311,0.0270158
882,-0.731,0.0270158
883,-0.7309,0.0270158
884,-0.7308,0.0270158
885,-0.7307,0.0270158
886,-0.7306,0.0270158
887,-0.7305,0.0270158
888,-0.7304,0.0270158
889,-0.7303,0.0270158
890,-0.7302,0.0270158
891,-0.7301,0.0270158
892,-0.73,0.0270158
893,-0.7299,0.0270158
894,-0.7298,0.0270158
895,-0.7297,0.0270158
896,-0.7296,0.0270158
897,-0.7295,0.0270158
898,-0.7294,0.0270158
899,-0.7293,0.0270158
900,-0.7292,0.0270158
901,-0.7291,0.0270158
902,-0.729,0.0270158
903,-0.7289,0.0270158
904,-0.7288,0.0270158
905,-0.7287,0.0270158
906,-0.7286,0.0270158
907,-0.7285,0.0270158
908,-0.7284,0.0270158
909,-0.7283,0.0270158
