measure/Measure_meeting_2/4MHz_without_optimization-3.3-99.9.csv

;Scopy version,f4beeb1
;Exported on,samedi mars 16/03/2024
;Device,M2K
;Nr of samples,160000
;Sample rate,10000
;Tool,Oscilloscope
;Additional Information,
Sample,Time(S),CH1(V)
0,-0.8192,0.0979816
1,-0.8191,0.0979816
2,-0.819,0.0979816
3,-0.8189,0.0979816
4,-0.8188,0.0979816
5,-0.8187,0.0979816
6,-0.8186,0.0979816
7,-0.8185,0.0979816
8,-0.8184,0.0979816
9,-0.8183,0.0979816
10,-0.8182,0.0979816
11,-0.8181,0.0979816
12,-0.818,0.0979816
13,-0.8179,0.0979816
14,-0.8178,0.0979816
15,-0.8177,0.0979816
16,-0.8176,0.0979816
17,-0.8175,0.0979816
18,-0.8174,0.0979816
19,-0.8173,0.0979816
20,-0.8172,0.0979816
21,-0.8171,0.0979816
22,-0.817,0.0979816
23,-0.8169,0.0979816
24,-0.8168,0.0979816
25,-0.8167,0.0979816
26,-0.8166,0.0979816
27,-0.8165,0.0979816
28,-0.8164,0.0979816
29,-0.8163,0.0979816
30,-0.8162,0.0979816
31,-0.8161,0.0979816
32,-0.816,0.0979816
33,-0.8159,0.0979816
34,-0.8158,0.0979816
35,-0.8157,0.0979816
36,-0.8156,0.0979816
37,-0.8155,0.0979816
38,-0.8154,0.0979816
39,-0.8153,0.0979816
40,-0.8152,0.0979816
41,-0.8151,0.0979816
42,-0.815,0.0979816
43,-0.8149,0.0979816
44,-0.8148,0.0979816
45,-0.8147,0.0979816
46,-0.8146,0.0979816
47,-0.8145,0.0979816
48,-0.8144,0.0979816
49,-0.8143,0.0979816
50,-0.8142,0.0979816
51,-0.8141,0.0979816
52,-0.814,0.0979816
53,-0.8139,0.0979816
54,-0.8138,0.0979816
55,-0.8137,0.0979816
56,-0.8136,0.0979816
57,-0.8135,0.0979816
58,-0.8134,0.0979816
59,-0.8133,0.0979816
60,-0.8132,0.0979816
61,-0.8131,0.0979816
62,-0.813,0.0979816
63,-0.8129,0.0979816
64,-0.8128,0.0979816
65,-0.8127,0.0979816
66,-0.8126,0.0979816
67,-0.8125,0.0979816
68,-0.8124,0.0979816
69,-0.8123,0.0979816
70,-0.8122,0.0979816
71,-0.8121,0.0979816
72,-0.812,0.0979816
73,-0.8119,0.0979816
74,-0.8118,0.0979816
75,-0.8117,0.0979816
76,-0.8116,0.0963256
77,-0.8115,0.0996377
78,-0.8114,0.101294
79,-0.8113,0.101294
80,-0.8112,0.104606
81,-0.8111,0.104606
82,-0.811,0.107918
83,-0.8109,0.107918
84,-0.8108,0.109574
85,-0.8107,0.109574
86,-0.8106,0.109574
87,-0.8105,0.112886
88,-0.8104,0.112886
89,-0.8103,0.112886
90,-0.8102,0.114542
91,-0.8101,0.114542
92,-0.81,0.116198
93,-0.8099,0.116198
94,-0.8098,0.117854
95,-0.8097,0.117854
96,-0.8096,0.117854
97,-0.8095,0.11951
98,-0.8094,0.11951
99,-0.8093,0.11951
100,-0.8092,0.121166
101,-0.8091,0.121166
102,-0.809,0.121166
103,-0.8089,0.121166
104,-0.8088,0.121166
105,-0.8087,0.122822
106,-0.8086,0.122822
107,-0.8085,0.122822
108,-0.8084,0.122822
109,-0.8083,0.122822
110,-0.8082,0.126134
111,-0.8081,0.126134
112,-0.808,0.126134
113,-0.8079,0.126134
114,-0.8078,0.126134
115,-0.8077,0.126134
116,-0.8076,0.12779
117,-0.8075,0.12779
118,-0.8074,0.12779
119,-0.8073,0.12779
120,-0.8072,0.12779
121,-0.8071,0.12779
122,-0.807,0.12779
123,-0.8069,0.12779
124,-0.8068,0.129447
125,-0.8067,0.129447
126,-0.8066,0.129447
127,-0.8065,0.129447
128,-0.8064,0.131103
129,-0.8063,0.131103
130,-0.8062,0.131103
131,-0.8061,0.131103
132,-0.806,0.131103
133,-0.8059,0.132759
134,-0.8058,0.132759
135,-0.8057,0.132759
136,-0.8056,0.134415
137,-0.8055,0.134415
138,-0.8054,0.134415
139,-0.8053,0.134415
140,-0.8052,0.134415
141,-0.8051,0.136071
142,-0.805,0.136071
143,-0.8049,0.136071
144,-0.8048,0.136071
145,-0.8047,0.137727
146,-0.8046,0.137727
147,-0.8045,0.137727
148,-0.8044,0.137727
149,-0.8043,0.137727
150,-0.8042,0.137727
151,-0.8041,0.137727
152,-0.804,0.137727
153,-0.8039,0.137727
154,-0.8038,0.137727
155,-0.8037,0.137727
156,-0.8036,0.137727
157,-0.8035,0.137727
158,-0.8034,0.137727
159,-0.8033,0.137727
160,-0.8032,0.137727
161,-0.8031,0.137727
162,-0.803,0.137727
163,-0.8029,0.137727
164,-0.8028,0.137727
165,-0.8027,0.137727
166,-0.8026,0.137727
167,-0.8025,0.137727
168,-0.8024,0.137727
169,-0.8023,0.136071
170,-0.8022,0.136071
171,-0.8021,0.136071
172,-0.802,0.136071
173,-0.8019,0.136071
174,-0.8018,0.136071
175,-0.8017,0.137727
176,-0.8016,0.137727
177,-0.8015,0.139383
178,-0.8014,0.139383
179,-0.8013,0.139383
180,-0.8012,0.141039
181,-0.8011,0.141039
182,-0.801,0.141039
183,-0.8009,0.142695
184,-0.8008,0.142695
185,-0.8007,0.142695
186,-0.8006,0.144351
187,-0.8005,0.144351
188,-0.8004,0.144351
189,-0.8003,0.144351
190,-0.8002,0.144351
191,-0.8001,0.147663
192,-0.8,0.144351
193,-0.7999,0.144351
194,-0.7998,0.144351
195,-0.7997,0.144351
196,-0.7996,0.144351
197,-0.7995,0.144351
198,-0.7994,0.142695
199,-0.7993,0.142695
200,-0.7992,0.142695
201,-0.7991,0.142695
202,-0.799,0.142695
203,-0.7989,0.142695
204,-0.7988,0.142695
205,-0.7987,0.142695
206,-0.7986,0.142695
207,-0.7985,0.141039
208,-0.7984,0.141039
209,-0.7983,0.141039
210,-0.7982,0.141039
211,-0.7981,0.141039
212,-0.798,0.141039
213,-0.7979,0.141039
214,-0.7978,0.141039
215,-0.7977,0.141039
216,-0.7976,0.141039
217,-0.7975,0.141039
218,-0.7974,0.141039
219,-0.7973,0.141039
220,-0.7972,0.141039
221,-0.7971,0.141039
222,-0.797,0.141039
223,-0.7969,0.141039
224,-0.7968,0.139383
225,-0.7967,0.139383
226,-0.7966,0.139383
227,-0.7965,0.139383
228,-0.7964,0.139383
229,-0.7963,0.139383
230,-0.7962,0.139383
231,-0.7961,0.139383
232,-0.796,0.137727
233,-0.7959,0.137727
234,-0.7958,0.137727
235,-0.7957,0.137727
236,-0.7956,0.136071
237,-0.7955,0.136071
238,-0.7954,0.136071
239,-0.7953,0.136071
240,-0.7952,0.136071
241,-0.7951,0.136071
242,-0.795,0.134415
243,-0.7949,0.134415
244,-0.7948,0.134415
245,-0.7947,0.134415
246,-0.7946,0.134415
247,-0.7945,0.134415
248,-0.7944,0.134415
249,-0.7943,0.134415
250,-0.7942,0.132759
251,-0.7941,0.132759
252,-0.794,0.132759
253,-0.7939,0.132759
254,-0.7938,0.132759
255,-0.7937,0.132759
256,-0.7936,0.132759
257,-0.7935,0.132759
258,-0.7934,0.132759
259,-0.7933,0.132759
260,-0.7932,0.132759
261,-0.7931,0.132759
262,-0.793,0.132759
263,-0.7929,0.132759
264,-0.7928,0.131103
265,-0.7927,0.131103
266,-0.7926,0.131103
267,-0.7925,0.131103
268,-0.7924,0.131103
269,-0.7923,0.131103
270,-0.7922,0.131103
271,-0.7921,0.131103
272,-0.792,0.132759
273,-0.7919,0.132759
274,-0.7918,0.132759
275,-0.7917,0.132759
276,-0.7916,0.132759
277,-0.7915,0.132759
278,-0.7914,0.132759
279,-0.7913,0.132759
280,-0.7912,0.132759
281,-0.7911,0.132759
282,-0.791,0.132759
283,-0.7909,0.132759
284,-0.7908,0.132759
285,-0.7907,0.132759
286,-0.7906,0.132759
287,-0.7905,0.132759
288,-0.7904,0.132759
289,-0.7903,0.132759
290,-0.7902,0.132759
291,-0.7901,0.132759
292,-0.79,0.132759
293,-0.7899,0.132759
294,-0.7898,0.132759
295,-0.7897,0.132759
296,-0.7896,0.132759
297,-0.7895,0.132759
298,-0.7894,0.132759
299,-0.7893,0.132759
300,-0.7892,0.132759
301,-0.7891,0.132759
302,-0.789,0.132759
303,-0.7889,0.132759
304,-0.7888,0.132759
305,-0.7887,0.132759
306,-0.7886,0.132759
307,-0.7885,0.132759
308,-0.7884,0.132759
309,-0.7883,0.132759
310,-0.7882,0.132759
311,-0.7881,0.134415
312,-0.788,0.134415
313,-0.7879,0.134415
314,-0.7878,0.134415
315,-0.7877,0.134415
316,-0.7876,0.134415
317,-0.7875,0.134415
318,-0.7874,0.134415
319,-0.7873,0.134415
320,-0.7872,0.134415
321,-0.7871,0.134415
322,-0.787,0.134415
323,-0.7869,0.134415
324,-0.7868,0.134415
325,-0.7867,0.134415
326,-0.7866,0.134415
327,-0.7865,0.134415
328,-0.7864,0.134415
329,-0.7863,0.134415
330,-0.7862,0.134415
331,-0.7861,0.134415
332,-0.786,0.134415
333,-0.7859,0.134415
334,-0.7858,0.134415
335,-0.7857,0.134415
336,-0.7856,0.134415
337,-0.7855,0.134415
338,-0.7854,0.134415
339,-0.7853,0.134415
340,-0.7852,0.134415
341,-0.7851,0.134415
342,-0.785,0.134415
343,-0.7849,0.134415
344,-0.7848,0.134415
345,-0.7847,0.134415
346,-0.7846,0.134415
347,-0.7845,0.131103
348,-0.7844,0.134415
349,-0.7843,0.132759
350,-0.7842,0.132759
351,-0.7841,0.132759
352,-0.784,0.132759
353,-0.7839,0.132759
354,-0.7838,0.132759
355,-0.7837,0.132759
356,-0.7836,0.132759
357,-0.7835,0.132759
358,-0.7834,0.132759
359,-0.7833,0.132759
360,-0.7832,0.131103
361,-0.7831,0.131103
362,-0.783,0.131103
363,-0.7829,0.131103
364,-0.7828,0.131103
365,-0.7827,0.131103
366,-0.7826,0.131103
367,-0.7825,0.131103
368,-0.7824,0.131103
369,-0.7823,0.131103
370,-0.7822,0.131103
371,-0.7821,0.131103
372,-0.782,0.131103
373,-0.7819,0.131103
374,-0.7818,0.131103
375,-0.7817,0.131103
376,-0.7816,0.131103
377,-0.7815,0.131103
378,-0.7814,0.131103
379,-0.7813,0.131103
380,-0.7812,0.131103
381,-0.7811,0.131103
382,-0.781,0.131103
383,-0.7809,0.131103
384,-0.7808,0.131103
385,-0.7807,0.131103
386,-0.7806,0.131103
387,-0.7805,0.131103
388,-0.7804,0.131103
389,-0.7803,0.12779
390,-0.7802,0.12779
391,-0.7801,0.12779
392,-0.78,0.126134
393,-0.7799,0.121166
394,-0.7798,0.121166
395,-0.7797,0.121166
396,-0.7796,0.11951
397,-0.7795,0.11951
398,-0.7794,0.116198
399,-0.7793,0.116198
400,-0.7792,0.116198
401,-0.7791,0.116198
402,-0.779,0.114542
403,-0.7789,0.114542
404,-0.7788,0.112886
405,-0.7787,0.112886
406,-0.7786,0.112886
407,-0.7785,0.11123
408,-0.7784,0.11123
409,-0.7783,0.11123
410,-0.7782,0.109574
411,-0.7781,0.109574
412,-0.778,0.109574
413,-0.7779,0.107918
414,-0.7778,0.107918
415,-0.7777,0.107918
416,-0.7776,0.107918
417,-0.7775,0.107918
418,-0.7774,0.106262
419,-0.7773,0.106262
420,-0.7772,0.106262
421,-0.7771,0.106262
422,-0.777,0.106262
423,-0.7769,0.106262
424,-0.7768,0.104606
425,-0.7767,0.104606
426,-0.7766,0.104606
427,-0.7765,0.104606
428,-0.7764,0.104606
429,-0.7763,0.104606
430,-0.7762,0.101294
431,-0.7761,0.101294
432,-0.776,0.101294
433,-0.7759,0.101294
434,-0.7758,0.101294
435,-0.7757,0.101294
436,-0.7756,0.101294
437,-0.7755,0.101294
438,-0.7754,0.101294
439,-0.7753,0.101294
440,-0.7752,0.101294
441,-0.7751,0.101294
442,-0.775,0.101294
443,-0.7749,0.0979816
444,-0.7748,0.0996377
445,-0.7747,0.0996377
446,-0.7746,0.0996377
447,-0.7745,0.0996377
448,-0.7744,0.0996377
449,-0.7743,0.0996377
450,-0.7742,0.0996377
451,-0.7741,0.0996377
452,-0.774,0.0996377
453,-0.7739,0.0996377
454,-0.7738,0.0996377
455,-0.7737,0.0996377
456,-0.7736,0.0996377
457,-0.7735,0.0996377
458,-0.7734,0.0996377
459,-0.7733,0.0996377
460,-0.7732,0.0996377
461,-0.7731,0.0996377
462,-0.773,0.0996377
463,-0.7729,0.0996377
464,-0.7728,0.0996377
465,-0.7727,0.0979816
466,-0.7726,0.0963256
467,-0.7725,0.0979816
468,-0.7724,0.0979816
469,-0.7723,0.0979816
470,-0.7722,0.0979816
471,-0.7721,0.0979816
472,-0.772,0.0979816
473,-0.7719,0.0979816
474,-0.7718,0.0979816
475,-0.7717,0.0979816
476,-0.7716,0.0979816
477,-0.7715,0.0979816
478,-0.7714,0.0979816
479,-0.7713,0.0979816
480,-0.7712,0.0979816
481,-0.7711,0.0979816
482,-0.771,0.0979816
483,-0.7709,0.0979816
484,-0.7708,0.0979816
485,-0.7707,0.0979816
486,-0.7706,0.0979816
487,-0.7705,0.0979816
488,-0.7704,0.0979816
489,-0.7703,0.0979816
490,-0.7702,0.0979816
491,-0.7701,0.0979816
492,-0.77,0.0979816
493,-0.7699,0.0979816
494,-0.7698,0.0979816
495,-0.7697,0.0979816
496,-0.7696,0.0979816
497,-0.7695,0.0979816
498,-0.7694,0.0979816
499,-0.7693,0.0979816
500,-0.7692,0.0979816
501,-0.7691,0.0979816
502,-0.769,0.0979816
503,-0.7689,0.0979816
504,-0.7688,0.0979816
505,-0.7687,0.0979816
506,-0.7686,0.0979816
507,-0.7685,0.0979816
508,-0.7684,0.0979816
509,-0.7683,0.0979816
510,-0.7682,0.0979816
511,-0.7681,0.0979816
512,-0.768,0.0979816
513,-0.7679,0.0979816
514,-0.7678,0.0979816
515,-0.7677,0.0979816
516,-0.7676,0.0979816
517,-0.7675,0.0979816
518,-0.7674,0.0979816
519,-0.7673,0.0979816
520,-0.7672,0.0979816
521,-0.7671,0.0979816
522,-0.767,0.0979816
523,-0.7669,0.0979816
524,-0.7668,0.0979816
525,-0.7667,0.0979816
526,-0.7666,0.0979816
527,-0.7665,0.0979816
528,-0.7664,0.0979816
529,-0.7663,0.0979816
530,-0.7662,0.0979816
531,-0.7661,0.0979816
532,-0.766,0.0979816
533,-0.7659,0.0979816
534,-0.7658,0.0979816
535,-0.7657,0.0979816
536,-0.7656,0.0979816
537,-0.7655,0.0979816
538,-0.7654,0.0979816
539,-0.7653,0.0979816
540,-0.7652,0.0979816
541,-0.7651,0.0979816
542,-0.765,0.0979816
543,-0.7649,0.0979816
544,-0.7648,0.0979816
545,-0.7647,0.0979816
546,-0.7646,0.0979816
547,-0.7645,0.0979816
548,-0.7644,0.0979816
549,-0.7643,0.0979816
550,-0.7642,0.0979816
551,-0.7641,0.0979816
552,-0.764,0.0979816
553,-0.7639,0.0979816
554,-0.7638,0.0979816
555,-0.7637,0.0979816
556,-0.7636,0.0979816
557,-0.7635,0.0979816
558,-0.7634,0.0979816
559,-0.7633,0.0979816
560,-0.7632,0.0979816
561,-0.7631,0.0979816
562,-0.763,0.0979816
563,-0.7629,0.0979816
564,-0.7628,0.0979816
565,-0.7627,0.0979816
566,-0.7626,0.0979816
567,-0.7625,0.0979816
568,-0.7624,0.0979816
569,-0.7623,0.0979816
570,-0.7622,0.0979816
571,-0.7621,0.0979816
572,-0.762,0.0979816
573,-0.7619,0.0979816
574,-0.7618,0.0979816
575,-0.7617,0.0979816
576,-0.7616,0.0979816
577,-0.7615,0.0979816
578,-0.7614,0.0979816
579,-0.7613,0.0996377
580,-0.7612,0.101294
581,-0.7611,0.101294
582,-0.761,0.106262
583,-0.7609,0.107918
584,-0.7608,0.107918
585,-0.7607,0.109574
586,-0.7606,0.109574
587,-0.7605,0.109574
588,-0.7604,0.112886
589,-0.7603,0.112886
590,-0.7602,0.112886
591,-0.7601,0.114542
592,-0.76,0.114542
593,-0.7599,0.116198
594,-0.7598,0.116198
595,-0.7597,0.116198
596,-0.7596,0.117854
597,-0.7595,0.117854
598,-0.7594,0.117854
599,-0.7593,0.117854
600,-0.7592,0.11951
601,-0.7591,0.11951
602,-0.759,0.11951
603,-0.7589,0.121166
604,-0.7588,0.121166
605,-0.7587,0.121166
606,-0.7586,0.121166
607,-0.7585,0.121166
608,-0.7584,0.122822
609,-0.7583,0.122822
610,-0.7582,0.122822
611,-0.7581,0.122822
612,-0.758,0.122822
613,-0.7579,0.126134
614,-0.7578,0.126134
615,-0.7577,0.126134
616,-0.7576,0.126134
617,-0.7575,0.126134
618,-0.7574,0.126134
619,-0.7573,0.126134
620,-0.7572,0.12779
621,-0.7571,0.12779
622,-0.757,0.12779
623,-0.7569,0.12779
624,-0.7568,0.12779
625,-0.7567,0.12779
626,-0.7566,0.129447
627,-0.7565,0.129447
628,-0.7564,0.129447
629,-0.7563,0.129447
630,-0.7562,0.129447
631,-0.7561,0.131103
632,-0.756,0.131103
633,-0.7559,0.131103
634,-0.7558,0.131103
635,-0.7557,0.132759
636,-0.7556,0.132759
637,-0.7555,0.132759
638,-0.7554,0.134415
639,-0.7553,0.134415
640,-0.7552,0.134415
641,-0.7551,0.134415
642,-0.755,0.134415
643,-0.7549,0.136071
644,-0.7548,0.136071
645,-0.7547,0.136071
646,-0.7546,0.136071
647,-0.7545,0.136071
648,-0.7544,0.137727
649,-0.7543,0.137727
650,-0.7542,0.137727
651,-0.7541,0.137727
652,-0.754,0.137727
653,-0.7539,0.137727
654,-0.7538,0.137727
655,-0.7537,0.137727
656,-0.7536,0.137727
657,-0.7535,0.137727
658,-0.7534,0.137727
659,-0.7533,0.137727
660,-0.7532,0.137727
661,-0.7531,0.137727
662,-0.753,0.137727
663,-0.7529,0.137727
664,-0.7528,0.137727
665,-0.7527,0.137727
666,-0.7526,0.137727
667,-0.7525,0.137727
668,-0.7524,0.137727
669,-0.7523,0.137727
670,-0.7522,0.136071
671,-0.7521,0.136071
672,-0.752,0.136071
673,-0.7519,0.136071
674,-0.7518,0.136071
675,-0.7517,0.136071
676,-0.7516,0.137727
677,-0.7515,0.137727
678,-0.7514,0.139383
679,-0.7513,0.139383
680,-0.7512,0.139383
681,-0.7511,0.141039
682,-0.751,0.141039
683,-0.7509,0.141039
684,-0.7508,0.141039
685,-0.7507,0.142695
686,-0.7506,0.142695
687,-0.7505,0.142695
688,-0.7504,0.142695
689,-0.7503,0.144351
690,-0.7502,0.144351
691,-0.7501,0.144351
692,-0.75,0.144351
693,-0.7499,0.144351
694,-0.7498,0.144351
695,-0.7497,0.144351
696,-0.7496,0.144351
697,-0.7495,0.142695
698,-0.7494,0.142695
699,-0.7493,0.142695
700,-0.7492,0.142695
701,-0.7491,0.142695
702,-0.749,0.142695
703,-0.7489,0.142695
704,-0.7488,0.142695
705,-0.7487,0.142695
706,-0.7486,0.141039
707,-0.7485,0.141039
708,-0.7484,0.141039
709,-0.7483,0.141039
710,-0.7482,0.141039
711,-0.7481,0.141039
712,-0.748,0.141039
713,-0.7479,0.141039
714,-0.7478,0.141039
715,-0.7477,0.139383
716,-0.7476,0.139383
717,-0.7475,0.139383
718,-0.7474,0.139383
719,-0.7473,0.139383
720,-0.7472,0.139383
721,-0.7471,0.139383
722,-0.747,0.139383
723,-0.7469,0.139383
724,-0.7468,0.139383
725,-0.7467,0.139383
726,-0.7466,0.139383
727,-0.7465,0.137727
728,-0.7464,0.137727
729,-0.7463,0.137727
730,-0.7462,0.137727
731,-0.7461,0.137727
732,-0.746,0.137727
733,-0.7459,0.137727
734,-0.7458,0.137727
735,-0.7457,0.137727
736,-0.7456,0.137727
737,-0.7455,0.137727
738,-0.7454,0.137727
739,-0.7453,0.136071
740,-0.7452,0.136071
741,-0.7451,0.136071
742,-0.745,0.136071
743,-0.7449,0.136071
744,-0.7448,0.136071
745,-0.7447,0.136071
746,-0.7446,0.134415
747,-0.7445,0.134415
748,-0.7444,0.134415
749,-0.7443,0.134415
750,-0.7442,0.134415
751,-0.7441,0.134415
752,-0.744,0.134415
753,-0.7439,0.134415
754,-0.7438,0.134415
755,-0.7437,0.134415
756,-0.7436,0.134415
757,-0.7435,0.134415
758,-0.7434,0.134415
759,-0.7433,0.134415
760,-0.7432,0.132759
761,-0.7431,0.132759
762,-0.743,0.132759
763,-0.7429,0.132759
764,-0.7428,0.132759
765,-0.7427,0.132759
766,-0.7426,0.132759
767,-0.7425,0.132759
768,-0.7424,0.132759
769,-0.7423,0.132759
770,-0.7422,0.132759
771,-0.7421,0.132759
772,-0.742,0.132759
773,-0.7419,0.132759
774,-0.7418,0.132759
775,-0.7417,0.132759
776,-0.7416,0.132759
777,-0.7415,0.132759
778,-0.7414,0.132759
779,-0.7413,0.132759
780,-0.7412,0.132759
781,-0.7411,0.132759
782,-0.741,0.132759
783,-0.7409,0.132759
784,-0.7408,0.132759
785,-0.7407,0.132759
786,-0.7406,0.132759
787,-0.7405,0.132759
788,-0.7404,0.132759
789,-0.7403,0.132759
790,-0.7402,0.132759
791,-0.7401,0.132759
792,-0.74,0.132759
793,-0.7399,0.132759
794,-0.7398,0.132759
795,-0.7397,0.132759
796,-0.7396,0.132759
797,-0.7395,0.132759
798,-0.7394,0.132759
799,-0.7393,0.132759
800,-0.7392,0.132759
801,-0.7391,0.132759
802,-0.739,0.132759
803,-0.7389,0.132759
804,-0.7388,0.132759
805,-0.7387,0.132759
806,-0.7386,0.132759
807,-0.7385,0.132759
808,-0.7384,0.132759
809,-0.7383,0.132759
810,-0.7382,0.132759
811,-0.7381,0.132759
812,-0.738,0.132759
813,-0.7379,0.132759
814,-0.7378,0.132759
815,-0.7377,0.132759
816,-0.7376,0.132759
817,-0.7375,0.132759
818,-0.7374,0.132759
819,-0.7373,0.132759
820,-0.7372,0.134415
821,-0.7371,0.134415
822,-0.737,0.134415
823,-0.7369,0.134415
824,-0.7368,0.134415
825,-0.7367,0.134415
826,-0.7366,0.131103
827,-0.7365,0.134415
828,-0.7364,0.134415
829,-0.7363,0.134415
830,-0.7362,0.134415
831,-0.7361,0.134415
832,-0.736,0.134415
833,-0.7359,0.134415
834,-0.7358,0.134415
835,-0.7357,0.134415
836,-0.7356,0.134415
837,-0.7355,0.134415
838,-0.7354,0.134415
839,-0.7353,0.134415
840,-0.7352,0.132759
841,-0.7351,0.132759
842,-0.735,0.132759
843,-0.7349,0.132759
844,-0.7348,0.132759
845,-0.7347,0.132759
846,-0.7346,0.132759
847,-0.7345,0.132759
848,-0.7344,0.132759
849,-0.7343,0.132759
850,-0.7342,0.132759
851,-0.7341,0.132759
852,-0.734,0.132759
853,-0.7339,0.131103
854,-0.7338,0.131103
855,-0.7337,0.131103
856,-0.7336,0.131103
857,-0.7335,0.131103
858,-0.7334,0.131103
859,-0.7333,0.131103
860,-0.7332,0.131103
861,-0.7331,0.131103
862,-0.733,0.131103
863,-0.7329,0.131103
864,-0.7328,0.131103
865,-0.7327,0.131103
866,-0.7326,0.131103
867,-0.7325,0.131103
868,-0.7324,0.131103
869,-0.7323,0.131103
870,-0.7322,0.129447
871,-0.7321,0.129447
872,-0.732,0.129447
873,-0.7319,0.129447
874,-0.7318,0.129447
875,-0.7317,0.129447
876,-0.7316,0.129447
877,-0.7315,0.129447
878,-0.7314,0.129447
879,-0.7313,0.129447
880,-0.7312,0.129447
881,-0.7311,0.129447
882,-0.731,0.129447
883,-0.7309,0.129447
884,-0.7308,0.129447
885,-0.7307,0.12779
886,-0.7306,0.12779
887,-0.7305,0.126134
888,-0.7304,0.121166
889,-0.7303,0.121166
890,-0.7302,0.121166
891,-0.7301,0.11951
892,-0.73,0.11951
893,-0.7299,0.117854
894,-0.7298,0.117854
895,-0.7297,0.116198
896,-0.7296,0.116198
897,-0.7295,0.114542
898,-0.7294,0.114542
899,-0.7293,0.112886
900,-0.7292,0.112886
901,-0.7291,0.112886
902,-0.729,0.11123
903,-0.7289,0.11123
904,-0.7288,0.11123
905,-0.7287,0.109574
906,-0.7286,0.109574
907,-0.7285,0.109574
908,-0.7284,0.107918
909,-0.7283,0.107918
910,-0.7282,0.107918
911,-0.7281,0.107918
912,-0.728,0.107918
913,-0.7279,0.106262
914,-0.7278,0.106262
915,-0.7277,0.106262
916,-0.7276,0.106262
917,-0.7275,0.106262
918,-0.7274,0.104606
919,-0.7273,0.104606
920,-0.7272,0.104606
921,-0.7271,0.104606
922,-0.727,0.104606
923,-0.7269,0.104606
924,-0.7268,0.104606
925,-0.7267,0.104606
926,-0.7266,0.0996377
927,-0.7265,0.101294
928,-0.7264,0.101294
929,-0.7263,0.101294
930,-0.7262,0.101294
931,-0.7261,0.101294
932,-0.726,0.101294
933,-0.7259,0.101294
934,-0.7258,0.101294
935,-0.7257,0.101294
936,-0.7256,0.101294
937,-0.7255,0.0979816
938,-0.7254,0.0996377
939,-0.7253,0.0996377
940,-0.7252,0.0996377
941,-0.7251,0.0996377
942,-0.725,0.0996377
943,-0.7249,0.0996377
944,-0.7248,0.0996377
