measure/Measure_meeting_2/8MHz_without_optimization-3.3-99.9.csv

;Scopy version,f4beeb1
;Exported on,samedi mars 16/03/2024
;Device,M2K
;Nr of samples,160000
;Sample rate,10000
;Tool,Oscilloscope
;Additional Information,
Sample,Time(S),CH1(V)
0,-0.8192,0.134415
1,-0.8191,0.134415
2,-0.819,0.134415
3,-0.8189,0.134415
4,-0.8188,0.134415
5,-0.8187,0.134415
6,-0.8186,0.134415
7,-0.8185,0.134415
8,-0.8184,0.134415
9,-0.8183,0.134415
10,-0.8182,0.134415
11,-0.8181,0.134415
12,-0.818,0.134415
13,-0.8179,0.134415
14,-0.8178,0.134415
15,-0.8177,0.134415
16,-0.8176,0.134415
17,-0.8175,0.134415
18,-0.8174,0.134415
19,-0.8173,0.134415
20,-0.8172,0.134415
21,-0.8171,0.134415
22,-0.817,0.134415
23,-0.8169,0.134415
24,-0.8168,0.134415
25,-0.8167,0.134415
26,-0.8166,0.134415
27,-0.8165,0.134415
28,-0.8164,0.134415
29,-0.8163,0.134415
30,-0.8162,0.134415
31,-0.8161,0.134415
32,-0.816,0.134415
33,-0.8159,0.134415
34,-0.8158,0.134415
35,-0.8157,0.134415
36,-0.8156,0.134415
37,-0.8155,0.134415
38,-0.8154,0.134415
39,-0.8153,0.134415
40,-0.8152,0.134415
41,-0.8151,0.134415
42,-0.815,0.134415
43,-0.8149,0.134415
44,-0.8148,0.134415
45,-0.8147,0.134415
46,-0.8146,0.134415
47,-0.8145,0.134415
48,-0.8144,0.134415
49,-0.8143,0.134415
50,-0.8142,0.134415
51,-0.8141,0.134415
52,-0.814,0.134415
53,-0.8139,0.134415
54,-0.8138,0.134415
55,-0.8137,0.134415
56,-0.8136,0.134415
57,-0.8135,0.134415
58,-0.8134,0.134415
59,-0.8133,0.134415
60,-0.8132,0.134415
61,-0.8131,0.134415
62,-0.813,0.134415
63,-0.8129,0.134415
64,-0.8128,0.134415
65,-0.8127,0.134415
66,-0.8126,0.134415
67,-0.8125,0.134415
68,-0.8124,0.134415
69,-0.8123,0.134415
70,-0.8122,0.134415
71,-0.8121,0.134415
72,-0.812,0.134415
73,-0.8119,0.134415
74,-0.8118,0.134415
75,-0.8117,0.134415
76,-0.8116,0.134415
77,-0.8115,0.134415
78,-0.8114,0.134415
79,-0.8113,0.134415
80,-0.8112,0.134415
81,-0.8111,0.134415
82,-0.811,0.134415
83,-0.8109,0.134415
84,-0.8108,0.134415
85,-0.8107,0.134415
86,-0.8106,0.134415
87,-0.8105,0.134415
88,-0.8104,0.134415
89,-0.8103,0.134415
90,-0.8102,0.134415
91,-0.8101,0.134415
92,-0.81,0.134415
93,-0.8099,0.134415
94,-0.8098,0.134415
95,-0.8097,0.134415
96,-0.8096,0.134415
97,-0.8095,0.134415
98,-0.8094,0.134415
99,-0.8093,0.134415
100,-0.8092,0.134415
101,-0.8091,0.134415
102,-0.809,0.134415
103,-0.8089,0.134415
104,-0.8088,0.134415
105,-0.8087,0.134415
106,-0.8086,0.134415
107,-0.8085,0.134415
108,-0.8084,0.134415
109,-0.8083,0.134415
110,-0.8082,0.134415
111,-0.8081,0.134415
112,-0.808,0.134415
113,-0.8079,0.134415
114,-0.8078,0.134415
115,-0.8077,0.134415
116,-0.8076,0.134415
117,-0.8075,0.134415
118,-0.8074,0.134415
119,-0.8073,0.134415
120,-0.8072,0.134415
121,-0.8071,0.134415
122,-0.807,0.134415
123,-0.8069,0.134415
124,-0.8068,0.134415
125,-0.8067,0.134415
126,-0.8066,0.134415
127,-0.8065,0.134415
128,-0.8064,0.134415
129,-0.8063,0.134415
130,-0.8062,0.134415
131,-0.8061,0.134415
132,-0.806,0.134415
133,-0.8059,0.134415
134,-0.8058,0.134415
135,-0.8057,0.134415
136,-0.8056,0.134415
137,-0.8055,0.134415
138,-0.8054,0.134415
139,-0.8053,0.134415
140,-0.8052,0.134415
141,-0.8051,0.134415
142,-0.805,0.134415
143,-0.8049,0.134415
144,-0.8048,0.134415
145,-0.8047,0.134415
146,-0.8046,0.134415
147,-0.8045,0.134415
148,-0.8044,0.134415
149,-0.8043,0.134415
150,-0.8042,0.134415
151,-0.8041,0.134415
152,-0.804,0.134415
153,-0.8039,0.134415
154,-0.8038,0.134415
155,-0.8037,0.134415
156,-0.8036,0.134415
157,-0.8035,0.134415
158,-0.8034,0.134415
159,-0.8033,0.134415
160,-0.8032,0.134415
161,-0.8031,0.134415
162,-0.803,0.134415
163,-0.8029,0.134415
164,-0.8028,0.134415
165,-0.8027,0.134415
166,-0.8026,0.134415
167,-0.8025,0.134415
168,-0.8024,0.134415
169,-0.8023,0.134415
170,-0.8022,0.134415
171,-0.8021,0.134415
172,-0.802,0.134415
173,-0.8019,0.134415
174,-0.8018,0.134415
175,-0.8017,0.134415
176,-0.8016,0.134415
177,-0.8015,0.134415
178,-0.8014,0.134415
179,-0.8013,0.134415
180,-0.8012,0.134415
181,-0.8011,0.134415
182,-0.801,0.134415
183,-0.8009,0.134415
184,-0.8008,0.134415
185,-0.8007,0.134415
186,-0.8006,0.134415
187,-0.8005,0.134415
188,-0.8004,0.134415
189,-0.8003,0.134415
190,-0.8002,0.134415
191,-0.8001,0.134415
192,-0.8,0.134415
193,-0.7999,0.134415
194,-0.7998,0.134415
195,-0.7997,0.134415
196,-0.7996,0.134415
197,-0.7995,0.134415
198,-0.7994,0.134415
199,-0.7993,0.134415
200,-0.7992,0.134415
201,-0.7991,0.134415
202,-0.799,0.134415
203,-0.7989,0.134415
204,-0.7988,0.134415
205,-0.7987,0.134415
206,-0.7986,0.134415
207,-0.7985,0.134415
208,-0.7984,0.134415
209,-0.7983,0.134415
210,-0.7982,0.134415
211,-0.7981,0.134415
212,-0.798,0.132759
213,-0.7979,0.132759
214,-0.7978,0.132759
215,-0.7977,0.132759
216,-0.7976,0.132759
217,-0.7975,0.132759
218,-0.7974,0.132759
219,-0.7973,0.132759
220,-0.7972,0.132759
221,-0.7971,0.132759
222,-0.797,0.132759
223,-0.7969,0.132759
224,-0.7968,0.132759
225,-0.7967,0.132759
226,-0.7966,0.132759
227,-0.7965,0.132759
228,-0.7964,0.132759
229,-0.7963,0.132759
230,-0.7962,0.132759
231,-0.7961,0.132759
232,-0.796,0.132759
233,-0.7959,0.132759
234,-0.7958,0.132759
235,-0.7957,0.132759
236,-0.7956,0.132759
237,-0.7955,0.132759
238,-0.7954,0.132759
239,-0.7953,0.132759
240,-0.7952,0.132759
241,-0.7951,0.132759
242,-0.795,0.132759
243,-0.7949,0.132759
244,-0.7948,0.132759
245,-0.7947,0.132759
246,-0.7946,0.132759
247,-0.7945,0.132759
248,-0.7944,0.132759
249,-0.7943,0.132759
250,-0.7942,0.132759
251,-0.7941,0.132759
252,-0.794,0.132759
253,-0.7939,0.132759
254,-0.7938,0.132759
255,-0.7937,0.132759
256,-0.7936,0.132759
257,-0.7935,0.132759
258,-0.7934,0.132759
259,-0.7933,0.132759
260,-0.7932,0.132759
261,-0.7931,0.132759
262,-0.793,0.132759
263,-0.7929,0.132759
264,-0.7928,0.132759
265,-0.7927,0.132759
266,-0.7926,0.132759
267,-0.7925,0.132759
268,-0.7924,0.132759
269,-0.7923,0.132759
270,-0.7922,0.132759
271,-0.7921,0.132759
272,-0.792,0.132759
273,-0.7919,0.132759
274,-0.7918,0.132759
275,-0.7917,0.132759
276,-0.7916,0.132759
277,-0.7915,0.132759
278,-0.7914,0.132759
279,-0.7913,0.132759
280,-0.7912,0.132759
281,-0.7911,0.132759
282,-0.791,0.132759
283,-0.7909,0.132759
284,-0.7908,0.132759
285,-0.7907,0.132759
286,-0.7906,0.132759
287,-0.7905,0.132759
288,-0.7904,0.132759
289,-0.7903,0.132759
290,-0.7902,0.132759
291,-0.7901,0.132759
292,-0.79,0.132759
293,-0.7899,0.132759
294,-0.7898,0.132759
295,-0.7897,0.132759
296,-0.7896,0.132759
297,-0.7895,0.132759
298,-0.7894,0.132759
299,-0.7893,0.132759
300,-0.7892,0.132759
301,-0.7891,0.132759
302,-0.789,0.132759
303,-0.7889,0.132759
304,-0.7888,0.132759
305,-0.7887,0.132759
306,-0.7886,0.132759
307,-0.7885,0.132759
308,-0.7884,0.137727
309,-0.7883,0.141039
310,-0.7882,0.144351
311,-0.7881,0.146007
312,-0.788,0.149319
313,-0.7879,0.152631
314,-0.7878,0.154287
315,-0.7877,0.154287
316,-0.7876,0.159255
317,-0.7875,0.160911
318,-0.7874,0.162568
319,-0.7873,0.164224
320,-0.7872,0.16588
321,-0.7871,0.167536
322,-0.787,0.170848
323,-0.7869,0.170848
324,-0.7868,0.170848
325,-0.7867,0.172504
326,-0.7866,0.175816
327,-0.7865,0.175816
328,-0.7864,0.175816
329,-0.7863,0.179128
330,-0.7862,0.179128
331,-0.7861,0.179128
332,-0.786,0.18244
333,-0.7859,0.184096
334,-0.7858,0.187408
335,-0.7857,0.187408
336,-0.7856,0.189064
337,-0.7855,0.19072
338,-0.7854,0.192376
339,-0.7853,0.192376
340,-0.7852,0.194032
341,-0.7851,0.195688
342,-0.785,0.195688
343,-0.7849,0.197345
344,-0.7848,0.197345
345,-0.7847,0.199001
346,-0.7846,0.199001
347,-0.7845,0.199001
348,-0.7844,0.200657
349,-0.7843,0.200657
350,-0.7842,0.200657
351,-0.7841,0.200657
352,-0.784,0.200657
353,-0.7839,0.200657
354,-0.7838,0.200657
355,-0.7837,0.205625
356,-0.7836,0.205625
357,-0.7835,0.207281
358,-0.7834,0.208937
359,-0.7833,0.210593
360,-0.7832,0.212249
361,-0.7831,0.212249
362,-0.783,0.213905
363,-0.7829,0.217217
364,-0.7828,0.215561
365,-0.7827,0.215561
366,-0.7826,0.215561
367,-0.7825,0.215561
368,-0.7824,0.215561
369,-0.7823,0.215561
370,-0.7822,0.215561
371,-0.7821,0.215561
372,-0.782,0.215561
373,-0.7819,0.215561
374,-0.7818,0.215561
375,-0.7817,0.213905
376,-0.7816,0.213905
377,-0.7815,0.213905
378,-0.7814,0.213905
379,-0.7813,0.213905
380,-0.7812,0.213905
381,-0.7811,0.213905
382,-0.781,0.213905
383,-0.7809,0.213905
384,-0.7808,0.215561
385,-0.7807,0.212249
386,-0.7806,0.212249
387,-0.7805,0.213905
388,-0.7804,0.210593
389,-0.7803,0.210593
390,-0.7802,0.212249
391,-0.7801,0.208937
392,-0.78,0.208937
393,-0.7799,0.208937
394,-0.7798,0.208937
395,-0.7797,0.208937
396,-0.7796,0.207281
397,-0.7795,0.207281
398,-0.7794,0.207281
399,-0.7793,0.207281
400,-0.7792,0.207281
401,-0.7791,0.205625
402,-0.779,0.205625
403,-0.7789,0.205625
404,-0.7788,0.205625
405,-0.7787,0.205625
406,-0.7786,0.205625
407,-0.7785,0.205625
408,-0.7784,0.205625
409,-0.7783,0.205625
410,-0.7782,0.205625
411,-0.7781,0.205625
412,-0.778,0.205625
413,-0.7779,0.205625
414,-0.7778,0.205625
415,-0.7777,0.205625
416,-0.7776,0.205625
417,-0.7775,0.205625
418,-0.7774,0.205625
419,-0.7773,0.205625
420,-0.7772,0.205625
421,-0.7771,0.205625
422,-0.777,0.205625
423,-0.7769,0.205625
424,-0.7768,0.205625
425,-0.7767,0.205625
426,-0.7766,0.205625
427,-0.7765,0.205625
428,-0.7764,0.205625
429,-0.7763,0.205625
430,-0.7762,0.205625
431,-0.7761,0.205625
432,-0.776,0.205625
433,-0.7759,0.205625
434,-0.7758,0.203969
435,-0.7757,0.203969
436,-0.7756,0.205625
437,-0.7755,0.200657
438,-0.7754,0.200657
439,-0.7753,0.200657
440,-0.7752,0.200657
441,-0.7751,0.200657
442,-0.775,0.199001
443,-0.7749,0.199001
444,-0.7748,0.199001
445,-0.7747,0.199001
446,-0.7746,0.199001
447,-0.7745,0.199001
448,-0.7744,0.199001
449,-0.7743,0.199001
450,-0.7742,0.197345
451,-0.7741,0.197345
452,-0.774,0.197345
453,-0.7739,0.194032
454,-0.7738,0.194032
455,-0.7737,0.189064
456,-0.7736,0.189064
457,-0.7735,0.184096
458,-0.7734,0.184096
459,-0.7733,0.18244
460,-0.7732,0.177472
461,-0.7731,0.175816
462,-0.773,0.17416
463,-0.7729,0.172504
464,-0.7728,0.170848
465,-0.7727,0.169192
466,-0.7726,0.167536
467,-0.7725,0.16588
468,-0.7724,0.164224
469,-0.7723,0.164224
470,-0.7722,0.162568
471,-0.7721,0.160911
472,-0.772,0.160911
473,-0.7719,0.159255
474,-0.7718,0.155943
475,-0.7717,0.155943
476,-0.7716,0.154287
477,-0.7715,0.154287
478,-0.7714,0.152631
479,-0.7713,0.150975
480,-0.7712,0.150975
481,-0.7711,0.150975
482,-0.771,0.149319
483,-0.7709,0.149319
484,-0.7708,0.147663
485,-0.7707,0.147663
486,-0.7706,0.147663
487,-0.7705,0.146007
488,-0.7704,0.146007
489,-0.7703,0.146007
490,-0.7702,0.144351
491,-0.7701,0.144351
492,-0.77,0.144351
493,-0.7699,0.144351
494,-0.7698,0.142695
495,-0.7697,0.142695
496,-0.7696,0.142695
497,-0.7695,0.142695
498,-0.7694,0.141039
499,-0.7693,0.141039
500,-0.7692,0.141039
501,-0.7691,0.141039
502,-0.769,0.141039
503,-0.7689,0.141039
504,-0.7688,0.141039
505,-0.7687,0.139383
506,-0.7686,0.139383
507,-0.7685,0.139383
508,-0.7684,0.139383
509,-0.7683,0.139383
510,-0.7682,0.139383
511,-0.7681,0.139383
512,-0.768,0.137727
513,-0.7679,0.137727
514,-0.7678,0.137727
515,-0.7677,0.137727
516,-0.7676,0.137727
517,-0.7675,0.137727
518,-0.7674,0.137727
519,-0.7673,0.137727
520,-0.7672,0.137727
521,-0.7671,0.137727
522,-0.767,0.137727
523,-0.7669,0.134415
524,-0.7668,0.134415
525,-0.7667,0.134415
526,-0.7666,0.134415
527,-0.7665,0.134415
528,-0.7664,0.134415
529,-0.7663,0.134415
530,-0.7662,0.134415
531,-0.7661,0.134415
532,-0.766,0.134415
533,-0.7659,0.134415
534,-0.7658,0.134415
535,-0.7657,0.134415
536,-0.7656,0.134415
537,-0.7655,0.134415
538,-0.7654,0.134415
539,-0.7653,0.134415
540,-0.7652,0.134415
541,-0.7651,0.134415
542,-0.765,0.134415
543,-0.7649,0.134415
544,-0.7648,0.134415
545,-0.7647,0.134415
546,-0.7646,0.134415
547,-0.7645,0.134415
548,-0.7644,0.134415
549,-0.7643,0.132759
550,-0.7642,0.134415
551,-0.7641,0.132759
552,-0.764,0.132759
553,-0.7639,0.132759
554,-0.7638,0.132759
555,-0.7637,0.132759
556,-0.7636,0.132759
557,-0.7635,0.132759
558,-0.7634,0.132759
559,-0.7633,0.132759
560,-0.7632,0.132759
561,-0.7631,0.132759
562,-0.763,0.132759
563,-0.7629,0.132759
564,-0.7628,0.132759
565,-0.7627,0.132759
566,-0.7626,0.132759
567,-0.7625,0.132759
568,-0.7624,0.132759
569,-0.7623,0.132759
570,-0.7622,0.132759
571,-0.7621,0.132759
572,-0.762,0.132759
573,-0.7619,0.132759
574,-0.7618,0.132759
575,-0.7617,0.132759
576,-0.7616,0.132759
577,-0.7615,0.132759
578,-0.7614,0.132759
579,-0.7613,0.132759
580,-0.7612,0.132759
581,-0.7611,0.132759
582,-0.761,0.132759
583,-0.7609,0.132759
584,-0.7608,0.132759
585,-0.7607,0.132759
586,-0.7606,0.132759
587,-0.7605,0.132759
588,-0.7604,0.132759
589,-0.7603,0.132759
590,-0.7602,0.132759
591,-0.7601,0.132759
592,-0.76,0.132759
593,-0.7599,0.132759
594,-0.7598,0.132759
595,-0.7597,0.132759
596,-0.7596,0.132759
597,-0.7595,0.132759
598,-0.7594,0.132759
599,-0.7593,0.132759
600,-0.7592,0.132759
601,-0.7591,0.132759
602,-0.759,0.132759
603,-0.7589,0.132759
604,-0.7588,0.132759
605,-0.7587,0.132759
606,-0.7586,0.132759
607,-0.7585,0.132759
608,-0.7584,0.132759
609,-0.7583,0.132759
610,-0.7582,0.132759
611,-0.7581,0.132759
612,-0.758,0.132759
613,-0.7579,0.132759
614,-0.7578,0.132759
615,-0.7577,0.132759
616,-0.7576,0.132759
617,-0.7575,0.132759
618,-0.7574,0.132759
619,-0.7573,0.132759
620,-0.7572,0.132759
621,-0.7571,0.132759
622,-0.757,0.132759
623,-0.7569,0.132759
624,-0.7568,0.132759
625,-0.7567,0.132759
626,-0.7566,0.132759
627,-0.7565,0.132759
628,-0.7564,0.132759
629,-0.7563,0.132759
630,-0.7562,0.132759
631,-0.7561,0.132759
632,-0.756,0.132759
633,-0.7559,0.132759
634,-0.7558,0.132759
635,-0.7557,0.132759
636,-0.7556,0.132759
637,-0.7555,0.132759
638,-0.7554,0.132759
639,-0.7553,0.132759
640,-0.7552,0.132759
641,-0.7551,0.132759
642,-0.755,0.132759
643,-0.7549,0.132759
644,-0.7548,0.132759
645,-0.7547,0.132759
646,-0.7546,0.132759
647,-0.7545,0.132759
648,-0.7544,0.132759
649,-0.7543,0.132759
650,-0.7542,0.132759
651,-0.7541,0.132759
652,-0.754,0.132759
653,-0.7539,0.132759
654,-0.7538,0.132759
655,-0.7537,0.132759
656,-0.7536,0.132759
657,-0.7535,0.132759
658,-0.7534,0.132759
659,-0.7533,0.132759
660,-0.7532,0.132759
661,-0.7531,0.132759
662,-0.753,0.132759
663,-0.7529,0.132759
664,-0.7528,0.132759
665,-0.7527,0.132759
666,-0.7526,0.132759
667,-0.7525,0.132759
668,-0.7524,0.132759
669,-0.7523,0.132759
670,-0.7522,0.132759
671,-0.7521,0.132759
672,-0.752,0.132759
673,-0.7519,0.132759
674,-0.7518,0.132759
675,-0.7517,0.132759
676,-0.7516,0.132759
677,-0.7515,0.132759
678,-0.7514,0.132759
679,-0.7513,0.132759
680,-0.7512,0.132759
681,-0.7511,0.132759
682,-0.751,0.132759
683,-0.7509,0.132759
684,-0.7508,0.132759
685,-0.7507,0.132759
686,-0.7506,0.132759
687,-0.7505,0.132759
688,-0.7504,0.132759
689,-0.7503,0.132759
690,-0.7502,0.132759
691,-0.7501,0.132759
692,-0.75,0.132759
693,-0.7499,0.132759
694,-0.7498,0.132759
695,-0.7497,0.132759
696,-0.7496,0.132759
697,-0.7495,0.132759
698,-0.7494,0.132759
699,-0.7493,0.132759
700,-0.7492,0.132759
701,-0.7491,0.132759
702,-0.749,0.132759
703,-0.7489,0.132759
704,-0.7488,0.132759
705,-0.7487,0.132759
706,-0.7486,0.132759
707,-0.7485,0.132759
708,-0.7484,0.132759
709,-0.7483,0.132759
710,-0.7482,0.132759
711,-0.7481,0.132759
712,-0.748,0.132759
713,-0.7479,0.132759
714,-0.7478,0.132759
715,-0.7477,0.132759
716,-0.7476,0.132759
717,-0.7475,0.132759
718,-0.7474,0.132759
719,-0.7473,0.132759
720,-0.7472,0.132759
721,-0.7471,0.132759
722,-0.747,0.132759
723,-0.7469,0.132759
724,-0.7468,0.132759
725,-0.7467,0.132759
726,-0.7466,0.132759
727,-0.7465,0.132759
728,-0.7464,0.132759
729,-0.7463,0.132759
730,-0.7462,0.132759
731,-0.7461,0.132759
732,-0.746,0.132759
733,-0.7459,0.132759
734,-0.7458,0.132759
735,-0.7457,0.132759
736,-0.7456,0.132759
737,-0.7455,0.132759
738,-0.7454,0.132759
739,-0.7453,0.132759
740,-0.7452,0.132759
741,-0.7451,0.132759
742,-0.745,0.132759
743,-0.7449,0.132759
744,-0.7448,0.132759
745,-0.7447,0.132759
746,-0.7446,0.132759
747,-0.7445,0.132759
748,-0.7444,0.132759
749,-0.7443,0.132759
750,-0.7442,0.132759
751,-0.7441,0.132759
752,-0.744,0.132759
753,-0.7439,0.132759
754,-0.7438,0.132759
755,-0.7437,0.132759
756,-0.7436,0.132759
757,-0.7435,0.132759
758,-0.7434,0.132759
759,-0.7433,0.132759
760,-0.7432,0.132759
761,-0.7431,0.132759
762,-0.743,0.132759
763,-0.7429,0.132759
764,-0.7428,0.132759
765,-0.7427,0.132759
766,-0.7426,0.132759
767,-0.7425,0.132759
768,-0.7424,0.132759
769,-0.7423,0.132759
770,-0.7422,0.132759
771,-0.7421,0.132759
772,-0.742,0.132759
773,-0.7419,0.132759
774,-0.7418,0.132759
775,-0.7417,0.132759
776,-0.7416,0.132759
777,-0.7415,0.132759
778,-0.7414,0.132759
779,-0.7413,0.132759
780,-0.7412,0.132759
781,-0.7411,0.132759
782,-0.741,0.132759
783,-0.7409,0.132759
784,-0.7408,0.132759
785,-0.7407,0.132759
786,-0.7406,0.132759
787,-0.7405,0.132759
788,-0.7404,0.132759
789,-0.7403,0.132759
790,-0.7402,0.132759
791,-0.7401,0.132759
792,-0.74,0.132759
793,-0.7399,0.132759
794,-0.7398,0.132759
795,-0.7397,0.132759
796,-0.7396,0.132759
797,-0.7395,0.132759
798,-0.7394,0.132759
799,-0.7393,0.132759
800,-0.7392,0.132759
801,-0.7391,0.132759
802,-0.739,0.132759
803,-0.7389,0.132759
804,-0.7388,0.132759
805,-0.7387,0.132759
806,-0.7386,0.132759
807,-0.7385,0.132759
808,-0.7384,0.132759
809,-0.7383,0.137727
810,-0.7382,0.141039
811,-0.7381,0.142695
812,-0.738,0.146007
813,-0.7379,0.147663
814,-0.7378,0.150975
815,-0.7377,0.152631
816,-0.7376,0.154287
817,-0.7375,0.155943
818,-0.7374,0.159255
819,-0.7373,0.160911
820,-0.7372,0.162568
821,-0.7371,0.164224
822,-0.737,0.16588
823,-0.7369,0.167536
824,-0.7368,0.170848
825,-0.7367,0.170848
826,-0.7366,0.170848
827,-0.7365,0.172504
828,-0.7364,0.175816
829,-0.7363,0.175816
830,-0.7362,0.175816
831,-0.7361,0.179128
832,-0.736,0.179128
833,-0.7359,0.179128
834,-0.7358,0.18244
835,-0.7357,0.185752
836,-0.7356,0.184096
837,-0.7355,0.187408
838,-0.7354,0.19072
839,-0.7353,0.19072
840,-0.7352,0.192376
841,-0.7351,0.194032
842,-0.735,0.194032
843,-0.7349,0.195688
844,-0.7348,0.195688
845,-0.7347,0.197345
846,-0.7346,0.197345
847,-0.7345,0.199001
848,-0.7344,0.199001
849,-0.7343,0.200657
850,-0.7342,0.200657
851,-0.7341,0.200657
852,-0.734,0.200657
853,-0.7339,0.200657
854,-0.7338,0.200657
855,-0.7337,0.200657
856,-0.7336,0.203969
857,-0.7335,0.205625
858,-0.7334,0.207281
859,-0.7333,0.208937
860,-0.7332,0.210593
861,-0.7331,0.210593
862,-0.733,0.212249
863,-0.7329,0.215561
864,-0.7328,0.215561
865,-0.7327,0.215561
866,-0.7326,0.215561
867,-0.7325,0.215561
868,-0.7324,0.215561
869,-0.7323,0.215561
870,-0.7322,0.215561
871,-0.7321,0.215561
872,-0.732,0.215561
873,-0.7319,0.215561
874,-0.7318,0.215561
875,-0.7317,0.215561
876,-0.7316,0.215561
877,-0.7315,0.217217
878,-0.7314,0.213905
879,-0.7313,0.213905
880,-0.7312,0.213905
881,-0.7311,0.213905
882,-0.731,0.213905
883,-0.7309,0.213905
884,-0.7308,0.213905
885,-0.7307,0.213905
886,-0.7306,0.215561
887,-0.7305,0.212249
888,-0.7304,0.212249
889,-0.7303,0.212249
890,-0.7302,0.210593
891,-0.7301,0.210593
892,-0.73,0.210593
893,-0.7299,0.208937
894,-0.7298,0.208937
895,-0.7297,0.210593
896,-0.7296,0.207281
897,-0.7295,0.207281
898,-0.7294,0.207281
899,-0.7293,0.207281
900,-0.7292,0.208937
901,-0.7291,0.205625
902,-0.729,0.205625
903,-0.7289,0.205625
904,-0.7288,0.205625
905,-0.7287,0.205625
906,-0.7286,0.205625
907,-0.7285,0.205625
908,-0.7284,0.205625
909,-0.7283,0.205625
910,-0.7282,0.205625
911,-0.7281,0.205625
912,-0.728,0.205625
913,-0.7279,0.205625
914,-0.7278,0.205625
915,-0.7277,0.205625
916,-0.7276,0.205625
917,-0.7275,0.205625
918,-0.7274,0.205625
919,-0.7273,0.205625
920,-0.7272,0.205625
921,-0.7271,0.205625
922,-0.727,0.205625
923,-0.7269,0.205625
924,-0.7268,0.205625
925,-0.7267,0.205625
926,-0.7266,0.205625
927,-0.7265,0.205625
928,-0.7264,0.205625
929,-0.7263,0.205625
930,-0.7262,0.205625
931,-0.7261,0.205625
932,-0.726,0.205625
933,-0.7259,0.205625
934,-0.7258,0.205625
935,-0.7257,0.205625
936,-0.7256,0.205625
937,-0.7255,0.205625
938,-0.7254,0.203969
939,-0.7253,0.203969
940,-0.7252,0.203969
941,-0.7251,0.205625
942,-0.725,0.200657
943,-0.7249,0.200657
944,-0.7248,0.200657
945,-0.7247,0.200657
946,-0.7246,0.200657
947,-0.7245,0.199001
948,-0.7244,0.199001
949,-0.7243,0.199001
950,-0.7242,0.199001
951,-0.7241,0.199001
952,-0.724,0.199001
953,-0.7239,0.199001
