measure/Measure_meeting_2/test_again-1.9-24.6.csv

;Scopy version,f4beeb1
;Exported on,dimanche mars 17/03/2024
;Device,M2K
;Nr of samples,160000
;Sample rate,10000
;Tool,Oscilloscope
;Additional Information,
Sample,Time(S),CH1(V)
0,-0.8192,0.0256312
1,-0.8191,0.0223191
2,-0.819,0.0239751
3,-0.8189,0.0239751
4,-0.8188,0.0223191
5,-0.8187,0.0223191
6,-0.8186,0.0223191
7,-0.8185,0.0223191
8,-0.8184,0.0239751
9,-0.8183,0.0239751
10,-0.8182,0.0239751
11,-0.8181,0.0223191
12,-0.818,0.0256312
13,-0.8179,0.0239751
14,-0.8178,0.0239751
15,-0.8177,0.0223191
16,-0.8176,0.0223191
17,-0.8175,0.0223191
18,-0.8174,0.0239751
19,-0.8173,0.0239751
20,-0.8172,0.0239751
21,-0.8171,0.0239751
22,-0.817,0.0239751
23,-0.8169,0.0256312
24,-0.8168,0.0223191
25,-0.8167,0.0223191
26,-0.8166,0.0223191
27,-0.8165,0.0223191
28,-0.8164,0.0239751
29,-0.8163,0.0239751
30,-0.8162,0.0239751
31,-0.8161,0.0239751
32,-0.816,0.0239751
33,-0.8159,0.0239751
34,-0.8158,0.0239751
35,-0.8157,0.0239751
36,-0.8156,0.0256312
37,-0.8155,0.0223191
38,-0.8154,0.0239751
39,-0.8153,0.0239751
40,-0.8152,0.0239751
41,-0.8151,0.0239751
42,-0.815,0.0239751
43,-0.8149,0.0239751
44,-0.8148,0.0239751
45,-0.8147,0.0239751
46,-0.8146,0.0239751
47,-0.8145,0.0239751
48,-0.8144,0.0239751
49,-0.8143,0.0239751
50,-0.8142,0.0239751
51,-0.8141,0.0239751
52,-0.814,0.0239751
53,-0.8139,0.0239751
54,-0.8138,0.0239751
55,-0.8137,0.0239751
56,-0.8136,0.0256312
57,-0.8135,0.0239751
58,-0.8134,0.0223191
59,-0.8133,0.0239751
60,-0.8132,0.0239751
61,-0.8131,0.0239751
62,-0.813,0.0239751
63,-0.8129,0.0239751
64,-0.8128,0.0239751
65,-0.8127,0.0223191
66,-0.8126,0.0256312
67,-0.8125,0.0223191
68,-0.8124,0.0223191
69,-0.8123,0.0256312
70,-0.8122,0.0239751
71,-0.8121,0.0239751
72,-0.812,0.0239751
73,-0.8119,0.0239751
74,-0.8118,0.0239751
75,-0.8117,0.0239751
76,-0.8116,0.0223191
77,-0.8115,0.0256312
78,-0.8114,0.0239751
79,-0.8113,0.0239751
80,-0.8112,0.0239751
81,-0.8111,0.0239751
82,-0.811,0.0239751
83,-0.8109,0.0239751
84,-0.8108,0.0239751
85,-0.8107,0.0239751
86,-0.8106,0.0239751
87,-0.8105,0.0239751
88,-0.8104,0.0223191
89,-0.8103,0.0256312
90,-0.8102,0.0239751
91,-0.8101,0.0239751
92,-0.81,0.0239751
93,-0.8099,0.0239751
94,-0.8098,0.0239751
95,-0.8097,0.0239751
96,-0.8096,0.0256312
97,-0.8095,0.0223191
98,-0.8094,0.0223191
99,-0.8093,0.0223191
100,-0.8092,0.0256312
101,-0.8091,0.0239751
102,-0.809,0.0239751
103,-0.8089,0.0239751
104,-0.8088,0.0239751
105,-0.8087,0.0239751
106,-0.8086,0.0256312
107,-0.8085,0.0223191
108,-0.8084,0.0223191
109,-0.8083,0.0239751
110,-0.8082,0.0256312
111,-0.8081,0.0239751
112,-0.808,0.0239751
113,-0.8079,0.0239751
114,-0.8078,0.0239751
115,-0.8077,0.0239751
116,-0.8076,0.0239751
117,-0.8075,0.0223191
118,-0.8074,0.0256312
119,-0.8073,0.0223191
120,-0.8072,0.0239751
121,-0.8071,0.0239751
122,-0.807,0.0239751
123,-0.8069,0.0239751
124,-0.8068,0.0223191
125,-0.8067,0.0239751
126,-0.8066,0.0223191
127,-0.8065,0.0223191
128,-0.8064,0.0239751
129,-0.8063,0.0223191
130,-0.8062,0.0256312
131,-0.8061,0.0239751
132,-0.806,0.0239751
133,-0.8059,0.0239751
134,-0.8058,0.0256312
135,-0.8057,0.020663
136,-0.8056,0.0239751
137,-0.8055,0.0223191
138,-0.8054,0.0223191
139,-0.8053,0.0223191
140,-0.8052,0.0239751
141,-0.8051,0.0239751
142,-0.805,0.0239751
143,-0.8049,0.0239751
144,-0.8048,0.0223191
145,-0.8047,0.0256312
146,-0.8046,0.0223191
147,-0.8045,0.0256312
148,-0.8044,0.0223191
149,-0.8043,0.0223191
150,-0.8042,0.0223191
151,-0.8041,0.0256312
152,-0.804,0.0239751
153,-0.8039,0.0239751
154,-0.8038,0.0239751
155,-0.8037,0.0239751
156,-0.8036,0.0256312
157,-0.8035,0.0223191
158,-0.8034,0.0256312
159,-0.8033,0.0256312
160,-0.8032,0.0223191
161,-0.8031,0.0256312
162,-0.803,0.0239751
163,-0.8029,0.0239751
164,-0.8028,0.0239751
165,-0.8027,0.0239751
166,-0.8026,0.0239751
167,-0.8025,0.0256312
168,-0.8024,0.0223191
169,-0.8023,0.0256312
170,-0.8022,0.0239751
171,-0.8021,0.0239751
172,-0.802,0.0239751
173,-0.8019,0.0239751
174,-0.8018,0.0239751
175,-0.8017,0.0239751
176,-0.8016,0.0239751
177,-0.8015,0.0256312
178,-0.8014,0.0223191
179,-0.8013,0.0239751
180,-0.8012,0.0223191
181,-0.8011,0.0256312
182,-0.801,0.0239751
183,-0.8009,0.0239751
184,-0.8008,0.0239751
185,-0.8007,0.0239751
186,-0.8006,0.0239751
187,-0.8005,0.0239751
188,-0.8004,0.0239751
189,-0.8003,0.0223191
190,-0.8002,0.0223191
191,-0.8001,0.0256312
192,-0.8,0.0239751
193,-0.7999,0.0239751
194,-0.7998,0.0239751
195,-0.7997,0.0256312
196,-0.7996,0.0223191
197,-0.7995,0.0256312
198,-0.7994,0.0223191
199,-0.7993,0.0223191
200,-0.7992,0.0223191
201,-0.7991,0.0256312
202,-0.799,0.0239751
203,-0.7989,0.0239751
204,-0.7988,0.0239751
205,-0.7987,0.0239751
206,-0.7986,0.0239751
207,-0.7985,0.0239751
208,-0.7984,0.0239751
209,-0.7983,0.0239751
210,-0.7982,0.0239751
211,-0.7981,0.0239751
212,-0.798,0.0239751
213,-0.7979,0.0239751
214,-0.7978,0.0239751
215,-0.7977,0.0239751
216,-0.7976,0.0239751
217,-0.7975,0.0239751
218,-0.7974,0.0223191
219,-0.7973,0.0239751
220,-0.7972,0.0256312
221,-0.7971,0.0239751
222,-0.797,0.0239751
223,-0.7969,0.0239751
224,-0.7968,0.0239751
225,-0.7967,0.0239751
226,-0.7966,0.0239751
227,-0.7965,0.0239751
228,-0.7964,0.0239751
229,-0.7963,0.0223191
230,-0.7962,0.0256312
231,-0.7961,0.0239751
232,-0.796,0.0239751
233,-0.7959,0.0239751
234,-0.7958,0.0239751
235,-0.7957,0.0239751
236,-0.7956,0.0239751
237,-0.7955,0.0239751
238,-0.7954,0.0239751
239,-0.7953,0.0239751
240,-0.7952,0.0256312
241,-0.7951,0.0223191
242,-0.795,0.0239751
243,-0.7949,0.0239751
244,-0.7948,0.0239751
245,-0.7947,0.0239751
246,-0.7946,0.0256312
247,-0.7945,0.0223191
248,-0.7944,0.0239751
249,-0.7943,0.0239751
250,-0.7942,0.0239751
251,-0.7941,0.0239751
252,-0.794,0.0239751
253,-0.7939,0.0239751
254,-0.7938,0.0239751
255,-0.7937,0.0239751
256,-0.7936,0.0239751
257,-0.7935,0.0239751
258,-0.7934,0.0239751
259,-0.7933,0.0256312
260,-0.7932,0.020663
261,-0.7931,0.0239751
262,-0.793,0.0239751
263,-0.7929,0.0239751
264,-0.7928,0.0239751
265,-0.7927,0.0239751
266,-0.7926,0.0239751
267,-0.7925,0.0239751
268,-0.7924,0.0239751
269,-0.7923,0.0239751
270,-0.7922,0.0223191
271,-0.7921,0.0256312
272,-0.792,0.0239751
273,-0.7919,0.0239751
274,-0.7918,0.0239751
275,-0.7917,0.0239751
276,-0.7916,0.0239751
277,-0.7915,0.0256312
278,-0.7914,0.0223191
279,-0.7913,0.0239751
280,-0.7912,0.0239751
281,-0.7911,0.0239751
282,-0.791,0.0239751
283,-0.7909,0.0239751
284,-0.7908,0.0239751
285,-0.7907,0.0239751
286,-0.7906,0.0239751
287,-0.7905,0.0256312
288,-0.7904,0.0223191
289,-0.7903,0.0239751
290,-0.7902,0.0239751
291,-0.7901,0.0256312
292,-0.79,0.0256312
293,-0.7899,0.0256312
294,-0.7898,0.0256312
295,-0.7897,0.0256312
296,-0.7896,0.0272872
297,-0.7895,0.0272872
298,-0.7894,0.0272872
299,-0.7893,0.0272872
300,-0.7892,0.0272872
301,-0.7891,0.0272872
302,-0.789,0.0272872
303,-0.7889,0.0272872
304,-0.7888,0.0272872
305,-0.7887,0.0272872
306,-0.7886,0.0272872
307,-0.7885,0.0272872
308,-0.7884,0.0272872
309,-0.7883,0.0272872
310,-0.7882,0.0272872
311,-0.7881,0.0272872
312,-0.788,0.0272872
313,-0.7879,0.0272872
314,-0.7878,0.0272872
315,-0.7877,0.0272872
316,-0.7876,0.0272872
317,-0.7875,0.0272872
318,-0.7874,0.0272872
319,-0.7873,0.0272872
320,-0.7872,0.0272872
321,-0.7871,0.0272872
322,-0.787,0.0272872
323,-0.7869,0.0272872
324,-0.7868,0.0272872
325,-0.7867,0.0272872
326,-0.7866,0.0272872
327,-0.7865,0.0272872
328,-0.7864,0.0272872
329,-0.7863,0.0272872
330,-0.7862,0.0272872
331,-0.7861,0.0272872
332,-0.786,0.0272872
333,-0.7859,0.0272872
334,-0.7858,0.0272872
335,-0.7857,0.0272872
336,-0.7856,0.0272872
337,-0.7855,0.0272872
338,-0.7854,0.0272872
339,-0.7853,0.0272872
340,-0.7852,0.0272872
341,-0.7851,0.0272872
342,-0.785,0.0272872
343,-0.7849,0.0272872
344,-0.7848,0.0272872
345,-0.7847,0.0272872
346,-0.7846,0.0272872
347,-0.7845,0.0272872
348,-0.7844,0.0272872
349,-0.7843,0.0272872
350,-0.7842,0.0272872
351,-0.7841,0.0272872
352,-0.784,0.0272872
353,-0.7839,0.0272872
354,-0.7838,0.0272872
355,-0.7837,0.0272872
356,-0.7836,0.0272872
357,-0.7835,0.0272872
358,-0.7834,0.0272872
359,-0.7833,0.0272872
360,-0.7832,0.0272872
361,-0.7831,0.0272872
362,-0.783,0.0272872
363,-0.7829,0.0272872
364,-0.7828,0.0272872
365,-0.7827,0.0272872
366,-0.7826,0.0272872
367,-0.7825,0.0272872
368,-0.7824,0.0272872
369,-0.7823,0.0272872
370,-0.7822,0.0272872
371,-0.7821,0.0272872
372,-0.782,0.0272872
373,-0.7819,0.0272872
374,-0.7818,0.0272872
375,-0.7817,0.0272872
376,-0.7816,0.0272872
377,-0.7815,0.0272872
378,-0.7814,0.0272872
379,-0.7813,0.0272872
380,-0.7812,0.0272872
381,-0.7811,0.0272872
382,-0.781,0.0272872
383,-0.7809,0.0272872
384,-0.7808,0.0272872
385,-0.7807,0.0272872
386,-0.7806,0.0272872
387,-0.7805,0.0305993
388,-0.7804,0.0305993
389,-0.7803,0.0305993
390,-0.7802,0.0305993
391,-0.7801,0.0305993
392,-0.78,0.0305993
393,-0.7799,0.0305993
394,-0.7798,0.0305993
395,-0.7797,0.0305993
396,-0.7796,0.0305993
397,-0.7795,0.0305993
398,-0.7794,0.0305993
399,-0.7793,0.0305993
400,-0.7792,0.0305993
401,-0.7791,0.0305993
402,-0.779,0.0305993
403,-0.7789,0.0305993
404,-0.7788,0.0305993
405,-0.7787,0.0305993
406,-0.7786,0.0305993
407,-0.7785,0.0305993
408,-0.7784,0.0305993
409,-0.7783,0.0305993
410,-0.7782,0.0305993
411,-0.7781,0.0305993
412,-0.778,0.0305993
413,-0.7779,0.0305993
414,-0.7778,0.0305993
415,-0.7777,0.0305993
416,-0.7776,0.0305993
417,-0.7775,0.0305993
418,-0.7774,0.0305993
419,-0.7773,0.0305993
420,-0.7772,0.0305993
421,-0.7771,0.0305993
422,-0.777,0.0305993
423,-0.7769,0.0305993
424,-0.7768,0.0305993
425,-0.7767,0.0305993
426,-0.7766,0.0305993
427,-0.7765,0.0305993
428,-0.7764,0.0305993
429,-0.7763,0.0305993
430,-0.7762,0.0305993
431,-0.7761,0.0305993
432,-0.776,0.0305993
433,-0.7759,0.0305993
434,-0.7758,0.0305993
435,-0.7757,0.0305993
436,-0.7756,0.0305993
437,-0.7755,0.0305993
438,-0.7754,0.0305993
439,-0.7753,0.0305993
440,-0.7752,0.0305993
441,-0.7751,0.0305993
442,-0.775,0.0305993
443,-0.7749,0.0305993
444,-0.7748,0.0305993
445,-0.7747,0.0305993
446,-0.7746,0.0305993
447,-0.7745,0.0305993
448,-0.7744,0.0305993
449,-0.7743,0.0305993
450,-0.7742,0.0305993
451,-0.7741,0.0305993
452,-0.774,0.0305993
453,-0.7739,0.0305993
454,-0.7738,0.0305993
455,-0.7737,0.0305993
456,-0.7736,0.0305993
457,-0.7735,0.0305993
458,-0.7734,0.0305993
459,-0.7733,0.0305993
460,-0.7732,0.0305993
461,-0.7731,0.0305993
462,-0.773,0.0305993
463,-0.7729,0.0305993
464,-0.7728,0.0305993
465,-0.7727,0.0305993
466,-0.7726,0.0305993
467,-0.7725,0.0305993
468,-0.7724,0.0305993
469,-0.7723,0.0305993
470,-0.7722,0.0305993
471,-0.7721,0.0305993
472,-0.772,0.0305993
473,-0.7719,0.0305993
474,-0.7718,0.0305993
475,-0.7717,0.0305993
476,-0.7716,0.0305993
477,-0.7715,0.0305993
478,-0.7714,0.0305993
479,-0.7713,0.0305993
480,-0.7712,0.0305993
481,-0.7711,0.0305993
482,-0.771,0.0272872
483,-0.7709,0.0272872
484,-0.7708,0.0305993
485,-0.7707,0.0272872
486,-0.7706,0.0272872
487,-0.7705,0.0272872
488,-0.7704,0.0272872
489,-0.7703,0.0322553
490,-0.7702,0.0305993
491,-0.7701,0.0305993
492,-0.77,0.0305993
493,-0.7699,0.0305993
494,-0.7698,0.0305993
495,-0.7697,0.0305993
496,-0.7696,0.0339114
497,-0.7695,0.0322553
498,-0.7694,0.0322553
499,-0.7693,0.0322553
500,-0.7692,0.0322553
501,-0.7691,0.0322553
502,-0.769,0.0322553
503,-0.7689,0.0322553
504,-0.7688,0.0322553
505,-0.7687,0.0322553
506,-0.7686,0.0322553
507,-0.7685,0.0322553
508,-0.7684,0.0322553
509,-0.7683,0.0322553
510,-0.7682,0.0322553
511,-0.7681,0.0322553
512,-0.768,0.0322553
513,-0.7679,0.0322553
514,-0.7678,0.0322553
515,-0.7677,0.0322553
516,-0.7676,0.0322553
517,-0.7675,0.0322553
518,-0.7674,0.0322553
519,-0.7673,0.0322553
520,-0.7672,0.0322553
521,-0.7671,0.0322553
522,-0.767,0.0322553
523,-0.7669,0.0322553
524,-0.7668,0.0322553
525,-0.7667,0.0322553
526,-0.7666,0.0322553
527,-0.7665,0.0322553
528,-0.7664,0.0322553
529,-0.7663,0.0322553
530,-0.7662,0.0322553
531,-0.7661,0.0305993
532,-0.766,0.0305993
533,-0.7659,0.0305993
534,-0.7658,0.0305993
535,-0.7657,0.0305993
536,-0.7656,0.0305993
537,-0.7655,0.0305993
538,-0.7654,0.0305993
539,-0.7653,0.0305993
540,-0.7652,0.0305993
541,-0.7651,0.0305993
542,-0.765,0.0305993
543,-0.7649,0.0305993
544,-0.7648,0.0305993
545,-0.7647,0.0305993
546,-0.7646,0.0305993
547,-0.7645,0.0305993
548,-0.7644,0.0305993
549,-0.7643,0.0305993
550,-0.7642,0.0305993
551,-0.7641,0.0305993
552,-0.764,0.0305993
553,-0.7639,0.0305993
554,-0.7638,0.0305993
555,-0.7637,0.0305993
556,-0.7636,0.0305993
557,-0.7635,0.0305993
558,-0.7634,0.0305993
559,-0.7633,0.0305993
560,-0.7632,0.0305993
561,-0.7631,0.0305993
562,-0.763,0.0305993
563,-0.7629,0.0305993
564,-0.7628,0.0305993
565,-0.7627,0.0305993
566,-0.7626,0.0305993
567,-0.7625,0.0305993
568,-0.7624,0.0305993
569,-0.7623,0.0305993
570,-0.7622,0.0305993
571,-0.7621,0.0305993
572,-0.762,0.0305993
573,-0.7619,0.0305993
574,-0.7618,0.0305993
575,-0.7617,0.0305993
576,-0.7616,0.0305993
577,-0.7615,0.0305993
578,-0.7614,0.0305993
579,-0.7613,0.0305993
580,-0.7612,0.0305993
581,-0.7611,0.0305993
582,-0.761,0.0305993
583,-0.7609,0.0305993
584,-0.7608,0.0305993
585,-0.7607,0.0305993
586,-0.7606,0.0305993
587,-0.7605,0.0305993
588,-0.7604,0.0305993
589,-0.7603,0.0305993
590,-0.7602,0.0305993
591,-0.7601,0.0305993
592,-0.76,0.0305993
593,-0.7599,0.0305993
594,-0.7598,0.0305993
595,-0.7597,0.0305993
596,-0.7596,0.0305993
597,-0.7595,0.0305993
598,-0.7594,0.0305993
599,-0.7593,0.0305993
600,-0.7592,0.0305993
601,-0.7591,0.0305993
602,-0.759,0.0305993
603,-0.7589,0.0305993
604,-0.7588,0.0305993
605,-0.7587,0.0305993
606,-0.7586,0.0305993
607,-0.7585,0.0305993
608,-0.7584,0.0305993
609,-0.7583,0.0305993
610,-0.7582,0.0305993
611,-0.7581,0.0305993
612,-0.758,0.0305993
613,-0.7579,0.0305993
614,-0.7578,0.0305993
615,-0.7577,0.0305993
616,-0.7576,0.0305993
617,-0.7575,0.0305993
618,-0.7574,0.0305993
619,-0.7573,0.0305993
620,-0.7572,0.0305993
621,-0.7571,0.0322553
622,-0.757,0.0272872
623,-0.7569,0.0272872
624,-0.7568,0.0272872
625,-0.7567,0.0272872
626,-0.7566,0.0272872
627,-0.7565,0.0272872
628,-0.7564,0.0272872
629,-0.7563,0.0272872
630,-0.7562,0.0272872
631,-0.7561,0.0272872
632,-0.756,0.0272872
633,-0.7559,0.0272872
634,-0.7558,0.0272872
635,-0.7557,0.0272872
636,-0.7556,0.0272872
637,-0.7555,0.0272872
638,-0.7554,0.0272872
639,-0.7553,0.0272872
640,-0.7552,0.0272872
641,-0.7551,0.0272872
642,-0.755,0.0272872
643,-0.7549,0.0272872
644,-0.7548,0.0272872
645,-0.7547,0.0272872
646,-0.7546,0.0272872
647,-0.7545,0.0272872
648,-0.7544,0.0272872
649,-0.7543,0.0272872
650,-0.7542,0.0272872
651,-0.7541,0.0272872
652,-0.754,0.0272872
653,-0.7539,0.0272872
654,-0.7538,0.0272872
655,-0.7537,0.0272872
656,-0.7536,0.0272872
657,-0.7535,0.0272872
658,-0.7534,0.0272872
659,-0.7533,0.0272872
660,-0.7532,0.0272872
661,-0.7531,0.0272872
662,-0.753,0.0272872
663,-0.7529,0.0272872
664,-0.7528,0.0272872
665,-0.7527,0.0272872
666,-0.7526,0.0272872
667,-0.7525,0.0272872
668,-0.7524,0.0272872
669,-0.7523,0.0272872
670,-0.7522,0.0272872
671,-0.7521,0.0272872
672,-0.752,0.0272872
673,-0.7519,0.0272872
674,-0.7518,0.0272872
675,-0.7517,0.0272872
676,-0.7516,0.0272872
677,-0.7515,0.0272872
678,-0.7514,0.0272872
679,-0.7513,0.0272872
680,-0.7512,0.0272872
681,-0.7511,0.0272872
682,-0.751,0.0272872
683,-0.7509,0.0272872
684,-0.7508,0.0272872
685,-0.7507,0.0272872
686,-0.7506,0.0272872
687,-0.7505,0.0272872
688,-0.7504,0.0272872
689,-0.7503,0.0272872
690,-0.7502,0.0272872
691,-0.7501,0.0272872
692,-0.75,0.0272872
693,-0.7499,0.0272872
694,-0.7498,0.0272872
695,-0.7497,0.0272872
696,-0.7496,0.0272872
697,-0.7495,0.0272872
698,-0.7494,0.0305993
699,-0.7493,0.0305993
700,-0.7492,0.0305993
701,-0.7491,0.0305993
702,-0.749,0.0272872
703,-0.7489,0.0322553
704,-0.7488,0.0305993
705,-0.7487,0.0305993
706,-0.7486,0.0305993
707,-0.7485,0.0272872
708,-0.7484,0.0322553
709,-0.7483,0.0305993
710,-0.7482,0.0305993
711,-0.7481,0.0305993
712,-0.748,0.0305993
713,-0.7479,0.0305993
714,-0.7478,0.0305993
715,-0.7477,0.0272872
716,-0.7476,0.0322553
717,-0.7475,0.0305993
718,-0.7474,0.0305993
719,-0.7473,0.0305993
720,-0.7472,0.0305993
721,-0.7471,0.0305993
722,-0.747,0.0322553
723,-0.7469,0.0272872
724,-0.7468,0.0305993
725,-0.7467,0.0322553
726,-0.7466,0.0305993
727,-0.7465,0.0272872
728,-0.7464,0.0305993
729,-0.7463,0.0305993
730,-0.7462,0.0305993
731,-0.7461,0.0272872
732,-0.746,0.0272872
733,-0.7459,0.0305993
734,-0.7458,0.0272872
735,-0.7457,0.0272872
736,-0.7456,0.0272872
737,-0.7455,0.0322553
738,-0.7454,0.0305993
739,-0.7453,0.0305993
740,-0.7452,0.0305993
741,-0.7451,0.0322553
742,-0.745,0.0272872
743,-0.7449,0.0272872
744,-0.7448,0.0272872
745,-0.7447,0.0322553
746,-0.7446,0.0305993
747,-0.7445,0.0305993
748,-0.7444,0.0305993
749,-0.7443,0.0305993
750,-0.7442,0.0322553
751,-0.7441,0.0272872
752,-0.744,0.0272872
753,-0.7439,0.0272872
754,-0.7438,0.0272872
755,-0.7437,0.0272872
756,-0.7436,0.0272872
757,-0.7435,0.0272872
758,-0.7434,0.0272872
759,-0.7433,0.0272872
760,-0.7432,0.0305993
761,-0.7431,0.0272872
762,-0.743,0.0272872
763,-0.7429,0.0272872
764,-0.7428,0.0272872
765,-0.7427,0.0272872
766,-0.7426,0.0272872
767,-0.7425,0.0272872
768,-0.7424,0.0272872
769,-0.7423,0.0272872
770,-0.7422,0.0272872
771,-0.7421,0.0305993
772,-0.742,0.0322553
773,-0.7419,0.0272872
774,-0.7418,0.0272872
775,-0.7417,0.0272872
776,-0.7416,0.0322553
777,-0.7415,0.0272872
778,-0.7414,0.0305993
779,-0.7413,0.0272872
780,-0.7412,0.0272872
781,-0.7411,0.0322553
782,-0.741,0.0305993
783,-0.7409,0.0322553
784,-0.7408,0.0272872
785,-0.7407,0.0305993
786,-0.7406,0.0305993
787,-0.7405,0.0322553
788,-0.7404,0.0272872
789,-0.7403,0.0272872
790,-0.7402,0.0272872
791,-0.7401,0.0272872
792,-0.74,0.0305993
793,-0.7399,0.0305993
794,-0.7398,0.0272872
795,-0.7397,0.0322553
796,-0.7396,0.0305993
797,-0.7395,0.0305993
798,-0.7394,0.0322553
799,-0.7393,0.0272872
800,-0.7392,0.0272872
801,-0.7391,0.0272872
802,-0.739,0.0272872
803,-0.7389,0.0272872
804,-0.7388,0.0272872
805,-0.7387,0.0272872
806,-0.7386,0.0305993
807,-0.7385,0.0305993
808,-0.7384,0.0305993
809,-0.7383,0.0305993
810,-0.7382,0.0322553
811,-0.7381,0.0272872
812,-0.738,0.0272872
813,-0.7379,0.0272872
814,-0.7378,0.0322553
815,-0.7377,0.0305993
816,-0.7376,0.0305993
817,-0.7375,0.0305993
818,-0.7374,0.0305993
819,-0.7373,0.0305993
820,-0.7372,0.0305993
821,-0.7371,0.0305993
822,-0.737,0.0305993
823,-0.7369,0.0305993
824,-0.7368,0.0305993
825,-0.7367,0.0305993
826,-0.7366,0.0322553
827,-0.7365,0.0305993
828,-0.7364,0.0272872
829,-0.7363,0.0272872
830,-0.7362,0.0272872
831,-0.7361,0.0322553
832,-0.736,0.0322553
833,-0.7359,0.0272872
834,-0.7358,0.0272872
835,-0.7357,0.0272872
836,-0.7356,0.0272872
837,-0.7355,0.0272872
838,-0.7354,0.0272872
839,-0.7353,0.0272872
840,-0.7352,0.0305993
841,-0.7351,0.0305993
842,-0.735,0.0305993
843,-0.7349,0.0305993
844,-0.7348,0.0272872
845,-0.7347,0.0272872
846,-0.7346,0.0272872
847,-0.7345,0.0272872
848,-0.7344,0.0272872
849,-0.7343,0.0272872
850,-0.7342,0.0272872
851,-0.7341,0.0272872
852,-0.734,0.0272872
853,-0.7339,0.0272872
854,-0.7338,0.0272872
855,-0.7337,0.0272872
856,-0.7336,0.0272872
857,-0.7335,0.0272872
858,-0.7334,0.0272872
859,-0.7333,0.0272872
860,-0.7332,0.0272872
861,-0.7331,0.0272872
862,-0.733,0.0272872
863,-0.7329,0.0272872
864,-0.7328,0.0272872
865,-0.7327,0.0272872
866,-0.7326,0.0272872
867,-0.7325,0.0272872
868,-0.7324,0.0272872
869,-0.7323,0.0272872
870,-0.7322,0.0272872
871,-0.7321,0.0272872
872,-0.732,0.0272872
873,-0.7319,0.0272872
874,-0.7318,0.0272872
875,-0.7317,0.0272872
876,-0.7316,0.0272872
877,-0.7315,0.0272872
878,-0.7314,0.0272872
879,-0.7313,0.0272872
880,-0.7312,0.0272872
881,-0.7311,0.0272872
882,-0.731,0.0272872
883,-0.7309,0.0272872
884,-0.7308,0.0272872
885,-0.7307,0.0272872
886,-0.7306,0.0272872
887,-0.7305,0.0272872
888,-0.7304,0.0272872
889,-0.7303,0.0272872
890,-0.7302,0.0272872
891,-0.7301,0.0272872
892,-0.73,0.0272872
893,-0.7299,0.0272872
894,-0.7298,0.0272872
895,-0.7297,0.0272872
896,-0.7296,0.0272872
897,-0.7295,0.0272872
898,-0.7294,0.0272872
899,-0.7293,0.0272872
900,-0.7292,0.0272872
901,-0.7291,0.0272872
902,-0.729,0.0272872
903,-0.7289,0.0272872
904,-0.7288,0.0272872
905,-0.7287,0.0272872
906,-0.7286,0.0272872
907,-0.7285,0.0272872
908,-0.7284,0.0272872
909,-0.7283,0.0272872
