measure/2MHZ_52.2Ohm.csv

;Scopy version,f4beeb1
;Exported on,lundi mars 11/03/2024
;Device,M2K
;Nr of samples,160000
;Sample rate,10000
;Tool,Oscilloscope
;Additional Information,
Sample,Time(S),CH1(V)
0,-0.8192,0.0501028
1,-0.8191,0.0501028
2,-0.819,0.0501028
3,-0.8189,0.0501028
4,-0.8188,0.0501028
5,-0.8187,0.0501028
6,-0.8186,0.0501028
7,-0.8185,0.0501028
8,-0.8184,0.0534149
9,-0.8183,0.0534149
10,-0.8182,0.0501028
11,-0.8181,0.0501028
12,-0.818,0.0501028
13,-0.8179,0.0501028
14,-0.8178,0.0501028
15,-0.8177,0.0501028
16,-0.8176,0.0501028
17,-0.8175,0.0501028
18,-0.8174,0.0501028
19,-0.8173,0.0517588
20,-0.8172,0.0501028
21,-0.8171,0.0501028
22,-0.817,0.0501028
23,-0.8169,0.0501028
24,-0.8168,0.0501028
25,-0.8167,0.0501028
26,-0.8166,0.0501028
27,-0.8165,0.0501028
28,-0.8164,0.0534149
29,-0.8163,0.0534149
30,-0.8162,0.0501028
31,-0.8161,0.0501028
32,-0.816,0.0501028
33,-0.8159,0.0501028
34,-0.8158,0.0501028
35,-0.8157,0.0501028
36,-0.8156,0.0501028
37,-0.8155,0.0501028
38,-0.8154,0.0534149
39,-0.8153,0.0534149
40,-0.8152,0.0501028
41,-0.8151,0.0501028
42,-0.815,0.0501028
43,-0.8149,0.0501028
44,-0.8148,0.0501028
45,-0.8147,0.0501028
46,-0.8146,0.0501028
47,-0.8145,0.0501028
48,-0.8144,0.0517588
49,-0.8143,0.0517588
50,-0.8142,0.0501028
51,-0.8141,0.0501028
52,-0.814,0.0501028
53,-0.8139,0.0501028
54,-0.8138,0.0501028
55,-0.8137,0.0501028
56,-0.8136,0.0501028
57,-0.8135,0.0501028
58,-0.8134,0.0501028
59,-0.8133,0.0501028
60,-0.8132,0.0501028
61,-0.8131,0.0501028
62,-0.813,0.0501028
63,-0.8129,0.0501028
64,-0.8128,0.0501028
65,-0.8127,0.0501028
66,-0.8126,0.0501028
67,-0.8125,0.0501028
68,-0.8124,0.0501028
69,-0.8123,0.0501028
70,-0.8122,0.0501028
71,-0.8121,0.0501028
72,-0.812,0.0501028
73,-0.8119,0.0501028
74,-0.8118,0.0501028
75,-0.8117,0.0501028
76,-0.8116,0.0501028
77,-0.8115,0.0501028
78,-0.8114,0.0517588
79,-0.8113,0.0517588
80,-0.8112,0.0517588
81,-0.8111,0.0501028
82,-0.811,0.0501028
83,-0.8109,0.0501028
84,-0.8108,0.0501028
85,-0.8107,0.0501028
86,-0.8106,0.0501028
87,-0.8105,0.0501028
88,-0.8104,0.0534149
89,-0.8103,0.0517588
90,-0.8102,0.0517588
91,-0.8101,0.0501028
92,-0.81,0.0501028
93,-0.8099,0.0501028
94,-0.8098,0.0501028
95,-0.8097,0.0501028
96,-0.8096,0.0501028
97,-0.8095,0.0501028
98,-0.8094,0.0534149
99,-0.8093,0.0517588
100,-0.8092,0.0534149
101,-0.8091,0.0501028
102,-0.809,0.0501028
103,-0.8089,0.0501028
104,-0.8088,0.0501028
105,-0.8087,0.0501028
106,-0.8086,0.0501028
107,-0.8085,0.0517588
108,-0.8084,0.0517588
109,-0.8083,0.0517588
110,-0.8082,0.0501028
111,-0.8081,0.0501028
112,-0.808,0.0501028
113,-0.8079,0.0501028
114,-0.8078,0.0501028
115,-0.8077,0.0501028
116,-0.8076,0.0501028
117,-0.8075,0.0501028
118,-0.8074,0.0534149
119,-0.8073,0.0534149
120,-0.8072,0.0501028
121,-0.8071,0.0517588
122,-0.807,0.0517588
123,-0.8069,0.0501028
124,-0.8068,0.0501028
125,-0.8067,0.0501028
126,-0.8066,0.0501028
127,-0.8065,0.0501028
128,-0.8064,0.0534149
129,-0.8063,0.0517588
130,-0.8062,0.0517588
131,-0.8061,0.0534149
132,-0.806,0.0501028
133,-0.8059,0.0501028
134,-0.8058,0.0501028
135,-0.8057,0.0501028
136,-0.8056,0.0501028
137,-0.8055,0.0501028
138,-0.8054,0.0534149
139,-0.8053,0.0534149
140,-0.8052,0.0501028
141,-0.8051,0.0501028
142,-0.805,0.0501028
143,-0.8049,0.0501028
144,-0.8048,0.0501028
145,-0.8047,0.0501028
146,-0.8046,0.0501028
147,-0.8045,0.0501028
148,-0.8044,0.0534149
149,-0.8043,0.0517588
150,-0.8042,0.0517588
151,-0.8041,0.0501028
152,-0.804,0.0501028
153,-0.8039,0.0501028
154,-0.8038,0.0501028
155,-0.8037,0.0501028
156,-0.8036,0.0501028
157,-0.8035,0.0517588
158,-0.8034,0.0517588
159,-0.8033,0.0517588
160,-0.8032,0.0517588
161,-0.8031,0.0501028
162,-0.803,0.0501028
163,-0.8029,0.0501028
164,-0.8028,0.0501028
165,-0.8027,0.0501028
166,-0.8026,0.0501028
167,-0.8025,0.0517588
168,-0.8024,0.0517588
169,-0.8023,0.0517588
170,-0.8022,0.0517588
171,-0.8021,0.0501028
172,-0.802,0.0501028
173,-0.8019,0.0501028
174,-0.8018,0.0501028
175,-0.8017,0.0501028
176,-0.8016,0.0501028
177,-0.8015,0.0501028
178,-0.8014,0.0534149
179,-0.8013,0.0534149
180,-0.8012,0.0484467
181,-0.8011,0.0534149
182,-0.801,0.0501028
183,-0.8009,0.0501028
184,-0.8008,0.0501028
185,-0.8007,0.0501028
186,-0.8006,0.0501028
187,-0.8005,0.0517588
188,-0.8004,0.0517588
189,-0.8003,0.0517588
190,-0.8002,0.0501028
191,-0.8001,0.0501028
192,-0.8,0.0501028
193,-0.7999,0.0501028
194,-0.7998,0.0501028
195,-0.7997,0.0501028
196,-0.7996,0.0501028
197,-0.7995,0.0501028
198,-0.7994,0.0534149
199,-0.7993,0.0517588
200,-0.7992,0.0534149
201,-0.7991,0.0501028
202,-0.799,0.0501028
203,-0.7989,0.0501028
204,-0.7988,0.0501028
205,-0.7987,0.0501028
206,-0.7986,0.0501028
207,-0.7985,0.0517588
208,-0.7984,0.0484467
209,-0.7983,0.0517588
210,-0.7982,0.0501028
211,-0.7981,0.0501028
212,-0.798,0.0501028
213,-0.7979,0.0501028
214,-0.7978,0.0501028
215,-0.7977,0.0501028
216,-0.7976,0.0501028
217,-0.7975,0.0501028
218,-0.7974,0.0501028
219,-0.7973,0.0501028
220,-0.7972,0.0501028
221,-0.7971,0.0501028
222,-0.797,0.0501028
223,-0.7969,0.0501028
224,-0.7968,0.0501028
225,-0.7967,0.0501028
226,-0.7966,0.0501028
227,-0.7965,0.0517588
228,-0.7964,0.0517588
229,-0.7963,0.0501028
230,-0.7962,0.0517588
231,-0.7961,0.0501028
232,-0.796,0.0501028
233,-0.7959,0.0501028
234,-0.7958,0.0501028
235,-0.7957,0.0501028
236,-0.7956,0.0501028
237,-0.7955,0.0517588
238,-0.7954,0.0517588
239,-0.7953,0.0517588
240,-0.7952,0.0501028
241,-0.7951,0.0501028
242,-0.795,0.0501028
243,-0.7949,0.0501028
244,-0.7948,0.0501028
245,-0.7947,0.0501028
246,-0.7946,0.0501028
247,-0.7945,0.0517588
248,-0.7944,0.0517588
249,-0.7943,0.0501028
250,-0.7942,0.0501028
251,-0.7941,0.0501028
252,-0.794,0.0501028
253,-0.7939,0.0501028
254,-0.7938,0.0501028
255,-0.7937,0.0501028
256,-0.7936,0.0501028
257,-0.7935,0.0517588
258,-0.7934,0.0517588
259,-0.7933,0.0501028
260,-0.7932,0.0534149
261,-0.7931,0.0501028
262,-0.793,0.0501028
263,-0.7929,0.0501028
264,-0.7928,0.0501028
265,-0.7927,0.0501028
266,-0.7926,0.0501028
267,-0.7925,0.0517588
268,-0.7924,0.0517588
269,-0.7923,0.0517588
270,-0.7922,0.0501028
271,-0.7921,0.0501028
272,-0.792,0.0501028
273,-0.7919,0.0501028
274,-0.7918,0.0501028
275,-0.7917,0.0501028
276,-0.7916,0.0501028
277,-0.7915,0.0534149
278,-0.7914,0.0517588
279,-0.7913,0.0517588
280,-0.7912,0.0501028
281,-0.7911,0.0501028
282,-0.791,0.0501028
283,-0.7909,0.0501028
284,-0.7908,0.0501028
285,-0.7907,0.0501028
286,-0.7906,0.0501028
287,-0.7905,0.0517588
288,-0.7904,0.0517588
289,-0.7903,0.0501028
290,-0.7902,0.0501028
291,-0.7901,0.0501028
292,-0.79,0.0501028
293,-0.7899,0.0501028
294,-0.7898,0.0501028
295,-0.7897,0.0501028
296,-0.7896,0.0501028
297,-0.7895,0.0501028
298,-0.7894,0.0517588
299,-0.7893,0.0501028
300,-0.7892,0.0501028
301,-0.7891,0.0501028
302,-0.789,0.0501028
303,-0.7889,0.0501028
304,-0.7888,0.0501028
305,-0.7887,0.0501028
306,-0.7886,0.0501028
307,-0.7885,0.0517588
308,-0.7884,0.0517588
309,-0.7883,0.0501028
310,-0.7882,0.0501028
311,-0.7881,0.0501028
312,-0.788,0.0501028
313,-0.7879,0.0501028
314,-0.7878,0.0501028
315,-0.7877,0.0501028
316,-0.7876,0.0501028
317,-0.7875,0.0517588
318,-0.7874,0.0517588
319,-0.7873,0.0517588
320,-0.7872,0.0501028
321,-0.7871,0.0501028
322,-0.787,0.0501028
323,-0.7869,0.0501028
324,-0.7868,0.0501028
325,-0.7867,0.0501028
326,-0.7866,0.0501028
327,-0.7865,0.0501028
328,-0.7864,0.0501028
329,-0.7863,0.0517588
330,-0.7862,0.0517588
331,-0.7861,0.0501028
332,-0.786,0.0501028
333,-0.7859,0.0501028
334,-0.7858,0.0501028
335,-0.7857,0.0501028
336,-0.7856,0.0501028
337,-0.7855,0.0501028
338,-0.7854,0.0501028
339,-0.7853,0.0501028
340,-0.7852,0.0501028
341,-0.7851,0.0501028
342,-0.785,0.0501028
343,-0.7849,0.0501028
344,-0.7848,0.0501028
345,-0.7847,0.0501028
346,-0.7846,0.0501028
347,-0.7845,0.0517588
348,-0.7844,0.0517588
349,-0.7843,0.0501028
350,-0.7842,0.0501028
351,-0.7841,0.0517588
352,-0.784,0.0501028
353,-0.7839,0.0501028
354,-0.7838,0.0501028
355,-0.7837,0.0501028
356,-0.7836,0.0501028
357,-0.7835,0.0501028
358,-0.7834,0.0501028
359,-0.7833,0.0501028
360,-0.7832,0.0501028
361,-0.7831,0.0501028
362,-0.783,0.0501028
363,-0.7829,0.0501028
364,-0.7828,0.0501028
365,-0.7827,0.0501028
366,-0.7826,0.0501028
367,-0.7825,0.0517588
368,-0.7824,0.0517588
369,-0.7823,0.0517588
370,-0.7822,0.0517588
371,-0.7821,0.0517588
372,-0.782,0.0501028
373,-0.7819,0.0501028
374,-0.7818,0.0501028
375,-0.7817,0.0501028
376,-0.7816,0.0501028
377,-0.7815,0.0534149
378,-0.7814,0.0517588
379,-0.7813,0.0517588
380,-0.7812,0.0501028
381,-0.7811,0.0501028
382,-0.781,0.0501028
383,-0.7809,0.0501028
384,-0.7808,0.0501028
385,-0.7807,0.0501028
386,-0.7806,0.0501028
387,-0.7805,0.0501028
388,-0.7804,0.0501028
389,-0.7803,0.0501028
390,-0.7802,0.0501028
391,-0.7801,0.0501028
392,-0.78,0.0501028
393,-0.7799,0.0501028
394,-0.7798,0.0501028
395,-0.7797,0.0501028
396,-0.7796,0.0501028
397,-0.7795,0.0501028
398,-0.7794,0.0501028
399,-0.7793,0.0501028
400,-0.7792,0.0501028
401,-0.7791,0.0501028
402,-0.779,0.0501028
403,-0.7789,0.0501028
404,-0.7788,0.0501028
405,-0.7787,0.0501028
406,-0.7786,0.0501028
407,-0.7785,0.0501028
408,-0.7784,0.0501028
409,-0.7783,0.0501028
410,-0.7782,0.0501028
411,-0.7781,0.0501028
412,-0.778,0.0501028
413,-0.7779,0.0501028
414,-0.7778,0.0501028
415,-0.7777,0.0501028
416,-0.7776,0.0501028
417,-0.7775,0.0501028
418,-0.7774,0.0501028
419,-0.7773,0.0501028
420,-0.7772,0.0501028
421,-0.7771,0.0501028
422,-0.777,0.0501028
423,-0.7769,0.0501028
424,-0.7768,0.0501028
425,-0.7767,0.0501028
426,-0.7766,0.0501028
427,-0.7765,0.0501028
428,-0.7764,0.0534149
429,-0.7763,0.0501028
430,-0.7762,0.0501028
431,-0.7761,0.0501028
432,-0.776,0.0501028
433,-0.7759,0.0501028
434,-0.7758,0.0501028
435,-0.7757,0.0501028
436,-0.7756,0.0501028
437,-0.7755,0.0501028
438,-0.7754,0.0501028
439,-0.7753,0.0501028
440,-0.7752,0.0501028
441,-0.7751,0.0501028
442,-0.775,0.0501028
443,-0.7749,0.0501028
444,-0.7748,0.0501028
445,-0.7747,0.0501028
446,-0.7746,0.0501028
447,-0.7745,0.0501028
448,-0.7744,0.0501028
449,-0.7743,0.0501028
450,-0.7742,0.0501028
451,-0.7741,0.0501028
452,-0.774,0.0501028
453,-0.7739,0.0501028
454,-0.7738,0.0501028
455,-0.7737,0.0501028
456,-0.7736,0.0501028
457,-0.7735,0.0534149
458,-0.7734,0.0501028
459,-0.7733,0.0517588
460,-0.7732,0.0501028
461,-0.7731,0.0501028
462,-0.773,0.0501028
463,-0.7729,0.0501028
464,-0.7728,0.0501028
465,-0.7727,0.0501028
466,-0.7726,0.0501028
467,-0.7725,0.0501028
468,-0.7724,0.0501028
469,-0.7723,0.0501028
470,-0.7722,0.0501028
471,-0.7721,0.0501028
472,-0.772,0.0501028
473,-0.7719,0.0501028
474,-0.7718,0.0501028
475,-0.7717,0.0501028
476,-0.7716,0.0501028
477,-0.7715,0.0501028
478,-0.7714,0.0501028
479,-0.7713,0.0501028
480,-0.7712,0.0501028
481,-0.7711,0.0501028
482,-0.771,0.0501028
483,-0.7709,0.0501028
484,-0.7708,0.0501028
485,-0.7707,0.0501028
486,-0.7706,0.0501028
487,-0.7705,0.0501028
488,-0.7704,0.0501028
489,-0.7703,0.0501028
490,-0.7702,0.0501028
491,-0.7701,0.0501028
492,-0.77,0.0501028
493,-0.7699,0.0501028
494,-0.7698,0.0501028
495,-0.7697,0.0501028
496,-0.7696,0.0501028
497,-0.7695,0.0501028
498,-0.7694,0.0501028
499,-0.7693,0.0501028
500,-0.7692,0.0501028
501,-0.7691,0.0501028
502,-0.769,0.0501028
503,-0.7689,0.0501028
504,-0.7688,0.0501028
505,-0.7687,0.0501028
506,-0.7686,0.0501028
507,-0.7685,0.0501028
508,-0.7684,0.0501028
509,-0.7683,0.0501028
510,-0.7682,0.0501028
511,-0.7681,0.0501028
512,-0.768,0.0501028
513,-0.7679,0.0501028
514,-0.7678,0.0501028
515,-0.7677,0.0501028
516,-0.7676,0.0501028
517,-0.7675,0.0501028
518,-0.7674,0.0501028
519,-0.7673,0.0501028
520,-0.7672,0.0501028
521,-0.7671,0.0501028
522,-0.767,0.0501028
523,-0.7669,0.0501028
524,-0.7668,0.0501028
525,-0.7667,0.0501028
526,-0.7666,0.0501028
527,-0.7665,0.0501028
528,-0.7664,0.0501028
529,-0.7663,0.0501028
530,-0.7662,0.0501028
531,-0.7661,0.0501028
532,-0.766,0.0501028
533,-0.7659,0.0501028
534,-0.7658,0.0501028
535,-0.7657,0.0501028
536,-0.7656,0.0501028
537,-0.7655,0.0501028
538,-0.7654,0.0501028
539,-0.7653,0.0501028
540,-0.7652,0.0501028
541,-0.7651,0.0501028
542,-0.765,0.0501028
543,-0.7649,0.0501028
544,-0.7648,0.0501028
545,-0.7647,0.0501028
546,-0.7646,0.0501028
547,-0.7645,0.0501028
548,-0.7644,0.0501028
549,-0.7643,0.0501028
550,-0.7642,0.0501028
551,-0.7641,0.0501028
552,-0.764,0.0501028
553,-0.7639,0.0501028
554,-0.7638,0.0501028
555,-0.7637,0.0501028
556,-0.7636,0.0501028
557,-0.7635,0.0501028
558,-0.7634,0.0501028
559,-0.7633,0.0501028
560,-0.7632,0.0501028
561,-0.7631,0.0501028
562,-0.763,0.0501028
563,-0.7629,0.0501028
564,-0.7628,0.0501028
565,-0.7627,0.0501028
566,-0.7626,0.0501028
567,-0.7625,0.0501028
568,-0.7624,0.0517588
569,-0.7623,0.0517588
570,-0.7622,0.0501028
571,-0.7621,0.0501028
572,-0.762,0.0501028
573,-0.7619,0.0501028
574,-0.7618,0.0501028
575,-0.7617,0.0501028
576,-0.7616,0.0501028
577,-0.7615,0.0501028
578,-0.7614,0.0501028
579,-0.7613,0.0501028
580,-0.7612,0.0501028
581,-0.7611,0.0501028
582,-0.761,0.0501028
583,-0.7609,0.0501028
584,-0.7608,0.0501028
585,-0.7607,0.0501028
586,-0.7606,0.0501028
587,-0.7605,0.0501028
588,-0.7604,0.0501028
589,-0.7603,0.0501028
590,-0.7602,0.0501028
591,-0.7601,0.0501028
592,-0.76,0.0501028
593,-0.7599,0.0501028
594,-0.7598,0.0501028
595,-0.7597,0.0501028
596,-0.7596,0.0501028
597,-0.7595,0.0501028
598,-0.7594,0.0501028
599,-0.7593,0.0501028
600,-0.7592,0.0501028
601,-0.7591,0.0501028
602,-0.759,0.0501028
603,-0.7589,0.0501028
604,-0.7588,0.0501028
605,-0.7587,0.0501028
606,-0.7586,0.0501028
607,-0.7585,0.0517588
608,-0.7584,0.0501028
609,-0.7583,0.0501028
610,-0.7582,0.0501028
611,-0.7581,0.0501028
612,-0.758,0.0501028
613,-0.7579,0.0501028
614,-0.7578,0.0501028
615,-0.7577,0.0501028
616,-0.7576,0.0501028
617,-0.7575,0.0517588
618,-0.7574,0.0501028
619,-0.7573,0.0534149
620,-0.7572,0.0517588
621,-0.7571,0.0534149
622,-0.757,0.0534149
623,-0.7569,0.0534149
624,-0.7568,0.056727
625,-0.7567,0.0550709
626,-0.7566,0.0550709
627,-0.7565,0.0550709
628,-0.7564,0.056727
629,-0.7563,0.056727
630,-0.7562,0.056727
631,-0.7561,0.056727
632,-0.756,0.056727
633,-0.7559,0.056727
634,-0.7558,0.056727
635,-0.7557,0.056727
636,-0.7556,0.058383
637,-0.7555,0.058383
638,-0.7554,0.058383
639,-0.7553,0.058383
640,-0.7552,0.058383
641,-0.7551,0.058383
642,-0.755,0.058383
643,-0.7549,0.058383
644,-0.7548,0.058383
645,-0.7547,0.058383
646,-0.7546,0.058383
647,-0.7545,0.058383
648,-0.7544,0.058383
649,-0.7543,0.058383
650,-0.7542,0.058383
651,-0.7541,0.058383
652,-0.754,0.058383
653,-0.7539,0.058383
654,-0.7538,0.058383
655,-0.7537,0.058383
656,-0.7536,0.058383
657,-0.7535,0.058383
658,-0.7534,0.058383
659,-0.7533,0.058383
660,-0.7532,0.058383
661,-0.7531,0.058383
662,-0.753,0.058383
663,-0.7529,0.058383
664,-0.7528,0.058383
665,-0.7527,0.058383
666,-0.7526,0.058383
667,-0.7525,0.058383
668,-0.7524,0.058383
669,-0.7523,0.058383
670,-0.7522,0.058383
671,-0.7521,0.058383
672,-0.752,0.058383
673,-0.7519,0.058383
674,-0.7518,0.058383
675,-0.7517,0.058383
676,-0.7516,0.058383
677,-0.7515,0.058383
678,-0.7514,0.058383
679,-0.7513,0.058383
680,-0.7512,0.058383
681,-0.7511,0.058383
682,-0.751,0.058383
683,-0.7509,0.058383
684,-0.7508,0.058383
685,-0.7507,0.058383
686,-0.7506,0.058383
687,-0.7505,0.058383
688,-0.7504,0.058383
689,-0.7503,0.058383
690,-0.7502,0.058383
691,-0.7501,0.058383
692,-0.75,0.058383
693,-0.7499,0.058383
694,-0.7498,0.058383
695,-0.7497,0.058383
696,-0.7496,0.058383
697,-0.7495,0.058383
698,-0.7494,0.058383
699,-0.7493,0.058383
700,-0.7492,0.058383
701,-0.7491,0.058383
702,-0.749,0.058383
703,-0.7489,0.058383
704,-0.7488,0.058383
705,-0.7487,0.058383
706,-0.7486,0.058383
707,-0.7485,0.058383
708,-0.7484,0.058383
709,-0.7483,0.058383
710,-0.7482,0.058383
711,-0.7481,0.058383
712,-0.748,0.058383
713,-0.7479,0.058383
714,-0.7478,0.058383
715,-0.7477,0.058383
716,-0.7476,0.058383
717,-0.7475,0.058383
718,-0.7474,0.058383
719,-0.7473,0.0600391
720,-0.7472,0.0600391
721,-0.7471,0.0600391
722,-0.747,0.0600391
723,-0.7469,0.0600391
724,-0.7468,0.0600391
725,-0.7467,0.0600391
726,-0.7466,0.0600391
727,-0.7465,0.0600391
728,-0.7464,0.0600391
729,-0.7463,0.0600391
730,-0.7462,0.0600391
731,-0.7461,0.0600391
732,-0.746,0.0600391
733,-0.7459,0.0600391
734,-0.7458,0.0600391
735,-0.7457,0.0600391
736,-0.7456,0.0600391
737,-0.7455,0.0600391
738,-0.7454,0.0600391
739,-0.7453,0.0600391
740,-0.7452,0.0600391
741,-0.7451,0.0600391
742,-0.745,0.0633512
743,-0.7449,0.0616951
744,-0.7448,0.0616951
745,-0.7447,0.0616951
746,-0.7446,0.0616951
747,-0.7445,0.0616951
748,-0.7444,0.0616951
749,-0.7443,0.0616951
750,-0.7442,0.0616951
751,-0.7441,0.0616951
752,-0.744,0.0616951
753,-0.7439,0.0616951
754,-0.7438,0.0616951
755,-0.7437,0.0616951
756,-0.7436,0.0616951
757,-0.7435,0.0616951
758,-0.7434,0.0616951
759,-0.7433,0.0616951
760,-0.7432,0.0616951
761,-0.7431,0.0616951
762,-0.743,0.0616951
763,-0.7429,0.0616951
764,-0.7428,0.0616951
765,-0.7427,0.0616951
766,-0.7426,0.0616951
767,-0.7425,0.0616951
768,-0.7424,0.0616951
769,-0.7423,0.0616951
770,-0.7422,0.0616951
771,-0.7421,0.0616951
772,-0.742,0.0616951
773,-0.7419,0.0616951
774,-0.7418,0.0616951
775,-0.7417,0.0633512
776,-0.7416,0.0600391
777,-0.7415,0.0600391
778,-0.7414,0.0600391
779,-0.7413,0.0600391
780,-0.7412,0.0600391
781,-0.7411,0.0600391
782,-0.741,0.0600391
783,-0.7409,0.0600391
784,-0.7408,0.0600391
785,-0.7407,0.0600391
786,-0.7406,0.0600391
787,-0.7405,0.0600391
788,-0.7404,0.0600391
789,-0.7403,0.0600391
790,-0.7402,0.0600391
791,-0.7401,0.0600391
792,-0.74,0.0600391
793,-0.7399,0.0600391
794,-0.7398,0.0600391
795,-0.7397,0.0600391
796,-0.7396,0.0600391
797,-0.7395,0.0600391
798,-0.7394,0.0600391
799,-0.7393,0.0600391
800,-0.7392,0.0600391
801,-0.7391,0.0600391
802,-0.739,0.0600391
803,-0.7389,0.0600391
804,-0.7388,0.0600391
805,-0.7387,0.0600391
806,-0.7386,0.0600391
807,-0.7385,0.0600391
808,-0.7384,0.0600391
809,-0.7383,0.0600391
810,-0.7382,0.0600391
811,-0.7381,0.0600391
812,-0.738,0.0600391
813,-0.7379,0.0600391
814,-0.7378,0.0600391
815,-0.7377,0.0600391
816,-0.7376,0.0600391
817,-0.7375,0.0600391
818,-0.7374,0.0600391
819,-0.7373,0.0633512
820,-0.7372,0.0616951
821,-0.7371,0.0616951
822,-0.737,0.0616951
823,-0.7369,0.0616951
824,-0.7368,0.0616951
825,-0.7367,0.0616951
826,-0.7366,0.0616951
827,-0.7365,0.0633512
828,-0.7364,0.0633512
829,-0.7363,0.0633512
830,-0.7362,0.0633512
831,-0.7361,0.0633512
832,-0.736,0.0633512
833,-0.7359,0.0633512
834,-0.7358,0.0633512
835,-0.7357,0.0633512
836,-0.7356,0.0633512
837,-0.7355,0.0633512
838,-0.7354,0.0633512
839,-0.7353,0.0633512
840,-0.7352,0.0633512
841,-0.7351,0.0633512
842,-0.735,0.0633512
843,-0.7349,0.0633512
844,-0.7348,0.0633512
845,-0.7347,0.0633512
846,-0.7346,0.0633512
847,-0.7345,0.0633512
848,-0.7344,0.0633512
849,-0.7343,0.0633512
850,-0.7342,0.0633512
851,-0.7341,0.0633512
852,-0.734,0.0633512
853,-0.7339,0.0633512
854,-0.7338,0.0633512
855,-0.7337,0.0633512
856,-0.7336,0.0616951
857,-0.7335,0.0616951
858,-0.7334,0.0616951
859,-0.7333,0.0616951
860,-0.7332,0.0616951
861,-0.7331,0.0616951
862,-0.733,0.0616951
863,-0.7329,0.0616951
864,-0.7328,0.0616951
865,-0.7327,0.0616951
866,-0.7326,0.0616951
867,-0.7325,0.0616951
868,-0.7324,0.0616951
869,-0.7323,0.0600391
870,-0.7322,0.0600391
871,-0.7321,0.0600391
872,-0.732,0.0600391
873,-0.7319,0.0600391
874,-0.7318,0.0600391
875,-0.7317,0.0600391
876,-0.7316,0.0600391
877,-0.7315,0.0600391
878,-0.7314,0.0600391
879,-0.7313,0.0600391
880,-0.7312,0.0600391
881,-0.7311,0.0600391
882,-0.731,0.0600391
883,-0.7309,0.0600391
884,-0.7308,0.0600391
885,-0.7307,0.0600391
886,-0.7306,0.0600391
887,-0.7305,0.0600391
888,-0.7304,0.0600391
889,-0.7303,0.0600391
890,-0.7302,0.0600391
891,-0.7301,0.0600391
892,-0.73,0.0600391
893,-0.7299,0.0600391
894,-0.7298,0.0600391
895,-0.7297,0.0600391
896,-0.7296,0.0600391
897,-0.7295,0.0600391
898,-0.7294,0.0600391
899,-0.7293,0.0600391
900,-0.7292,0.0600391
901,-0.7291,0.0600391
902,-0.729,0.0600391
903,-0.7289,0.0600391
904,-0.7288,0.0600391
905,-0.7287,0.0600391
906,-0.7286,0.0600391
907,-0.7285,0.0600391
908,-0.7284,0.0600391
909,-0.7283,0.0600391
910,-0.7282,0.0600391
911,-0.7281,0.0600391
912,-0.728,0.0600391
913,-0.7279,0.0600391
