measure/2MHz_LP_run&sleep_2V_SRAM1_deactivated_52.2Ohm.csv

;Scopy version,f4beeb1
;Exported on,vendredi mars 15/03/2024
;Device,M2K
;Nr of samples,160000
;Sample rate,10000
;Tool,Oscilloscope
;Additional Information,
Sample,Time(S),CH1(V)
0,-0.8192,0.032779
1,-0.8191,0.032779
2,-0.819,0.032779
3,-0.8189,0.032779
4,-0.8188,0.032779
5,-0.8187,0.032779
6,-0.8186,0.032779
7,-0.8185,0.032779
8,-0.8184,0.032779
9,-0.8183,0.032779
10,-0.8182,0.032779
11,-0.8181,0.032779
12,-0.818,0.032779
13,-0.8179,0.032779
14,-0.8178,0.032779
15,-0.8177,0.032779
16,-0.8176,0.032779
17,-0.8175,0.032779
18,-0.8174,0.032779
19,-0.8173,0.032779
20,-0.8172,0.032779
21,-0.8171,0.032779
22,-0.817,0.032779
23,-0.8169,0.032779
24,-0.8168,0.032779
25,-0.8167,0.032779
26,-0.8166,0.032779
27,-0.8165,0.032779
28,-0.8164,0.032779
29,-0.8163,0.032779
30,-0.8162,0.032779
31,-0.8161,0.032779
32,-0.816,0.032779
33,-0.8159,0.032779
34,-0.8158,0.032779
35,-0.8157,0.032779
36,-0.8156,0.032779
37,-0.8155,0.032779
38,-0.8154,0.032779
39,-0.8153,0.032779
40,-0.8152,0.032779
41,-0.8151,0.032779
42,-0.815,0.032779
43,-0.8149,0.032779
44,-0.8148,0.032779
45,-0.8147,0.032779
46,-0.8146,0.032779
47,-0.8145,0.032779
48,-0.8144,0.032779
49,-0.8143,0.032779
50,-0.8142,0.032779
51,-0.8141,0.032779
52,-0.814,0.032779
53,-0.8139,0.032779
54,-0.8138,0.032779
55,-0.8137,0.032779
56,-0.8136,0.032779
57,-0.8135,0.032779
58,-0.8134,0.032779
59,-0.8133,0.032779
60,-0.8132,0.032779
61,-0.8131,0.032779
62,-0.813,0.032779
63,-0.8129,0.032779
64,-0.8128,0.032779
65,-0.8127,0.032779
66,-0.8126,0.032779
67,-0.8125,0.032779
68,-0.8124,0.032779
69,-0.8123,0.032779
70,-0.8122,0.032779
71,-0.8121,0.032779
72,-0.812,0.032779
73,-0.8119,0.032779
74,-0.8118,0.032779
75,-0.8117,0.032779
76,-0.8116,0.032779
77,-0.8115,0.032779
78,-0.8114,0.032779
79,-0.8113,0.032779
80,-0.8112,0.032779
81,-0.8111,0.032779
82,-0.811,0.032779
83,-0.8109,0.032779
84,-0.8108,0.032779
85,-0.8107,0.032779
86,-0.8106,0.032779
87,-0.8105,0.032779
88,-0.8104,0.032779
89,-0.8103,0.032779
90,-0.8102,0.032779
91,-0.8101,0.032779
92,-0.81,0.032779
93,-0.8099,0.032779
94,-0.8098,0.032779
95,-0.8097,0.032779
96,-0.8096,0.032779
97,-0.8095,0.032779
98,-0.8094,0.032779
99,-0.8093,0.032779
100,-0.8092,0.032779
101,-0.8091,0.032779
102,-0.809,0.032779
103,-0.8089,0.032779
104,-0.8088,0.032779
105,-0.8087,0.032779
106,-0.8086,0.032779
107,-0.8085,0.032779
108,-0.8084,0.032779
109,-0.8083,0.032779
110,-0.8082,0.032779
111,-0.8081,0.032779
112,-0.808,0.032779
113,-0.8079,0.032779
114,-0.8078,0.032779
115,-0.8077,0.032779
116,-0.8076,0.032779
117,-0.8075,0.032779
118,-0.8074,0.032779
119,-0.8073,0.032779
120,-0.8072,0.032779
121,-0.8071,0.032779
122,-0.807,0.032779
123,-0.8069,0.032779
124,-0.8068,0.032779
125,-0.8067,0.032779
126,-0.8066,0.032779
127,-0.8065,0.032779
128,-0.8064,0.032779
129,-0.8063,0.032779
130,-0.8062,0.032779
131,-0.8061,0.032779
132,-0.806,0.032779
133,-0.8059,0.032779
134,-0.8058,0.032779
135,-0.8057,0.032779
136,-0.8056,0.032779
137,-0.8055,0.032779
138,-0.8054,0.032779
139,-0.8053,0.032779
140,-0.8052,0.032779
141,-0.8051,0.032779
142,-0.805,0.032779
143,-0.8049,0.032779
144,-0.8048,0.032779
145,-0.8047,0.032779
146,-0.8046,0.032779
147,-0.8045,0.032779
148,-0.8044,0.032779
149,-0.8043,0.032779
150,-0.8042,0.032779
151,-0.8041,0.032779
152,-0.804,0.032779
153,-0.8039,0.032779
154,-0.8038,0.032779
155,-0.8037,0.032779
156,-0.8036,0.032779
157,-0.8035,0.032779
158,-0.8034,0.032779
159,-0.8033,0.032779
160,-0.8032,0.032779
161,-0.8031,0.032779
162,-0.803,0.032779
163,-0.8029,0.032779
164,-0.8028,0.032779
165,-0.8027,0.032779
166,-0.8026,0.032779
167,-0.8025,0.032779
168,-0.8024,0.032779
169,-0.8023,0.032779
170,-0.8022,0.032779
171,-0.8021,0.032779
172,-0.802,0.032779
173,-0.8019,0.032779
174,-0.8018,0.032779
175,-0.8017,0.0344351
176,-0.8016,0.0344351
177,-0.8015,0.0344351
178,-0.8014,0.0360911
179,-0.8013,0.0360911
180,-0.8012,0.0360911
181,-0.8011,0.0360911
182,-0.801,0.0377472
183,-0.8009,0.0377472
184,-0.8008,0.0377472
185,-0.8007,0.0377472
186,-0.8006,0.0377472
187,-0.8005,0.0394032
188,-0.8004,0.0394032
189,-0.8003,0.0394032
190,-0.8002,0.0394032
191,-0.8001,0.0394032
192,-0.8,0.0394032
193,-0.7999,0.0394032
194,-0.7998,0.0394032
195,-0.7997,0.0394032
196,-0.7996,0.0394032
197,-0.7995,0.0394032
198,-0.7994,0.0394032
199,-0.7993,0.0394032
200,-0.7992,0.0410593
201,-0.7991,0.0410593
202,-0.799,0.0410593
203,-0.7989,0.0410593
204,-0.7988,0.0410593
205,-0.7987,0.0410593
206,-0.7986,0.0410593
207,-0.7985,0.0410593
208,-0.7984,0.0410593
209,-0.7983,0.0410593
210,-0.7982,0.0410593
211,-0.7981,0.0410593
212,-0.798,0.0410593
213,-0.7979,0.0410593
214,-0.7978,0.0410593
215,-0.7977,0.0410593
216,-0.7976,0.0410593
217,-0.7975,0.0410593
218,-0.7974,0.0410593
219,-0.7973,0.0410593
220,-0.7972,0.0410593
221,-0.7971,0.0410593
222,-0.797,0.0410593
223,-0.7969,0.0410593
224,-0.7968,0.0410593
225,-0.7967,0.0410593
226,-0.7966,0.0410593
227,-0.7965,0.0410593
228,-0.7964,0.0410593
229,-0.7963,0.0410593
230,-0.7962,0.0410593
231,-0.7961,0.0410593
232,-0.796,0.0410593
233,-0.7959,0.0410593
234,-0.7958,0.0410593
235,-0.7957,0.0410593
236,-0.7956,0.0410593
237,-0.7955,0.0410593
238,-0.7954,0.0410593
239,-0.7953,0.0410593
240,-0.7952,0.0410593
241,-0.7951,0.0410593
242,-0.795,0.0410593
243,-0.7949,0.0410593
244,-0.7948,0.0410593
245,-0.7947,0.0410593
246,-0.7946,0.0410593
247,-0.7945,0.0410593
248,-0.7944,0.0410593
249,-0.7943,0.0410593
250,-0.7942,0.0410593
251,-0.7941,0.0410593
252,-0.794,0.0410593
253,-0.7939,0.0410593
254,-0.7938,0.0410593
255,-0.7937,0.0410593
256,-0.7936,0.0410593
257,-0.7935,0.0410593
258,-0.7934,0.0410593
259,-0.7933,0.0410593
260,-0.7932,0.0410593
261,-0.7931,0.0410593
262,-0.793,0.0410593
263,-0.7929,0.0410593
264,-0.7928,0.0410593
265,-0.7927,0.0410593
266,-0.7926,0.0410593
267,-0.7925,0.0410593
268,-0.7924,0.0410593
269,-0.7923,0.0410593
270,-0.7922,0.0410593
271,-0.7921,0.0410593
272,-0.792,0.0410593
273,-0.7919,0.0410593
274,-0.7918,0.0410593
275,-0.7917,0.0410593
276,-0.7916,0.0410593
277,-0.7915,0.0427153
278,-0.7914,0.0427153
279,-0.7913,0.0427153
280,-0.7912,0.0427153
281,-0.7911,0.0427153
282,-0.791,0.0427153
283,-0.7909,0.0427153
284,-0.7908,0.0427153
285,-0.7907,0.0427153
286,-0.7906,0.0427153
287,-0.7905,0.0427153
288,-0.7904,0.0427153
289,-0.7903,0.0427153
290,-0.7902,0.0427153
291,-0.7901,0.0427153
292,-0.79,0.0427153
293,-0.7899,0.0427153
294,-0.7898,0.0427153
295,-0.7897,0.0427153
296,-0.7896,0.0427153
297,-0.7895,0.0427153
298,-0.7894,0.0427153
299,-0.7893,0.0427153
300,-0.7892,0.0427153
301,-0.7891,0.0427153
302,-0.789,0.0427153
303,-0.7889,0.0427153
304,-0.7888,0.0427153
305,-0.7887,0.0427153
306,-0.7886,0.0427153
307,-0.7885,0.0427153
308,-0.7884,0.0427153
309,-0.7883,0.0427153
310,-0.7882,0.0427153
311,-0.7881,0.0427153
312,-0.788,0.0476835
313,-0.7879,0.0476835
314,-0.7878,0.0427153
315,-0.7877,0.0427153
316,-0.7876,0.0427153
317,-0.7875,0.0427153
318,-0.7874,0.0427153
319,-0.7873,0.0427153
320,-0.7872,0.0427153
321,-0.7871,0.0427153
322,-0.787,0.0427153
323,-0.7869,0.0427153
324,-0.7868,0.0427153
325,-0.7867,0.0427153
326,-0.7866,0.0427153
327,-0.7865,0.0427153
328,-0.7864,0.0427153
329,-0.7863,0.0427153
330,-0.7862,0.0427153
331,-0.7861,0.0427153
332,-0.786,0.0427153
333,-0.7859,0.0427153
334,-0.7858,0.0427153
335,-0.7857,0.0427153
336,-0.7856,0.0427153
337,-0.7855,0.0427153
338,-0.7854,0.0427153
339,-0.7853,0.0427153
340,-0.7852,0.0427153
341,-0.7851,0.0427153
342,-0.785,0.0427153
343,-0.7849,0.0427153
344,-0.7848,0.0427153
345,-0.7847,0.0427153
346,-0.7846,0.0427153
347,-0.7845,0.0427153
348,-0.7844,0.0427153
349,-0.7843,0.0427153
350,-0.7842,0.0427153
351,-0.7841,0.0427153
352,-0.784,0.0427153
353,-0.7839,0.0427153
354,-0.7838,0.0427153
355,-0.7837,0.0427153
356,-0.7836,0.0427153
357,-0.7835,0.0427153
358,-0.7834,0.0427153
359,-0.7833,0.0427153
360,-0.7832,0.0427153
361,-0.7831,0.0427153
362,-0.783,0.0443714
363,-0.7829,0.0410593
364,-0.7828,0.0410593
365,-0.7827,0.0410593
366,-0.7826,0.0410593
367,-0.7825,0.0410593
368,-0.7824,0.0410593
369,-0.7823,0.0410593
370,-0.7822,0.0410593
371,-0.7821,0.0410593
372,-0.782,0.0410593
373,-0.7819,0.0410593
374,-0.7818,0.0427153
375,-0.7817,0.0427153
376,-0.7816,0.0427153
377,-0.7815,0.0427153
378,-0.7814,0.0427153
379,-0.7813,0.0427153
380,-0.7812,0.0427153
381,-0.7811,0.0443714
382,-0.781,0.0443714
383,-0.7809,0.0443714
384,-0.7808,0.0443714
385,-0.7807,0.0443714
386,-0.7806,0.0443714
387,-0.7805,0.0443714
388,-0.7804,0.0443714
389,-0.7803,0.0443714
390,-0.7802,0.0443714
391,-0.7801,0.0443714
392,-0.78,0.0443714
393,-0.7799,0.0443714
394,-0.7798,0.0443714
395,-0.7797,0.0443714
396,-0.7796,0.0443714
397,-0.7795,0.0443714
398,-0.7794,0.0443714
399,-0.7793,0.0443714
400,-0.7792,0.0443714
401,-0.7791,0.0443714
402,-0.779,0.0443714
403,-0.7789,0.0443714
404,-0.7788,0.0443714
405,-0.7787,0.0443714
406,-0.7786,0.0443714
407,-0.7785,0.0443714
408,-0.7784,0.0476835
409,-0.7783,0.0443714
410,-0.7782,0.0443714
411,-0.7781,0.0443714
412,-0.778,0.0443714
413,-0.7779,0.0443714
414,-0.7778,0.0443714
415,-0.7777,0.0443714
416,-0.7776,0.0443714
417,-0.7775,0.0476835
418,-0.7774,0.0427153
419,-0.7773,0.0427153
420,-0.7772,0.0427153
421,-0.7771,0.0427153
422,-0.777,0.0427153
423,-0.7769,0.0427153
424,-0.7768,0.0427153
425,-0.7767,0.0427153
426,-0.7766,0.0427153
427,-0.7765,0.0427153
428,-0.7764,0.0427153
429,-0.7763,0.0427153
430,-0.7762,0.0427153
431,-0.7761,0.0427153
432,-0.776,0.0427153
433,-0.7759,0.0427153
434,-0.7758,0.0427153
435,-0.7757,0.0427153
436,-0.7756,0.0427153
437,-0.7755,0.0427153
438,-0.7754,0.0427153
439,-0.7753,0.0427153
440,-0.7752,0.0427153
441,-0.7751,0.0427153
442,-0.775,0.0427153
443,-0.7749,0.0427153
444,-0.7748,0.0427153
445,-0.7747,0.0427153
446,-0.7746,0.0427153
447,-0.7745,0.0427153
448,-0.7744,0.0427153
449,-0.7743,0.0427153
450,-0.7742,0.0427153
451,-0.7741,0.0427153
452,-0.774,0.0427153
453,-0.7739,0.0427153
454,-0.7738,0.0427153
455,-0.7737,0.0427153
456,-0.7736,0.0427153
457,-0.7735,0.0427153
458,-0.7734,0.0427153
459,-0.7733,0.0427153
460,-0.7732,0.0410593
461,-0.7731,0.0410593
462,-0.773,0.0410593
463,-0.7729,0.0410593
464,-0.7728,0.0410593
465,-0.7727,0.0410593
466,-0.7726,0.0410593
467,-0.7725,0.0410593
468,-0.7724,0.0410593
469,-0.7723,0.0410593
470,-0.7722,0.0410593
471,-0.7721,0.0410593
472,-0.772,0.0410593
473,-0.7719,0.0410593
474,-0.7718,0.0410593
475,-0.7717,0.0410593
476,-0.7716,0.0410593
477,-0.7715,0.0410593
478,-0.7714,0.0410593
479,-0.7713,0.0410593
480,-0.7712,0.0410593
481,-0.7711,0.0410593
482,-0.771,0.0410593
483,-0.7709,0.0410593
484,-0.7708,0.0410593
485,-0.7707,0.0410593
486,-0.7706,0.0410593
487,-0.7705,0.0410593
488,-0.7704,0.0410593
489,-0.7703,0.0410593
490,-0.7702,0.0410593
491,-0.7701,0.0410593
492,-0.77,0.0410593
493,-0.7699,0.0410593
494,-0.7698,0.0410593
495,-0.7697,0.0410593
496,-0.7696,0.0410593
497,-0.7695,0.0410593
498,-0.7694,0.0410593
499,-0.7693,0.0410593
500,-0.7692,0.0410593
501,-0.7691,0.0410593
502,-0.769,0.0410593
503,-0.7689,0.0410593
504,-0.7688,0.0410593
505,-0.7687,0.0410593
506,-0.7686,0.0410593
507,-0.7685,0.0410593
508,-0.7684,0.0410593
509,-0.7683,0.0410593
510,-0.7682,0.0410593
511,-0.7681,0.0410593
512,-0.768,0.0410593
513,-0.7679,0.0410593
514,-0.7678,0.0410593
515,-0.7677,0.0410593
516,-0.7676,0.0410593
517,-0.7675,0.0410593
518,-0.7674,0.0410593
519,-0.7673,0.0410593
520,-0.7672,0.0410593
521,-0.7671,0.0410593
522,-0.767,0.0410593
523,-0.7669,0.0410593
524,-0.7668,0.0410593
525,-0.7667,0.0410593
526,-0.7666,0.0410593
527,-0.7665,0.0410593
528,-0.7664,0.0410593
529,-0.7663,0.0410593
530,-0.7662,0.0410593
531,-0.7661,0.0410593
532,-0.766,0.0410593
533,-0.7659,0.0410593
534,-0.7658,0.0410593
535,-0.7657,0.0410593
536,-0.7656,0.0410593
537,-0.7655,0.0410593
538,-0.7654,0.0410593
539,-0.7653,0.0410593
540,-0.7652,0.0410593
541,-0.7651,0.0410593
542,-0.765,0.0410593
543,-0.7649,0.0410593
544,-0.7648,0.0410593
545,-0.7647,0.0410593
546,-0.7646,0.0410593
547,-0.7645,0.0410593
548,-0.7644,0.0410593
549,-0.7643,0.0410593
550,-0.7642,0.0410593
551,-0.7641,0.0410593
552,-0.764,0.0410593
553,-0.7639,0.0410593
554,-0.7638,0.0410593
555,-0.7637,0.0410593
556,-0.7636,0.0410593
557,-0.7635,0.0410593
558,-0.7634,0.0410593
559,-0.7633,0.0410593
560,-0.7632,0.0410593
561,-0.7631,0.0410593
562,-0.763,0.0410593
563,-0.7629,0.0410593
564,-0.7628,0.0410593
565,-0.7627,0.0410593
566,-0.7626,0.0410593
567,-0.7625,0.0410593
568,-0.7624,0.0410593
569,-0.7623,0.0410593
570,-0.7622,0.0410593
571,-0.7621,0.0410593
572,-0.762,0.0410593
573,-0.7619,0.0410593
574,-0.7618,0.0410593
575,-0.7617,0.0410593
576,-0.7616,0.0410593
577,-0.7615,0.0410593
578,-0.7614,0.0410593
579,-0.7613,0.0410593
580,-0.7612,0.0410593
581,-0.7611,0.0410593
582,-0.761,0.0410593
583,-0.7609,0.0410593
584,-0.7608,0.0410593
585,-0.7607,0.0410593
586,-0.7606,0.0410593
587,-0.7605,0.0410593
588,-0.7604,0.0410593
589,-0.7603,0.0410593
590,-0.7602,0.0410593
591,-0.7601,0.0410593
592,-0.76,0.0410593
593,-0.7599,0.0410593
594,-0.7598,0.0410593
595,-0.7597,0.0410593
596,-0.7596,0.0410593
597,-0.7595,0.0410593
598,-0.7594,0.0410593
599,-0.7593,0.0410593
600,-0.7592,0.0410593
601,-0.7591,0.0410593
602,-0.759,0.0410593
603,-0.7589,0.0410593
604,-0.7588,0.0410593
605,-0.7587,0.0410593
606,-0.7586,0.0410593
607,-0.7585,0.0410593
608,-0.7584,0.0410593
609,-0.7583,0.0410593
610,-0.7582,0.0410593
611,-0.7581,0.0410593
612,-0.758,0.0410593
613,-0.7579,0.0410593
614,-0.7578,0.0410593
615,-0.7577,0.0410593
616,-0.7576,0.0410593
617,-0.7575,0.0410593
618,-0.7574,0.0410593
619,-0.7573,0.0410593
620,-0.7572,0.0410593
621,-0.7571,0.0410593
622,-0.757,0.0410593
623,-0.7569,0.0410593
624,-0.7568,0.0410593
625,-0.7567,0.0410593
626,-0.7566,0.0410593
627,-0.7565,0.0410593
628,-0.7564,0.0410593
629,-0.7563,0.0410593
630,-0.7562,0.0410593
631,-0.7561,0.0410593
632,-0.756,0.0410593
633,-0.7559,0.0410593
634,-0.7558,0.0410593
635,-0.7557,0.0410593
636,-0.7556,0.0410593
637,-0.7555,0.0410593
638,-0.7554,0.0410593
639,-0.7553,0.0410593
640,-0.7552,0.0410593
641,-0.7551,0.0410593
642,-0.755,0.0410593
643,-0.7549,0.0410593
644,-0.7548,0.0410593
645,-0.7547,0.0410593
646,-0.7546,0.0410593
647,-0.7545,0.0410593
648,-0.7544,0.0410593
649,-0.7543,0.0410593
650,-0.7542,0.0410593
651,-0.7541,0.0410593
652,-0.754,0.0410593
653,-0.7539,0.0410593
654,-0.7538,0.0410593
655,-0.7537,0.0410593
656,-0.7536,0.0410593
657,-0.7535,0.0410593
658,-0.7534,0.0410593
659,-0.7533,0.0410593
660,-0.7532,0.0410593
661,-0.7531,0.0410593
662,-0.753,0.0410593
663,-0.7529,0.0410593
664,-0.7528,0.0410593
665,-0.7527,0.0410593
666,-0.7526,0.0410593
667,-0.7525,0.0410593
668,-0.7524,0.0410593
669,-0.7523,0.0410593
670,-0.7522,0.0410593
671,-0.7521,0.0410593
672,-0.752,0.0410593
673,-0.7519,0.0410593
674,-0.7518,0.0410593
675,-0.7517,0.0410593
676,-0.7516,0.0410593
677,-0.7515,0.0410593
678,-0.7514,0.0410593
679,-0.7513,0.0410593
680,-0.7512,0.0410593
681,-0.7511,0.0410593
682,-0.751,0.0410593
683,-0.7509,0.0410593
684,-0.7508,0.0410593
685,-0.7507,0.0410593
686,-0.7506,0.0410593
687,-0.7505,0.0410593
688,-0.7504,0.0410593
689,-0.7503,0.0410593
690,-0.7502,0.0410593
691,-0.7501,0.0410593
692,-0.75,0.0410593
693,-0.7499,0.0410593
694,-0.7498,0.0410593
695,-0.7497,0.0410593
696,-0.7496,0.0410593
697,-0.7495,0.0410593
698,-0.7494,0.0410593
699,-0.7493,0.0410593
700,-0.7492,0.0410593
701,-0.7491,0.0410593
702,-0.749,0.0410593
703,-0.7489,0.0410593
704,-0.7488,0.0410593
705,-0.7487,0.0410593
706,-0.7486,0.0410593
707,-0.7485,0.0410593
708,-0.7484,0.0410593
709,-0.7483,0.0410593
710,-0.7482,0.0410593
711,-0.7481,0.0410593
712,-0.748,0.0410593
713,-0.7479,0.0410593
714,-0.7478,0.0410593
715,-0.7477,0.0410593
716,-0.7476,0.0410593
717,-0.7475,0.0410593
718,-0.7474,0.0410593
719,-0.7473,0.0410593
720,-0.7472,0.0410593
721,-0.7471,0.0410593
722,-0.747,0.0410593
723,-0.7469,0.0410593
724,-0.7468,0.0410593
725,-0.7467,0.0410593
726,-0.7466,0.0410593
727,-0.7465,0.0410593
728,-0.7464,0.0410593
729,-0.7463,0.0410593
730,-0.7462,0.0410593
731,-0.7461,0.0410593
732,-0.746,0.0410593
733,-0.7459,0.0410593
734,-0.7458,0.0410593
735,-0.7457,0.0410593
736,-0.7456,0.0410593
737,-0.7455,0.0410593
738,-0.7454,0.0410593
739,-0.7453,0.0427153
740,-0.7452,0.0410593
741,-0.7451,0.0410593
742,-0.745,0.0427153
743,-0.7449,0.0394032
744,-0.7448,0.0394032
745,-0.7447,0.0394032
746,-0.7446,0.0394032
747,-0.7445,0.0427153
748,-0.7444,0.0394032
749,-0.7443,0.0394032
750,-0.7442,0.0394032
751,-0.7441,0.0394032
752,-0.744,0.0394032
753,-0.7439,0.0394032
754,-0.7438,0.0394032
755,-0.7437,0.0394032
756,-0.7436,0.0394032
757,-0.7435,0.0394032
758,-0.7434,0.0394032
759,-0.7433,0.0410593
760,-0.7432,0.0394032
761,-0.7431,0.0394032
762,-0.743,0.0394032
763,-0.7429,0.0394032
764,-0.7428,0.0427153
765,-0.7427,0.0394032
766,-0.7426,0.0394032
767,-0.7425,0.0410593
768,-0.7424,0.0394032
769,-0.7423,0.0394032
770,-0.7422,0.0394032
771,-0.7421,0.0394032
772,-0.742,0.0394032
773,-0.7419,0.0394032
774,-0.7418,0.0394032
775,-0.7417,0.0394032
776,-0.7416,0.0394032
777,-0.7415,0.0394032
778,-0.7414,0.0394032
779,-0.7413,0.0394032
780,-0.7412,0.0394032
781,-0.7411,0.0394032
782,-0.741,0.0394032
783,-0.7409,0.0394032
784,-0.7408,0.0394032
785,-0.7407,0.0394032
786,-0.7406,0.0394032
787,-0.7405,0.0394032
788,-0.7404,0.0394032
789,-0.7403,0.0394032
790,-0.7402,0.0410593
791,-0.7401,0.0410593
792,-0.74,0.0394032
793,-0.7399,0.0394032
794,-0.7398,0.0394032
795,-0.7397,0.0394032
796,-0.7396,0.0394032
797,-0.7395,0.0394032
798,-0.7394,0.0427153
799,-0.7393,0.0410593
800,-0.7392,0.0427153
801,-0.7391,0.0394032
802,-0.739,0.0394032
803,-0.7389,0.0394032
804,-0.7388,0.0394032
805,-0.7387,0.0377472
806,-0.7386,0.0377472
807,-0.7385,0.0377472
808,-0.7384,0.0377472
809,-0.7383,0.0377472
810,-0.7382,0.0360911
811,-0.7381,0.0360911
812,-0.738,0.0360911
813,-0.7379,0.0360911
814,-0.7378,0.0360911
815,-0.7377,0.0360911
816,-0.7376,0.0360911
817,-0.7375,0.0360911
818,-0.7374,0.0344351
819,-0.7373,0.0344351
820,-0.7372,0.0344351
821,-0.7371,0.0344351
822,-0.737,0.0344351
823,-0.7369,0.0344351
824,-0.7368,0.0344351
825,-0.7367,0.0344351
826,-0.7366,0.0344351
827,-0.7365,0.0344351
828,-0.7364,0.0344351
829,-0.7363,0.0344351
830,-0.7362,0.0344351
831,-0.7361,0.0344351
832,-0.736,0.0344351
833,-0.7359,0.0344351
834,-0.7358,0.0344351
835,-0.7357,0.0344351
836,-0.7356,0.0344351
837,-0.7355,0.0344351
838,-0.7354,0.0344351
839,-0.7353,0.0344351
840,-0.7352,0.0344351
841,-0.7351,0.0344351
842,-0.735,0.0344351
843,-0.7349,0.0344351
844,-0.7348,0.0344351
845,-0.7347,0.0344351
846,-0.7346,0.0344351
847,-0.7345,0.0360911
848,-0.7344,0.032779
849,-0.7343,0.032779
850,-0.7342,0.032779
851,-0.7341,0.032779
852,-0.734,0.032779
853,-0.7339,0.032779
854,-0.7338,0.032779
855,-0.7337,0.032779
856,-0.7336,0.032779
857,-0.7335,0.032779
858,-0.7334,0.032779
859,-0.7333,0.032779
860,-0.7332,0.032779
861,-0.7331,0.032779
862,-0.733,0.032779
863,-0.7329,0.032779
864,-0.7328,0.032779
865,-0.7327,0.032779
866,-0.7326,0.032779
867,-0.7325,0.032779
868,-0.7324,0.032779
869,-0.7323,0.032779
870,-0.7322,0.032779
871,-0.7321,0.032779
872,-0.732,0.032779
873,-0.7319,0.032779
874,-0.7318,0.032779
875,-0.7317,0.032779
876,-0.7316,0.032779
877,-0.7315,0.032779
878,-0.7314,0.032779
879,-0.7313,0.032779
880,-0.7312,0.032779
881,-0.7311,0.032779
882,-0.731,0.032779
883,-0.7309,0.032779
884,-0.7308,0.032779
885,-0.7307,0.032779
886,-0.7306,0.032779
887,-0.7305,0.032779
888,-0.7304,0.032779
889,-0.7303,0.032779
890,-0.7302,0.032779
891,-0.7301,0.032779
892,-0.73,0.032779
893,-0.7299,0.032779
894,-0.7298,0.032779
895,-0.7297,0.032779
896,-0.7296,0.032779
897,-0.7295,0.032779
898,-0.7294,0.032779
899,-0.7293,0.032779
900,-0.7292,0.032779
901,-0.7291,0.032779
902,-0.729,0.032779
903,-0.7289,0.032779
904,-0.7288,0.032779
905,-0.7287,0.032779
906,-0.7286,0.032779
907,-0.7285,0.032779
908,-0.7284,0.032779
909,-0.7283,0.032779
910,-0.7282,0.032779
911,-0.7281,0.032779
912,-0.728,0.032779
913,-0.7279,0.032779
914,-0.7278,0.032779
915,-0.7277,0.032779
916,-0.7276,0.032779
917,-0.7275,0.032779
918,-0.7274,0.032779
919,-0.7273,0.032779
920,-0.7272,0.032779
