measure/8MHz,SRAM1_Deactivated_99.9Ohm_5.csv

;Scopy version,f4beeb1
;Exported on,dimanche mars 03/03/2024
;Device,M2K
;Nr of samples,16000
;Sample rate,1000
;Tool,Oscilloscope
;Additional Information,
Sample,Time(S),CH1(V)
0,-0.77,0.137973
1,-0.769,0.137973
2,-0.768,0.137973
3,-0.767,0.137973
4,-0.766,0.137973
5,-0.765,0.137973
6,-0.764,0.137973
7,-0.763,0.137973
8,-0.762,0.137973
9,-0.761,0.137973
10,-0.76,0.137973
11,-0.759,0.137973
12,-0.758,0.137973
13,-0.757,0.137973
14,-0.756,0.137973
15,-0.755,0.137973
16,-0.754,0.137973
17,-0.753,0.137973
18,-0.752,0.137973
19,-0.751,0.137973
20,-0.75,0.137973
21,-0.749,0.150145
22,-0.748,0.171011
23,-0.747,0.184922
24,-0.746,0.202311
25,-0.745,0.209266
26,-0.744,0.219699
27,-0.743,0.224916
28,-0.742,0.221438
29,-0.741,0.219699
30,-0.74,0.212744
31,-0.739,0.216221
32,-0.738,0.211005
33,-0.737,0.211005
34,-0.736,0.211005
35,-0.735,0.207527
36,-0.734,0.207527
37,-0.733,0.207527
38,-0.732,0.207527
39,-0.731,0.21796
40,-0.73,0.224916
41,-0.729,0.228393
42,-0.728,0.231871
43,-0.727,0.231871
44,-0.726,0.235349
45,-0.725,0.23361
46,-0.724,0.238827
47,-0.723,0.235349
48,-0.722,0.235349
49,-0.721,0.235349
50,-0.72,0.235349
51,-0.719,0.235349
52,-0.718,0.235349
53,-0.717,0.235349
54,-0.716,0.235349
55,-0.715,0.235349
56,-0.714,0.235349
57,-0.713,0.235349
58,-0.712,0.238827
59,-0.711,0.23361
60,-0.71,0.238827
61,-0.709,0.238827
62,-0.708,0.235349
63,-0.707,0.235349
64,-0.706,0.235349
65,-0.705,0.235349
66,-0.704,0.235349
67,-0.703,0.235349
68,-0.702,0.238827
69,-0.701,0.231871
70,-0.7,0.235349
71,-0.699,0.238827
72,-0.698,0.238827
73,-0.697,0.235349
74,-0.696,0.235349
75,-0.695,0.235349
76,-0.694,0.235349
77,-0.693,0.235349
78,-0.692,0.235349
79,-0.691,0.235349
80,-0.69,0.235349
81,-0.689,0.235349
82,-0.688,0.235349
83,-0.687,0.235349
84,-0.686,0.235349
85,-0.685,0.235349
86,-0.684,0.235349
87,-0.683,0.235349
88,-0.682,0.235349
89,-0.681,0.235349
90,-0.68,0.235349
91,-0.679,0.235349
92,-0.678,0.235349
93,-0.677,0.235349
94,-0.676,0.235349
95,-0.675,0.235349
96,-0.674,0.235349
97,-0.673,0.235349
98,-0.672,0.235349
99,-0.671,0.238827
100,-0.67,0.23361
101,-0.669,0.238827
102,-0.668,0.238827
103,-0.667,0.238827
104,-0.666,0.240565
105,-0.665,0.235349
106,-0.664,0.235349
107,-0.663,0.235349
108,-0.662,0.235349
109,-0.661,0.235349
110,-0.66,0.238827
111,-0.659,0.23361
112,-0.658,0.238827
113,-0.657,0.238827
114,-0.656,0.235349
115,-0.655,0.235349
116,-0.654,0.235349
117,-0.653,0.235349
118,-0.652,0.235349
119,-0.651,0.235349
120,-0.65,0.235349
121,-0.649,0.235349
122,-0.648,0.235349
123,-0.647,0.235349
124,-0.646,0.235349
125,-0.645,0.235349
126,-0.644,0.235349
127,-0.643,0.235349
128,-0.642,0.235349
129,-0.641,0.235349
130,-0.64,0.238827
131,-0.639,0.23361
132,-0.638,0.235349
133,-0.637,0.235349
134,-0.636,0.235349
135,-0.635,0.235349
136,-0.634,0.235349
137,-0.633,0.235349
138,-0.632,0.235349
139,-0.631,0.235349
140,-0.63,0.235349
141,-0.629,0.235349
142,-0.628,0.235349
143,-0.627,0.235349
144,-0.626,0.235349
145,-0.625,0.235349
146,-0.624,0.235349
147,-0.623,0.235349
148,-0.622,0.235349
149,-0.621,0.235349
150,-0.62,0.235349
151,-0.619,0.235349
152,-0.618,0.23361
153,-0.617,0.238827
154,-0.616,0.235349
155,-0.615,0.235349
156,-0.614,0.235349
157,-0.613,0.235349
158,-0.612,0.235349
159,-0.611,0.235349
160,-0.61,0.235349
161,-0.609,0.238827
162,-0.608,0.23361
163,-0.607,0.235349
164,-0.606,0.235349
165,-0.605,0.235349
166,-0.604,0.235349
167,-0.603,0.235349
168,-0.602,0.235349
169,-0.601,0.235349
170,-0.6,0.235349
171,-0.599,0.235349
172,-0.598,0.235349
173,-0.597,0.235349
174,-0.596,0.235349
175,-0.595,0.235349
176,-0.594,0.235349
177,-0.593,0.235349
178,-0.592,0.235349
179,-0.591,0.235349
180,-0.59,0.235349
181,-0.589,0.235349
182,-0.588,0.235349
183,-0.587,0.235349
184,-0.586,0.235349
185,-0.585,0.235349
186,-0.584,0.235349
187,-0.583,0.235349
188,-0.582,0.235349
189,-0.581,0.235349
190,-0.58,0.235349
191,-0.579,0.235349
192,-0.578,0.238827
193,-0.577,0.231871
194,-0.576,0.238827
195,-0.575,0.238827
196,-0.574,0.235349
197,-0.573,0.235349
198,-0.572,0.235349
199,-0.571,0.235349
200,-0.57,0.235349
201,-0.569,0.235349
202,-0.568,0.235349
203,-0.567,0.235349
204,-0.566,0.235349
205,-0.565,0.235349
206,-0.564,0.238827
207,-0.563,0.235349
208,-0.562,0.235349
209,-0.561,0.235349
210,-0.56,0.235349
211,-0.559,0.235349
212,-0.558,0.235349
213,-0.557,0.238827
214,-0.556,0.231871
215,-0.555,0.238827
216,-0.554,0.238827
217,-0.553,0.235349
218,-0.552,0.235349
219,-0.551,0.235349
220,-0.55,0.235349
221,-0.549,0.235349
222,-0.548,0.235349
223,-0.547,0.235349
224,-0.546,0.235349
225,-0.545,0.235349
226,-0.544,0.235349
227,-0.543,0.235349
228,-0.542,0.235349
229,-0.541,0.235349
230,-0.54,0.235349
231,-0.539,0.235349
232,-0.538,0.235349
233,-0.537,0.235349
234,-0.536,0.238827
235,-0.535,0.231871
236,-0.534,0.235349
237,-0.533,0.240565
238,-0.532,0.235349
239,-0.531,0.235349
240,-0.53,0.235349
241,-0.529,0.235349
242,-0.528,0.235349
243,-0.527,0.235349
244,-0.526,0.235349
245,-0.525,0.23361
246,-0.524,0.228393
247,-0.523,0.221438
248,-0.522,0.209266
249,-0.521,0.202311
250,-0.52,0.200572
251,-0.519,0.198833
252,-0.518,0.198833
253,-0.517,0.195355
254,-0.516,0.198833
255,-0.515,0.198833
256,-0.514,0.198833
257,-0.513,0.200572
258,-0.512,0.200572
259,-0.511,0.200572
260,-0.51,0.200572
261,-0.509,0.200572
262,-0.508,0.200572
263,-0.507,0.198833
264,-0.506,0.198833
265,-0.505,0.198833
266,-0.504,0.198833
267,-0.503,0.198833
268,-0.502,0.200572
269,-0.501,0.200572
270,-0.5,0.200572
271,-0.499,0.200572
272,-0.498,0.200572
273,-0.497,0.200572
274,-0.496,0.197094
275,-0.495,0.200572
276,-0.494,0.198833
277,-0.493,0.198833
278,-0.492,0.200572
279,-0.491,0.200572
280,-0.49,0.200572
281,-0.489,0.200572
282,-0.488,0.200572
283,-0.487,0.200572
284,-0.486,0.198833
285,-0.485,0.195355
286,-0.484,0.198833
287,-0.483,0.198833
288,-0.482,0.198833
289,-0.481,0.200572
290,-0.48,0.200572
291,-0.479,0.200572
292,-0.478,0.200572
293,-0.477,0.200572
294,-0.476,0.200572
295,-0.475,0.198833
296,-0.474,0.198833
297,-0.473,0.198833
298,-0.472,0.198833
299,-0.471,0.198833
300,-0.47,0.200572
301,-0.469,0.200572
302,-0.468,0.200572
303,-0.467,0.200572
304,-0.466,0.200572
305,-0.465,0.200572
306,-0.464,0.197094
307,-0.463,0.200572
308,-0.462,0.198833
309,-0.461,0.198833
310,-0.46,0.198833
311,-0.459,0.198833
312,-0.458,0.198833
313,-0.457,0.200572
314,-0.456,0.200572
315,-0.455,0.200572
316,-0.454,0.198833
317,-0.453,0.195355
318,-0.452,0.198833
319,-0.451,0.198833
320,-0.45,0.198833
321,-0.449,0.200572
322,-0.448,0.200572
323,-0.447,0.200572
324,-0.446,0.200572
325,-0.445,0.200572
326,-0.444,0.200572
327,-0.443,0.198833
328,-0.442,0.198833
329,-0.441,0.198833
330,-0.44,0.198833
331,-0.439,0.198833
332,-0.438,0.200572
333,-0.437,0.200572
334,-0.436,0.200572
335,-0.435,0.200572
336,-0.434,0.200572
337,-0.433,0.200572
338,-0.432,0.197094
339,-0.431,0.200572
340,-0.43,0.198833
341,-0.429,0.198833
342,-0.428,0.198833
343,-0.427,0.198833
344,-0.426,0.200572
345,-0.425,0.198833
346,-0.424,0.200572
347,-0.423,0.200572
348,-0.422,0.198833
349,-0.421,0.195355
350,-0.42,0.198833
351,-0.419,0.198833
352,-0.418,0.198833
353,-0.417,0.198833
354,-0.416,0.200572
355,-0.415,0.200572
356,-0.414,0.200572
357,-0.413,0.200572
358,-0.412,0.200572
359,-0.411,0.198833
360,-0.41,0.198833
361,-0.409,0.198833
362,-0.408,0.198833
363,-0.407,0.198833
364,-0.406,0.198833
365,-0.405,0.198833
366,-0.404,0.198833
367,-0.403,0.200572
368,-0.402,0.200572
369,-0.401,0.200572
370,-0.4,0.197094
371,-0.399,0.200572
372,-0.398,0.198833
373,-0.397,0.198833
374,-0.396,0.198833
375,-0.395,0.198833
376,-0.394,0.200572
377,-0.393,0.200572
378,-0.392,0.200572
379,-0.391,0.200572
380,-0.39,0.198833
381,-0.389,0.197094
382,-0.388,0.198833
383,-0.387,0.198833
384,-0.386,0.198833
385,-0.385,0.198833
386,-0.384,0.198833
387,-0.383,0.198833
388,-0.382,0.198833
389,-0.381,0.200572
390,-0.38,0.200572
391,-0.379,0.198833
392,-0.378,0.198833
393,-0.377,0.198833
394,-0.376,0.198833
395,-0.375,0.200572
396,-0.374,0.200572
397,-0.373,0.200572
398,-0.372,0.198833
399,-0.371,0.202311
400,-0.37,0.200572
401,-0.369,0.198833
402,-0.368,0.197094
403,-0.367,0.200572
404,-0.366,0.198833
405,-0.365,0.198833
406,-0.364,0.198833
407,-0.363,0.200572
408,-0.362,0.200572
409,-0.361,0.200572
410,-0.36,0.200572
411,-0.359,0.200572
412,-0.358,0.198833
413,-0.357,0.197094
414,-0.356,0.198833
415,-0.355,0.198833
416,-0.354,0.198833
417,-0.353,0.198833
418,-0.352,0.200572
419,-0.351,0.200572
420,-0.35,0.200572
421,-0.349,0.200572
422,-0.348,0.200572
423,-0.347,0.198833
424,-0.346,0.198833
425,-0.345,0.198833
426,-0.344,0.198833
427,-0.343,0.200572
428,-0.342,0.200572
429,-0.341,0.200572
430,-0.34,0.200572
431,-0.339,0.200572
432,-0.338,0.200572
433,-0.337,0.200572
434,-0.336,0.197094
435,-0.335,0.200572
436,-0.334,0.198833
437,-0.333,0.198833
438,-0.332,0.200572
439,-0.331,0.200572
440,-0.33,0.200572
441,-0.329,0.200572
442,-0.328,0.200572
443,-0.327,0.200572
444,-0.326,0.198833
445,-0.325,0.197094
446,-0.324,0.198833
447,-0.323,0.198833
448,-0.322,0.198833
449,-0.321,0.198833
450,-0.32,0.200572
451,-0.319,0.200572
452,-0.318,0.200572
453,-0.317,0.200572
454,-0.316,0.200572
455,-0.315,0.198833
456,-0.314,0.198833
457,-0.313,0.198833
458,-0.312,0.198833
459,-0.311,0.198833
460,-0.31,0.198833
461,-0.309,0.200572
462,-0.308,0.200572
463,-0.307,0.200572
464,-0.306,0.200572
465,-0.305,0.198833
466,-0.304,0.195355
467,-0.303,0.198833
468,-0.302,0.198833
469,-0.301,0.198833
470,-0.3,0.198833
471,-0.299,0.198833
472,-0.298,0.198833
473,-0.297,0.198833
474,-0.296,0.200572
475,-0.295,0.200572
476,-0.294,0.198833
477,-0.293,0.197094
478,-0.292,0.198833
479,-0.291,0.198833
480,-0.29,0.198833
481,-0.289,0.198833
482,-0.288,0.200572
483,-0.287,0.200572
484,-0.286,0.200572
485,-0.285,0.200572
486,-0.284,0.200572
487,-0.283,0.198833
488,-0.282,0.198833
489,-0.281,0.198833
490,-0.28,0.198833
491,-0.279,0.198833
492,-0.278,0.200572
493,-0.277,0.200572
494,-0.276,0.200572
495,-0.275,0.200572
496,-0.274,0.200572
497,-0.273,0.198833
498,-0.272,0.197094
499,-0.271,0.200572
500,-0.27,0.198833
501,-0.269,0.198833
502,-0.268,0.200572
503,-0.267,0.200572
504,-0.266,0.200572
505,-0.265,0.200572
506,-0.264,0.200572
507,-0.263,0.200572
508,-0.262,0.198833
509,-0.261,0.197094
510,-0.26,0.198833
511,-0.259,0.198833
512,-0.258,0.198833
513,-0.257,0.200572
514,-0.256,0.200572
515,-0.255,0.200572
516,-0.254,0.200572
517,-0.253,0.200572
518,-0.252,0.200572
519,-0.251,0.197094
520,-0.25,0.200572
521,-0.249,0.198833
522,-0.248,0.198833
523,-0.247,0.200572
524,-0.246,0.200572
525,-0.245,0.200572
526,-0.244,0.200572
527,-0.243,0.200572
528,-0.242,0.200572
529,-0.241,0.198833
530,-0.24,0.197094
531,-0.239,0.200572
532,-0.238,0.198833
533,-0.237,0.200572
534,-0.236,0.200572
535,-0.235,0.200572
536,-0.234,0.200572
537,-0.233,0.200572
538,-0.232,0.200572
539,-0.231,0.200572
540,-0.23,0.198833
541,-0.229,0.197094
542,-0.228,0.198833
543,-0.227,0.198833
544,-0.226,0.200572
545,-0.225,0.200572
546,-0.224,0.200572
547,-0.223,0.200572
548,-0.222,0.200572
549,-0.221,0.200572
550,-0.22,0.200572
551,-0.219,0.197094
552,-0.218,0.200572
553,-0.217,0.198833
554,-0.216,0.198833
555,-0.215,0.200572
556,-0.214,0.200572
557,-0.213,0.200572
558,-0.212,0.200572
559,-0.211,0.200572
560,-0.21,0.200572
561,-0.209,0.198833
562,-0.208,0.195355
563,-0.207,0.198833
564,-0.206,0.198833
565,-0.205,0.198833
566,-0.204,0.200572
567,-0.203,0.200572
568,-0.202,0.200572
569,-0.201,0.200572
570,-0.2,0.200572
571,-0.199,0.200572
572,-0.198,0.198833
573,-0.197,0.197094
574,-0.196,0.198833
575,-0.195,0.200572
576,-0.194,0.200572
577,-0.193,0.200572
578,-0.192,0.200572
579,-0.191,0.200572
580,-0.19,0.200572
581,-0.189,0.200572
582,-0.188,0.200572
583,-0.187,0.197094
584,-0.186,0.200572
585,-0.185,0.198833
586,-0.184,0.200572
587,-0.183,0.200572
588,-0.182,0.200572
589,-0.181,0.200572
590,-0.18,0.200572
591,-0.179,0.200572
592,-0.178,0.200572
593,-0.177,0.198833
594,-0.176,0.195355
595,-0.175,0.198833
596,-0.174,0.198833
597,-0.173,0.200572
598,-0.172,0.200572
599,-0.171,0.200572
600,-0.17,0.200572
601,-0.169,0.200572
602,-0.168,0.200572
603,-0.167,0.200572
604,-0.166,0.198833
605,-0.165,0.197094
606,-0.164,0.198833
607,-0.163,0.200572
608,-0.162,0.200572
609,-0.161,0.200572
610,-0.16,0.200572
611,-0.159,0.200572
612,-0.158,0.200572
613,-0.157,0.200572
614,-0.156,0.200572
615,-0.155,0.198833
616,-0.154,0.198833
617,-0.153,0.198833
618,-0.152,0.200572
619,-0.151,0.200572
620,-0.15,0.200572
621,-0.149,0.200572
622,-0.148,0.200572
623,-0.147,0.200572
624,-0.146,0.200572
625,-0.145,0.198833
626,-0.144,0.195355
627,-0.143,0.198833
628,-0.142,0.198833
629,-0.141,0.200572
630,-0.14,0.200572
631,-0.139,0.200572
632,-0.138,0.200572
633,-0.137,0.200572
634,-0.136,0.200572
635,-0.135,0.200572
636,-0.134,0.198833
637,-0.133,0.197094
638,-0.132,0.198833
639,-0.131,0.198833
640,-0.13,0.198833
641,-0.129,0.200572
642,-0.128,0.200572
643,-0.127,0.200572
644,-0.126,0.200572
645,-0.125,0.200572
646,-0.124,0.200572
647,-0.123,0.197094
648,-0.122,0.200572
649,-0.121,0.198833
650,-0.12,0.198833
651,-0.119,0.198833
652,-0.118,0.198833
653,-0.117,0.200572
654,-0.116,0.200572
655,-0.115,0.200572
656,-0.114,0.200572
657,-0.113,0.198833
658,-0.112,0.195355
659,-0.111,0.198833
660,-0.11,0.198833
661,-0.109,0.198833
662,-0.108,0.200572
663,-0.107,0.200572
664,-0.106,0.200572
665,-0.105,0.200572
666,-0.104,0.200572
667,-0.103,0.200572
668,-0.102,0.198833
669,-0.101,0.197094
670,-0.1,0.198833
671,-0.099,0.198833
672,-0.098,0.198833
673,-0.097,0.198833
674,-0.096,0.200572
675,-0.095,0.200572
676,-0.094,0.200572
677,-0.093,0.200572
678,-0.092,0.200572
679,-0.091,0.197094
680,-0.09,0.200572
681,-0.089,0.198833
682,-0.088,0.198833
683,-0.087,0.200572
684,-0.086,0.200572
685,-0.085,0.200572
686,-0.084,0.200572
687,-0.083,0.200572
688,-0.082,0.200572
689,-0.081,0.198833
690,-0.08,0.195355
691,-0.079,0.198833
692,-0.078,0.198833
693,-0.077,0.200572
694,-0.076,0.200572
695,-0.075,0.200572
696,-0.074,0.200572
697,-0.073,0.200572
698,-0.072,0.200572
699,-0.071,0.200572
700,-0.07,0.198833
701,-0.069,0.197094
702,-0.068,0.198833
703,-0.067,0.198833
704,-0.066,0.198833
705,-0.065,0.198833
706,-0.064,0.200572
707,-0.063,0.200572
708,-0.062,0.200572
709,-0.061,0.200572
710,-0.06,0.200572
711,-0.059,0.197094
712,-0.058,0.200572
713,-0.057,0.198833
714,-0.056,0.200572
715,-0.055,0.200572
716,-0.054,0.200572
717,-0.053,0.200572
718,-0.052,0.200572
719,-0.051,0.200572
720,-0.05,0.200572
721,-0.049,0.198833
722,-0.048,0.195355
723,-0.047,0.198833
724,-0.046,0.198833
725,-0.045,0.200572
726,-0.044,0.200572
727,-0.043,0.200572
728,-0.042,0.200572
729,-0.041,0.200572
730,-0.04,0.200572
731,-0.039,0.200572
732,-0.038,0.198833
733,-0.037,0.198833
734,-0.036,0.198833
735,-0.035,0.198833
736,-0.034,0.200572
737,-0.033,0.200572
738,-0.032,0.200572
739,-0.031,0.200572
740,-0.03,0.200572
741,-0.029,0.200572
742,-0.028,0.200572
743,-0.027,0.197094
744,-0.026,0.200572
745,-0.025,0.198833
746,-0.024,0.198833
747,-0.023,0.200572
748,-0.022,0.200572
749,-0.021,0.200572
750,-0.02,0.200572
751,-0.019,0.200572
752,-0.018,0.200572
753,-0.017,0.198833
754,-0.016,0.197094
755,-0.015,0.198833
756,-0.014,0.198833
757,-0.013,0.198833
758,-0.012,0.200572
759,-0.011,0.200572
760,-0.01,0.200572
761,-0.009,0.200572
762,-0.008,0.200572
763,-0.007,0.200572
764,-0.006,0.198833
765,-0.005,0.198833
766,-0.004,0.198833
767,-0.003,0.198833
768,-0.002,0.198833
769,-0.001,0.200572
770,0,0.200572
771,0.001,0.200572
772,0.002,0.200572
773,0.003,0.200572
774,0.004,0.200572
775,0.005,0.197094
776,0.006,0.200572
777,0.007,0.198833
778,0.008,0.200572
779,0.009,0.200572
780,0.01,0.200572
781,0.011,0.200572
782,0.012,0.200572
783,0.013,0.200572
784,0.014,0.200572
785,0.015,0.198833
786,0.016,0.197094
787,0.017,0.198833
788,0.018,0.198833
789,0.019,0.198833
790,0.02,0.200572
791,0.021,0.200572
792,0.022,0.200572
793,0.023,0.200572
794,0.024,0.200572
795,0.025,0.205788
796,0.026,0.207527
797,0.027,0.256215
798,0.028,0.341419
799,0.029,0.390107
800,0.03,0.424884
801,0.031,0.444011
802,0.032,0.527476
803,0.033,0.607463
804,0.034,0.661367
805,0.035,0.7031
806,0.036,0.729182
807,0.037,0.750049
808,0.038,0.767437
809,0.039,0.776131
810,0.04,0.788303
811,0.041,0.795259
812,0.042,0.798737
813,0.043,0.802214
814,0.044,0.805692
815,0.045,0.805692
816,0.046,0.80917
817,0.047,0.80917
818,0.048,0.828297
819,0.049,0.856119
820,0.05,0.875246
821,0.051,0.890896
822,0.052,0.873507
823,0.053,0.856119
824,0.054,0.845685
825,0.055,0.836991
826,0.056,0.828297
827,0.057,0.824819
828,0.058,0.82308
829,0.059,0.821342
830,0.06,0.817864
831,0.061,0.817864
832,0.062,0.817864
833,0.063,0.824819
834,0.064,0.85438
835,0.065,0.875246
836,0.066,0.890896
837,0.067,0.887418
838,0.068,0.864813
839,0.069,0.850902
840,0.07,0.842208
841,0.071,0.833513
842,0.072,0.828297
843,0.073,0.824819
844,0.074,0.821342
845,0.075,0.819603
846,0.076,0.819603
847,0.077,0.817864
848,0.078,0.816125
849,0.079,0.843947
850,0.08,0.868291
851,0.081,0.887418
852,0.082,0.894373
853,0.083,0.871768
854,0.084,0.857857
855,0.085,0.845685
856,0.086,0.836991
857,0.087,0.831775
858,0.088,0.82308
859,0.089,0.824819
860,0.09,0.821342
861,0.091,0.817864
862,0.092,0.817864
863,0.093,0.817864
864,0.094,0.831775
865,0.095,0.861335
866,0.096,0.882201
867,0.097,0.896112
868,0.098,0.882201
869,0.099,0.861335
870,0.1,0.849163
871,0.101,0.840469
872,0.102,0.833513
873,0.103,0.826558
874,0.104,0.824819
875,0.105,0.821342
876,0.106,0.819603
877,0.107,0.819603
878,0.108,0.817864
879,0.109,0.821342
880,0.11,0.849163
881,0.111,0.875246
882,0.112,0.890896
883,0.113,0.890896
884,0.114,0.866552
885,0.115,0.85438
886,0.116,0.842208
887,0.117,0.835252
888,0.118,0.828297
889,0.119,0.824819
890,0.12,0.82308
891,0.121,0.821342
892,0.122,0.817864
893,0.123,0.817864
894,0.124,0.816125
895,0.125,0.843947
896,0.126,0.866552
897,0.127,0.885679
898,0.128,0.896112
899,0.129,0.871768
900,0.13,0.859596
901,0.131,0.845685
902,0.132,0.83873
903,0.133,0.831775
904,0.134,0.826558
905,0.135,0.82308
906,0.136,0.821342
907,0.137,0.817864
908,0.138,0.817864
909,0.139,0.816125
910,0.14,0.831775
911,0.141,0.857857
912,0.142,0.880462
913,0.143,0.896112
914,0.144,0.882201
915,0.145,0.863074
916,0.146,0.850902
917,0.147,0.840469
918,0.148,0.833513
919,0.149,0.826558
920,0.15,0.82308
921,0.151,0.821342
922,0.152,0.819603
923,0.153,0.817864
924,0.154,0.817864
925,0.155,0.819603
926,0.156,0.847424
927,0.157,0.842208
928,0.158,0.833513
929,0.159,0.831775
930,0.16,0.835252
931,0.161,0.826558
932,0.162,0.82308
933,0.163,0.821342
934,0.164,0.821342
935,0.165,0.741354
936,0.166,0.560514
937,0.167,0.44575
938,0.168,0.367501
939,0.169,0.315336
940,0.17,0.27882
941,0.171,0.252737
942,0.172,0.238827
943,0.173,0.228393
944,0.174,0.221438
945,0.175,0.21796
946,0.176,0.212744
947,0.177,0.211005
948,0.178,0.209266
949,0.179,0.211005
950,0.18,0.207527
951,0.181,0.207527
952,0.182,0.207527
953,0.183,0.207527
954,0.184,0.207527
955,0.185,0.207527
956,0.186,0.207527
957,0.187,0.205788
958,0.188,0.205788
959,0.189,0.205788
960,0.19,0.205788
961,0.191,0.205788
962,0.192,0.205788
963,0.193,0.205788
964,0.194,0.205788
965,0.195,0.205788
966,0.196,0.205788
967,0.197,0.205788
968,0.198,0.205788
969,0.199,0.205788
970,0.2,0.205788
971,0.201,0.205788
972,0.202,0.205788
973,0.203,0.205788
974,0.204,0.205788
975,0.205,0.205788
976,0.206,0.205788
977,0.207,0.205788
978,0.208,0.205788
979,0.209,0.205788
980,0.21,0.205788
981,0.211,0.205788
982,0.212,0.205788
983,0.213,0.205788
984,0.214,0.205788
985,0.215,0.205788
986,0.216,0.205788
987,0.217,0.205788
988,0.218,0.205788
989,0.219,0.205788
990,0.22,0.205788
991,0.221,0.205788
992,0.222,0.205788
993,0.223,0.205788
994,0.224,0.205788
995,0.225,0.205788
996,0.226,0.205788
997,0.227,0.205788
998,0.228,0.205788
999,0.229,0.205788
1000,0.23,0.205788
1001,0.231,0.205788
1002,0.232,0.205788
1003,0.233,0.205788
1004,0.234,0.205788
1005,0.235,0.205788
1006,0.236,0.205788
1007,0.237,0.205788
1008,0.238,0.205788
1009,0.239,0.205788
1010,0.24,0.205788
1011,0.241,0.205788
1012,0.242,0.205788
1013,0.243,0.205788
1014,0.244,0.205788
