measure/8MHz,SRAM1_Activated_99.9Ohm_4.csv

;Scopy version,f4beeb1
;Exported on,dimanche mars 03/03/2024
;Device,M2K
;Nr of samples,16000
;Sample rate,1000
;Tool,Oscilloscope
;Additional Information,
Sample,Time(S),CH1(V)
0,-0.77,0.14206
1,-0.769,0.14206
2,-0.768,0.14206
3,-0.767,0.14206
4,-0.766,0.14206
5,-0.765,0.14206
6,-0.764,0.14206
7,-0.763,0.14206
8,-0.762,0.14206
9,-0.761,0.14206
10,-0.76,0.14206
11,-0.759,0.14206
12,-0.758,0.14206
13,-0.757,0.14206
14,-0.756,0.14206
15,-0.755,0.14206
16,-0.754,0.14206
17,-0.753,0.14206
18,-0.752,0.14206
19,-0.751,0.14206
20,-0.75,0.14206
21,-0.749,0.14206
22,-0.748,0.14206
23,-0.747,0.14206
24,-0.746,0.140321
25,-0.745,0.159448
26,-0.744,0.178576
27,-0.743,0.192486
28,-0.742,0.208136
29,-0.741,0.215091
30,-0.74,0.227263
31,-0.739,0.225525
32,-0.738,0.225525
33,-0.737,0.222047
34,-0.736,0.218569
35,-0.735,0.215091
36,-0.734,0.215091
37,-0.733,0.215091
38,-0.732,0.211614
39,-0.731,0.20292
40,-0.73,0.180314
41,-0.729,0.164665
42,-0.728,0.157709
43,-0.727,0.152493
44,-0.726,0.150754
45,-0.725,0.145537
46,-0.724,0.143799
47,-0.723,0.143799
48,-0.722,0.143799
49,-0.721,0.14206
50,-0.72,0.14206
51,-0.719,0.14206
52,-0.718,0.14206
53,-0.717,0.14206
54,-0.716,0.14206
55,-0.715,0.14206
56,-0.714,0.14206
57,-0.713,0.14206
58,-0.712,0.14206
59,-0.711,0.14206
60,-0.71,0.14206
61,-0.709,0.14206
62,-0.708,0.14206
63,-0.707,0.14206
64,-0.706,0.14206
65,-0.705,0.14206
66,-0.704,0.14206
67,-0.703,0.14206
68,-0.702,0.14206
69,-0.701,0.14206
70,-0.7,0.14206
71,-0.699,0.14206
72,-0.698,0.14206
73,-0.697,0.14206
74,-0.696,0.14206
75,-0.695,0.14206
76,-0.694,0.14206
77,-0.693,0.14206
78,-0.692,0.14206
79,-0.691,0.14206
80,-0.69,0.14206
81,-0.689,0.14206
82,-0.688,0.14206
83,-0.687,0.14206
84,-0.686,0.14206
85,-0.685,0.14206
86,-0.684,0.14206
87,-0.683,0.145537
88,-0.682,0.169881
89,-0.681,0.185531
90,-0.68,0.201181
91,-0.679,0.211614
92,-0.678,0.222047
93,-0.677,0.229002
94,-0.676,0.225525
95,-0.675,0.223786
96,-0.674,0.218569
97,-0.673,0.220308
98,-0.672,0.215091
99,-0.671,0.215091
100,-0.67,0.211614
101,-0.669,0.209875
102,-0.668,0.189009
103,-0.667,0.173359
104,-0.666,0.161187
105,-0.665,0.155971
106,-0.664,0.150754
107,-0.663,0.145537
108,-0.662,0.145537
109,-0.661,0.143799
110,-0.66,0.143799
111,-0.659,0.143799
112,-0.658,0.14206
113,-0.657,0.14206
114,-0.656,0.14206
115,-0.655,0.14206
116,-0.654,0.14206
117,-0.653,0.14206
118,-0.652,0.14206
119,-0.651,0.14206
120,-0.65,0.14206
121,-0.649,0.14206
122,-0.648,0.14206
123,-0.647,0.14206
124,-0.646,0.14206
125,-0.645,0.14206
126,-0.644,0.14206
127,-0.643,0.14206
128,-0.642,0.14206
129,-0.641,0.14206
130,-0.64,0.14206
131,-0.639,0.14206
132,-0.638,0.14206
133,-0.637,0.14206
134,-0.636,0.14206
135,-0.635,0.14206
136,-0.634,0.14206
137,-0.633,0.14206
138,-0.632,0.14206
139,-0.631,0.14206
140,-0.63,0.14206
141,-0.629,0.14206
142,-0.628,0.14206
143,-0.627,0.14206
144,-0.626,0.14206
145,-0.625,0.14206
146,-0.624,0.14206
147,-0.623,0.14206
148,-0.622,0.14206
149,-0.621,0.140321
150,-0.62,0.159448
151,-0.619,0.180314
152,-0.618,0.192486
153,-0.617,0.208136
154,-0.616,0.215091
155,-0.615,0.227263
156,-0.614,0.225525
157,-0.613,0.225525
158,-0.612,0.222047
159,-0.611,0.218569
160,-0.61,0.220308
161,-0.609,0.215091
162,-0.608,0.215091
163,-0.607,0.211614
164,-0.606,0.204658
165,-0.605,0.180314
166,-0.604,0.164665
167,-0.603,0.157709
168,-0.602,0.154232
169,-0.601,0.150754
170,-0.6,0.145537
171,-0.599,0.145537
172,-0.598,0.143799
173,-0.597,0.143799
174,-0.596,0.14206
175,-0.595,0.14206
176,-0.594,0.14206
177,-0.593,0.14206
178,-0.592,0.14206
179,-0.591,0.14206
180,-0.59,0.14206
181,-0.589,0.14206
182,-0.588,0.14206
183,-0.587,0.14206
184,-0.586,0.14206
185,-0.585,0.14206
186,-0.584,0.14206
187,-0.583,0.14206
188,-0.582,0.14206
189,-0.581,0.14206
190,-0.58,0.14206
191,-0.579,0.14206
192,-0.578,0.14206
193,-0.577,0.14206
194,-0.576,0.14206
195,-0.575,0.14206
196,-0.574,0.14206
197,-0.573,0.14206
198,-0.572,0.14206
199,-0.571,0.14206
200,-0.57,0.14206
201,-0.569,0.14206
202,-0.568,0.14206
203,-0.567,0.14206
204,-0.566,0.14206
205,-0.565,0.14206
206,-0.564,0.14206
207,-0.563,0.14206
208,-0.562,0.14206
209,-0.561,0.14206
210,-0.56,0.14206
211,-0.559,0.14206
212,-0.558,0.147276
213,-0.557,0.175098
214,-0.556,0.18727
215,-0.555,0.201181
216,-0.554,0.211614
217,-0.553,0.222047
218,-0.552,0.229002
219,-0.551,0.225525
220,-0.55,0.223786
221,-0.549,0.218569
222,-0.548,0.220308
223,-0.547,0.215091
224,-0.546,0.215091
225,-0.545,0.213353
226,-0.544,0.209875
227,-0.543,0.18727
228,-0.542,0.173359
229,-0.541,0.161187
230,-0.54,0.154232
231,-0.539,0.152493
232,-0.538,0.145537
233,-0.537,0.145537
234,-0.536,0.143799
235,-0.535,0.143799
236,-0.534,0.143799
237,-0.533,0.14206
238,-0.532,0.14206
239,-0.531,0.14206
240,-0.53,0.14206
241,-0.529,0.14206
242,-0.528,0.14206
243,-0.527,0.14206
244,-0.526,0.14206
245,-0.525,0.14206
246,-0.524,0.14206
247,-0.523,0.14206
248,-0.522,0.14206
249,-0.521,0.14206
250,-0.52,0.14206
251,-0.519,0.14206
252,-0.518,0.14206
253,-0.517,0.14206
254,-0.516,0.14206
255,-0.515,0.14206
256,-0.514,0.14206
257,-0.513,0.14206
258,-0.512,0.14206
259,-0.511,0.14206
260,-0.51,0.14206
261,-0.509,0.14206
262,-0.508,0.14206
263,-0.507,0.14206
264,-0.506,0.14206
265,-0.505,0.14206
266,-0.504,0.14206
267,-0.503,0.14206
268,-0.502,0.14206
269,-0.501,0.14206
270,-0.5,0.14206
271,-0.499,0.14206
272,-0.498,0.14206
273,-0.497,0.14206
274,-0.496,0.140321
275,-0.495,0.159448
276,-0.494,0.182053
277,-0.493,0.192486
278,-0.492,0.208136
279,-0.491,0.215091
280,-0.49,0.227263
281,-0.489,0.227263
282,-0.488,0.223786
283,-0.487,0.222047
284,-0.486,0.215091
285,-0.485,0.215091
286,-0.484,0.218569
287,-0.483,0.213353
288,-0.482,0.211614
289,-0.481,0.199442
290,-0.48,0.178576
291,-0.479,0.164665
292,-0.478,0.155971
293,-0.477,0.150754
294,-0.476,0.147276
295,-0.475,0.145537
296,-0.474,0.143799
297,-0.473,0.143799
298,-0.472,0.143799
299,-0.471,0.14206
300,-0.47,0.14206
301,-0.469,0.14206
302,-0.468,0.14206
303,-0.467,0.14206
304,-0.466,0.14206
305,-0.465,0.14206
306,-0.464,0.14206
307,-0.463,0.14206
308,-0.462,0.14206
309,-0.461,0.14206
310,-0.46,0.14206
311,-0.459,0.14206
312,-0.458,0.14206
313,-0.457,0.14206
314,-0.456,0.14206
315,-0.455,0.14206
316,-0.454,0.14206
317,-0.453,0.14206
318,-0.452,0.14206
319,-0.451,0.14206
320,-0.45,0.14206
321,-0.449,0.14206
322,-0.448,0.14206
323,-0.447,0.14206
324,-0.446,0.14206
325,-0.445,0.14206
326,-0.444,0.14206
327,-0.443,0.14206
328,-0.442,0.14206
329,-0.441,0.14206
330,-0.44,0.14206
331,-0.439,0.14206
332,-0.438,0.14206
333,-0.437,0.14206
334,-0.436,0.14206
335,-0.435,0.14206
336,-0.434,0.14206
337,-0.433,0.147276
338,-0.432,0.175098
339,-0.431,0.18727
340,-0.43,0.201181
341,-0.429,0.211614
342,-0.428,0.222047
343,-0.427,0.229002
344,-0.426,0.225525
345,-0.425,0.223786
346,-0.424,0.218569
347,-0.423,0.218569
348,-0.422,0.215091
349,-0.421,0.215091
350,-0.42,0.215091
351,-0.419,0.211614
352,-0.418,0.209875
353,-0.417,0.18727
354,-0.416,0.169881
355,-0.415,0.161187
356,-0.414,0.155971
357,-0.413,0.150754
358,-0.412,0.145537
359,-0.411,0.145537
360,-0.41,0.143799
361,-0.409,0.143799
362,-0.408,0.143799
363,-0.407,0.14206
364,-0.406,0.14206
365,-0.405,0.14206
366,-0.404,0.14206
367,-0.403,0.14206
368,-0.402,0.14206
369,-0.401,0.14206
370,-0.4,0.14206
371,-0.399,0.14206
372,-0.398,0.14206
373,-0.397,0.14206
374,-0.396,0.14206
375,-0.395,0.14206
376,-0.394,0.14206
377,-0.393,0.14206
378,-0.392,0.14206
379,-0.391,0.14206
380,-0.39,0.14206
381,-0.389,0.14206
382,-0.388,0.14206
383,-0.387,0.14206
384,-0.386,0.14206
385,-0.385,0.14206
386,-0.384,0.14206
387,-0.383,0.14206
388,-0.382,0.14206
389,-0.381,0.14206
390,-0.38,0.14206
391,-0.379,0.14206
392,-0.378,0.14206
393,-0.377,0.14206
394,-0.376,0.14206
395,-0.375,0.14206
396,-0.374,0.14206
397,-0.373,0.14206
398,-0.372,0.14206
399,-0.371,0.14206
400,-0.37,0.159448
401,-0.369,0.180314
402,-0.368,0.192486
403,-0.367,0.208136
404,-0.366,0.215091
405,-0.365,0.227263
406,-0.364,0.225525
407,-0.363,0.225525
408,-0.362,0.222047
409,-0.361,0.218569
410,-0.36,0.218569
411,-0.359,0.215091
412,-0.358,0.215091
413,-0.357,0.211614
414,-0.356,0.199442
415,-0.355,0.178576
416,-0.354,0.166404
417,-0.353,0.157709
418,-0.352,0.152493
419,-0.351,0.150754
420,-0.35,0.145537
421,-0.349,0.145537
422,-0.348,0.143799
423,-0.347,0.143799
424,-0.346,0.143799
425,-0.345,0.14206
426,-0.344,0.14206
427,-0.343,0.14206
428,-0.342,0.14206
429,-0.341,0.14206
430,-0.34,0.14206
431,-0.339,0.14206
432,-0.338,0.14206
433,-0.337,0.14206
434,-0.336,0.14206
435,-0.335,0.14206
436,-0.334,0.14206
437,-0.333,0.14206
438,-0.332,0.14206
439,-0.331,0.14206
440,-0.33,0.14206
441,-0.329,0.14206
442,-0.328,0.14206
443,-0.327,0.14206
444,-0.326,0.14206
445,-0.325,0.14206
446,-0.324,0.14206
447,-0.323,0.14206
448,-0.322,0.14206
449,-0.321,0.14206
450,-0.32,0.14206
451,-0.319,0.14206
452,-0.318,0.14206
453,-0.317,0.14206
454,-0.316,0.14206
455,-0.315,0.14206
456,-0.314,0.14206
457,-0.313,0.14206
458,-0.312,0.14206
459,-0.311,0.14206
460,-0.31,0.14206
461,-0.309,0.14206
462,-0.308,0.145537
463,-0.307,0.169881
464,-0.306,0.18727
465,-0.305,0.201181
466,-0.304,0.211614
467,-0.303,0.222047
468,-0.302,0.229002
469,-0.301,0.225525
470,-0.3,0.223786
471,-0.299,0.218569
472,-0.298,0.218569
473,-0.297,0.215091
474,-0.296,0.215091
475,-0.295,0.211614
476,-0.294,0.209875
477,-0.293,0.190748
478,-0.292,0.173359
479,-0.291,0.161187
480,-0.29,0.154232
481,-0.289,0.152493
482,-0.288,0.145537
483,-0.287,0.145537
484,-0.286,0.143799
485,-0.285,0.143799
486,-0.284,0.143799
487,-0.283,0.14206
488,-0.282,0.14206
489,-0.281,0.14206
490,-0.28,0.14206
491,-0.279,0.14206
492,-0.278,0.14206
493,-0.277,0.14206
494,-0.276,0.14206
495,-0.275,0.14206
496,-0.274,0.14206
497,-0.273,0.14206
498,-0.272,0.14206
499,-0.271,0.14206
500,-0.27,0.14206
501,-0.269,0.14206
502,-0.268,0.14206
503,-0.267,0.14206
504,-0.266,0.14206
505,-0.265,0.14206
506,-0.264,0.14206
507,-0.263,0.14206
508,-0.262,0.14206
509,-0.261,0.14206
510,-0.26,0.14206
511,-0.259,0.14206
512,-0.258,0.14206
513,-0.257,0.14206
514,-0.256,0.14206
515,-0.255,0.14206
516,-0.254,0.14206
517,-0.253,0.14206
518,-0.252,0.14206
519,-0.251,0.14206
520,-0.25,0.14206
521,-0.249,0.14206
522,-0.248,0.14206
523,-0.247,0.14206
524,-0.246,0.140321
525,-0.245,0.159448
526,-0.244,0.178576
527,-0.243,0.192486
528,-0.242,0.208136
529,-0.241,0.215091
530,-0.24,0.227263
531,-0.239,0.225525
532,-0.238,0.225525
533,-0.237,0.222047
534,-0.236,0.218569
535,-0.235,0.218569
536,-0.234,0.215091
537,-0.233,0.218569
538,-0.232,0.213353
539,-0.231,0.211614
540,-0.23,0.201181
541,-0.229,0.180314
542,-0.228,0.164665
543,-0.227,0.157709
544,-0.226,0.154232
545,-0.225,0.150754
546,-0.224,0.145537
547,-0.223,0.145537
548,-0.222,0.143799
549,-0.221,0.143799
550,-0.22,0.143799
551,-0.219,0.14206
552,-0.218,0.14206
553,-0.217,0.14206
554,-0.216,0.14206
555,-0.215,0.14206
556,-0.214,0.14206
557,-0.213,0.14206
558,-0.212,0.14206
559,-0.211,0.14206
560,-0.21,0.14206
561,-0.209,0.14206
562,-0.208,0.14206
563,-0.207,0.14206
564,-0.206,0.14206
565,-0.205,0.14206
566,-0.204,0.14206
567,-0.203,0.14206
568,-0.202,0.14206
569,-0.201,0.14206
570,-0.2,0.14206
571,-0.199,0.14206
572,-0.198,0.14206
573,-0.197,0.14206
574,-0.196,0.14206
575,-0.195,0.14206
576,-0.194,0.14206
577,-0.193,0.14206
578,-0.192,0.14206
579,-0.191,0.14206
580,-0.19,0.14206
581,-0.189,0.14206
582,-0.188,0.14206
583,-0.187,0.14206
584,-0.186,0.14206
585,-0.185,0.14206
586,-0.184,0.14206
587,-0.183,0.147276
588,-0.182,0.169881
589,-0.181,0.18727
590,-0.18,0.201181
591,-0.179,0.211614
592,-0.178,0.222047
593,-0.177,0.229002
594,-0.176,0.225525
595,-0.175,0.223786
596,-0.174,0.218569
597,-0.173,0.218569
598,-0.172,0.215091
599,-0.171,0.215091
600,-0.17,0.215091
601,-0.169,0.211614
602,-0.168,0.208136
603,-0.167,0.18727
604,-0.166,0.169881
605,-0.165,0.161187
606,-0.164,0.154232
607,-0.163,0.150754
608,-0.162,0.145537
609,-0.161,0.145537
610,-0.16,0.143799
611,-0.159,0.143799
612,-0.158,0.143799
613,-0.157,0.14206
614,-0.156,0.14206
615,-0.155,0.14206
616,-0.154,0.14206
617,-0.153,0.14206
618,-0.152,0.14206
619,-0.151,0.14206
620,-0.15,0.14206
621,-0.149,0.14206
622,-0.148,0.14206
623,-0.147,0.14206
624,-0.146,0.14206
625,-0.145,0.14206
626,-0.144,0.14206
627,-0.143,0.14206
628,-0.142,0.14206
629,-0.141,0.14206
630,-0.14,0.14206
631,-0.139,0.14206
632,-0.138,0.14206
633,-0.137,0.14206
634,-0.136,0.14206
635,-0.135,0.14206
636,-0.134,0.14206
637,-0.133,0.14206
638,-0.132,0.14206
639,-0.131,0.14206
640,-0.13,0.14206
641,-0.129,0.14206
642,-0.128,0.14206
643,-0.127,0.14206
644,-0.126,0.14206
645,-0.125,0.14206
646,-0.124,0.14206
647,-0.123,0.14206
648,-0.122,0.14206
649,-0.121,0.140321
650,-0.12,0.159448
651,-0.119,0.178576
652,-0.118,0.192486
653,-0.117,0.208136
654,-0.116,0.215091
655,-0.115,0.227263
656,-0.114,0.227263
657,-0.113,0.225525
658,-0.112,0.220308
659,-0.111,0.220308
660,-0.11,0.218569
661,-0.109,0.215091
662,-0.108,0.215091
663,-0.107,0.215091
664,-0.106,0.211614
665,-0.105,0.204658
666,-0.104,0.180314
667,-0.103,0.164665
668,-0.102,0.157709
669,-0.101,0.154232
670,-0.1,0.150754
671,-0.099,0.145537
672,-0.098,0.145537
673,-0.097,0.143799
674,-0.096,0.143799
675,-0.095,0.143799
676,-0.094,0.14206
677,-0.093,0.14206
678,-0.092,0.14206
679,-0.091,0.14206
680,-0.09,0.14206
681,-0.089,0.14206
682,-0.088,0.14206
683,-0.087,0.14206
684,-0.086,0.14206
685,-0.085,0.14206
686,-0.084,0.14206
687,-0.083,0.14206
688,-0.082,0.14206
689,-0.081,0.14206
690,-0.08,0.14206
691,-0.079,0.14206
692,-0.078,0.14206
693,-0.077,0.14206
694,-0.076,0.14206
695,-0.075,0.14206
696,-0.074,0.14206
697,-0.073,0.14206
698,-0.072,0.14206
699,-0.071,0.14206
700,-0.07,0.14206
701,-0.069,0.14206
702,-0.068,0.14206
703,-0.067,0.14206
704,-0.066,0.14206
705,-0.065,0.14206
706,-0.064,0.14206
707,-0.063,0.14206
708,-0.062,0.14206
709,-0.061,0.14206
710,-0.06,0.14206
711,-0.059,0.14206
712,-0.058,0.150754
713,-0.057,0.173359
714,-0.056,0.18727
715,-0.055,0.201181
716,-0.054,0.211614
717,-0.053,0.220308
718,-0.052,0.227263
719,-0.051,0.225525
720,-0.05,0.223786
721,-0.049,0.218569
722,-0.048,0.215091
723,-0.047,0.213353
724,-0.046,0.213353
725,-0.045,0.213353
726,-0.044,0.209875
727,-0.043,0.208136
728,-0.042,0.211614
729,-0.041,0.209875
730,-0.04,0.215091
731,-0.039,0.227263
732,-0.038,0.230741
733,-0.037,0.234219
734,-0.036,0.234219
735,-0.035,0.234219
736,-0.034,0.234219
737,-0.033,0.234219
738,-0.032,0.234219
739,-0.031,0.234219
740,-0.03,0.234219
741,-0.029,0.234219
742,-0.028,0.237697
743,-0.027,0.235958
744,-0.026,0.237697
745,-0.025,0.234219
746,-0.024,0.234219
747,-0.023,0.234219
748,-0.022,0.234219
749,-0.021,0.234219
750,-0.02,0.234219
751,-0.019,0.234219
752,-0.018,0.235958
753,-0.017,0.235958
754,-0.016,0.235958
755,-0.015,0.235958
756,-0.014,0.235958
757,-0.013,0.234219
758,-0.012,0.234219
759,-0.011,0.234219
760,-0.01,0.234219
761,-0.009,0.234219
762,-0.008,0.234219
763,-0.007,0.237697
764,-0.006,0.237697
765,-0.005,0.234219
766,-0.004,0.234219
767,-0.003,0.234219
768,-0.002,0.234219
769,-0.001,0.234219
770,0,0.234219
771,0.001,0.234219
772,0.002,0.234219
773,0.003,0.237697
774,0.004,0.235958
775,0.005,0.235958
776,0.006,0.234219
777,0.007,0.234219
778,0.008,0.234219
779,0.009,0.234219
780,0.01,0.234219
781,0.011,0.234219
782,0.012,0.234219
783,0.013,0.235958
784,0.014,0.237697
785,0.015,0.234219
786,0.016,0.234219
787,0.017,0.234219
788,0.018,0.234219
789,0.019,0.234219
790,0.02,0.234219
791,0.021,0.234219
792,0.022,0.234219
793,0.023,0.237697
794,0.024,0.235958
795,0.025,0.235958
796,0.026,0.235958
797,0.027,0.235958
798,0.028,0.235958
799,0.029,0.235958
800,0.03,0.235958
801,0.031,0.235958
802,0.032,0.234219
803,0.033,0.234219
804,0.034,0.237697
805,0.035,0.237697
806,0.036,0.237697
807,0.037,0.237697
808,0.038,0.239435
809,0.039,0.235958
810,0.04,0.235958
811,0.041,0.235958
812,0.042,0.235958
813,0.043,0.234219
814,0.044,0.234219
815,0.045,0.234219
816,0.046,0.237697
817,0.047,0.235958
818,0.048,0.235958
819,0.049,0.235958
820,0.05,0.235958
821,0.051,0.234219
822,0.052,0.234219
823,0.053,0.234219
824,0.054,0.234219
825,0.055,0.234219
826,0.056,0.234219
827,0.057,0.237697
828,0.058,0.235958
829,0.059,0.235958
830,0.06,0.237697
831,0.061,0.234219
832,0.062,0.234219
833,0.063,0.234219
834,0.064,0.234219
835,0.065,0.234219
836,0.066,0.234219
837,0.067,0.237697
838,0.068,0.235958
839,0.069,0.235958
840,0.07,0.235958
841,0.071,0.234219
842,0.072,0.234219
843,0.073,0.234219
844,0.074,0.234219
845,0.075,0.234219
846,0.076,0.23248
847,0.077,0.234219
848,0.078,0.237697
849,0.079,0.235958
850,0.08,0.235958
851,0.081,0.235958
852,0.082,0.235958
853,0.083,0.235958
854,0.084,0.234219
855,0.085,0.234219
856,0.086,0.234219
857,0.087,0.234219
858,0.088,0.235958
859,0.089,0.235958
860,0.09,0.235958
861,0.091,0.234219
862,0.092,0.234219
863,0.093,0.234219
864,0.094,0.234219
865,0.095,0.234219
866,0.096,0.234219
867,0.097,0.234219
868,0.098,0.235958
869,0.099,0.235958
870,0.1,0.235958
871,0.101,0.235958
872,0.102,0.235958
873,0.103,0.234219
874,0.104,0.234219
875,0.105,0.234219
876,0.106,0.234219
877,0.107,0.234219
878,0.108,0.234219
879,0.109,0.237697
880,0.11,0.235958
881,0.111,0.234219
882,0.112,0.234219
883,0.113,0.234219
884,0.114,0.234219
885,0.115,0.234219
886,0.116,0.234219
887,0.117,0.234219
888,0.118,0.234219
889,0.119,0.235958
890,0.12,0.239435
891,0.121,0.237697
892,0.122,0.237697
893,0.123,0.237697
894,0.124,0.237697
895,0.125,0.239435
896,0.126,0.235958
897,0.127,0.235958
898,0.128,0.235958
899,0.129,0.234219
900,0.13,0.234219
901,0.131,0.237697
902,0.132,0.237697
903,0.133,0.237697
904,0.134,0.235958
905,0.135,0.237697
906,0.136,0.234219
907,0.137,0.234219
908,0.138,0.234219
909,0.139,0.234219
910,0.14,0.234219
911,0.141,0.234219
912,0.142,0.237697
913,0.143,0.235958
914,0.144,0.234219
915,0.145,0.234219
916,0.146,0.234219
917,0.147,0.234219
918,0.148,0.234219
919,0.149,0.234219
920,0.15,0.234219
921,0.151,0.234219
922,0.152,0.237697
923,0.153,0.235958
924,0.154,0.234219
925,0.155,0.234219
926,0.156,0.234219
927,0.157,0.234219
928,0.158,0.234219
929,0.159,0.234219
930,0.16,0.234219
931,0.161,0.234219
932,0.162,0.235958
933,0.163,0.235958
934,0.164,0.235958
935,0.165,0.237697
936,0.166,0.234219
937,0.167,0.234219
938,0.168,0.234219
939,0.169,0.234219
940,0.17,0.234219
941,0.171,0.234219
942,0.172,0.227263
943,0.173,0.222047
944,0.174,0.211614
945,0.175,0.204658
946,0.176,0.201181
947,0.177,0.201181
948,0.178,0.201181
949,0.179,0.199442
950,0.18,0.20292
951,0.181,0.201181
952,0.182,0.201181
953,0.183,0.201181
954,0.184,0.204658
955,0.185,0.20292
956,0.186,0.20292
957,0.187,0.20292
958,0.188,0.20292
959,0.189,0.201181
960,0.19,0.201181
961,0.191,0.201181
962,0.192,0.201181
963,0.193,0.201181
964,0.194,0.201181
965,0.195,0.201181
966,0.196,0.201181
967,0.197,0.201181
968,0.198,0.20292
969,0.199,0.20292
970,0.2,0.199442
971,0.201,0.20292
972,0.202,0.201181
973,0.203,0.201181
974,0.204,0.201181
975,0.205,0.201181
976,0.206,0.20292
977,0.207,0.20292
978,0.208,0.20292
979,0.209,0.204658
980,0.21,0.201181
981,0.211,0.197703
982,0.212,0.20292
983,0.213,0.201181
984,0.214,0.201181
985,0.215,0.201181
986,0.216,0.201181
987,0.217,0.204658
988,0.218,0.20292
989,0.219,0.20292
990,0.22,0.20292
991,0.221,0.201181
992,0.222,0.201181
993,0.223,0.201181
994,0.224,0.201181
995,0.225,0.201181
996,0.226,0.204658
997,0.227,0.20292
998,0.228,0.20292
999,0.229,0.20292
1000,0.23,0.20292
1001,0.231,0.20292
1002,0.232,0.199442
1003,0.233,0.20292
1004,0.234,0.201181
1005,0.235,0.201181
1006,0.236,0.201181
1007,0.237,0.201181
1008,0.238,0.20292
1009,0.239,0.20292
1010,0.24,0.20292
1011,0.241,0.204658
1012,0.242,0.201181
1013,0.243,0.197703
1014,0.244,0.20292
1015,0.245,0.201181
1016,0.246,0.201181
1017,0.247,0.20292
1018,0.248,0.20292
1019,0.249,0.20292
1020,0.25,0.20292
1021,0.251,0.20292
1022,0.252,0.20292
1023,0.253,0.201181
1024,0.254,0.201181
1025,0.255,0.201181
1026,0.256,0.201181
1027,0.257,0.201181
1028,0.258,0.20292
1029,0.259,0.20292
1030,0.26,0.20292
1031,0.261,0.20292
1032,0.262,0.20292
1033,0.263,0.20292
1034,0.264,0.199442
1035,0.265,0.20292
1036,0.266,0.201181
