measure/8MHz,30KB_RAM_52.2Ohm.csv

;Scopy version,f4beeb1
;Exported on,samedi mars 02/03/2024
;Device,M2K
;Nr of samples,8000
;Sample rate,1000
;Tool,Oscilloscope
;Additional Information,
Sample,Time(S),CH1(V)
0,-4.192,0.101877
1,-4.191,0.100138
2,-4.19,0.100138
3,-4.189,0.100138
4,-4.188,0.100138
5,-4.187,0.100138
6,-4.186,0.103616
7,-4.185,0.101877
8,-4.184,0.101877
9,-4.183,0.101877
10,-4.182,0.103616
11,-4.181,0.100138
12,-4.18,0.100138
13,-4.179,0.101877
14,-4.178,0.101877
15,-4.177,0.101877
16,-4.176,0.101877
17,-4.175,0.101877
18,-4.174,0.101877
19,-4.173,0.101877
20,-4.172,0.101877
21,-4.171,0.101877
22,-4.17,0.100138
23,-4.169,0.100138
24,-4.168,0.100138
25,-4.167,0.100138
26,-4.166,0.100138
27,-4.165,0.100138
28,-4.164,0.100138
29,-4.163,0.100138
30,-4.162,0.101877
31,-4.161,0.101877
32,-4.16,0.101877
33,-4.159,0.100138
34,-4.158,0.100138
35,-4.157,0.103616
36,-4.156,0.101877
37,-4.155,0.101877
38,-4.154,0.101877
39,-4.153,0.101877
40,-4.152,0.101877
41,-4.151,0.101877
42,-4.15,0.103616
43,-4.149,0.100138
44,-4.148,0.100138
45,-4.147,0.100138
46,-4.146,0.100138
47,-4.145,0.100138
48,-4.144,0.101877
49,-4.143,0.101877
50,-4.142,0.101877
51,-4.141,0.101877
52,-4.14,0.101877
53,-4.139,0.103616
54,-4.138,0.100138
55,-4.137,0.100138
56,-4.136,0.103616
57,-4.135,0.101877
58,-4.134,0.101877
59,-4.133,0.101877
60,-4.132,0.101877
61,-4.131,0.101877
62,-4.13,0.100138
63,-4.129,0.103616
64,-4.128,0.101877
65,-4.127,0.100138
66,-4.126,0.100138
67,-4.125,0.100138
68,-4.124,0.100138
69,-4.123,0.100138
70,-4.122,0.100138
71,-4.121,0.101877
72,-4.12,0.101877
73,-4.119,0.101877
74,-4.118,0.101877
75,-4.117,0.101877
76,-4.116,0.100138
77,-4.115,0.100138
78,-4.114,0.103616
79,-4.113,0.101877
80,-4.112,0.101877
81,-4.111,0.103616
82,-4.11,0.100138
83,-4.109,0.100138
84,-4.108,0.103616
85,-4.107,0.101877
86,-4.106,0.100138
87,-4.105,0.100138
88,-4.104,0.100138
89,-4.103,0.100138
90,-4.102,0.100138
91,-4.101,0.101877
92,-4.1,0.101877
93,-4.099,0.101877
94,-4.098,0.101877
95,-4.097,0.101877
96,-4.096,0.101877
97,-4.095,0.100138
98,-4.094,0.100138
99,-4.093,0.101877
100,-4.092,0.103616
101,-4.091,0.100138
102,-4.09,0.100138
103,-4.089,0.100138
104,-4.088,0.100138
105,-4.087,0.100138
106,-4.086,0.103616
107,-4.085,0.100138
108,-4.084,0.100138
109,-4.083,0.100138
110,-4.082,0.100138
111,-4.081,0.100138
112,-4.08,0.101877
113,-4.079,0.101877
114,-4.078,0.101877
115,-4.077,0.101877
116,-4.076,0.101877
117,-4.075,0.103616
118,-4.074,0.100138
119,-4.073,0.100138
120,-4.072,0.100138
121,-4.071,0.100138
122,-4.07,0.100138
123,-4.069,0.100138
124,-4.068,0.100138
125,-4.067,0.100138
126,-4.066,0.100138
127,-4.065,0.103616
128,-4.064,0.101877
129,-4.063,0.100138
130,-4.062,0.100138
131,-4.061,0.100138
132,-4.06,0.100138
133,-4.059,0.103616
134,-4.058,0.101877
135,-4.057,0.101877
136,-4.056,0.101877
137,-4.055,0.101877
138,-4.054,0.101877
139,-4.053,0.101877
140,-4.052,0.100138
141,-4.051,0.100138
142,-4.05,0.100138
143,-4.049,0.100138
144,-4.048,0.100138
145,-4.047,0.100138
146,-4.046,0.100138
147,-4.045,0.100138
148,-4.044,0.101877
149,-4.043,0.103616
150,-4.042,0.100138
151,-4.041,0.100138
152,-4.04,0.100138
153,-4.039,0.103616
154,-4.038,0.101877
155,-4.037,0.101877
156,-4.036,0.101877
157,-4.035,0.101877
158,-4.034,0.101877
159,-4.033,0.101877
160,-4.032,0.103616
161,-4.031,0.100138
162,-4.03,0.100138
163,-4.029,0.100138
164,-4.028,0.100138
165,-4.027,0.100138
166,-4.026,0.103616
167,-4.025,0.103616
168,-4.024,0.100138
169,-4.023,0.100138
170,-4.022,0.103616
171,-4.021,0.101877
172,-4.02,0.100138
173,-4.019,0.100138
174,-4.018,0.101877
175,-4.017,0.101877
176,-4.016,0.101877
177,-4.015,0.101877
178,-4.014,0.101877
179,-4.013,0.101877
180,-4.012,0.101877
181,-4.011,0.103616
182,-4.01,0.100138
183,-4.009,0.100138
184,-4.008,0.100138
185,-4.007,0.100138
186,-4.006,0.100138
187,-4.005,0.100138
188,-4.004,0.101877
189,-4.003,0.101877
190,-4.002,0.100138
191,-4.001,0.103616
192,-4,0.103616
193,-3.999,0.100138
194,-3.998,0.100138
195,-3.997,0.100138
196,-3.996,0.103616
197,-3.995,0.101877
198,-3.994,0.101877
199,-3.993,0.101877
200,-3.992,0.103616
201,-3.991,0.100138
202,-3.99,0.101877
203,-3.989,0.101877
204,-3.988,0.100138
205,-3.987,0.100138
206,-3.986,0.100138
207,-3.985,0.100138
208,-3.984,0.100138
209,-3.983,0.103616
210,-3.982,0.101877
211,-3.981,0.101877
212,-3.98,0.101877
213,-3.979,0.101877
214,-3.978,0.101877
215,-3.977,0.101877
216,-3.976,0.101877
217,-3.975,0.101877
218,-3.974,0.101877
219,-3.973,0.101877
220,-3.972,0.103616
221,-3.971,0.100138
222,-3.97,0.100138
223,-3.969,0.101877
224,-3.968,0.103616
225,-3.967,0.100138
226,-3.966,0.100138
227,-3.965,0.100138
228,-3.964,0.100138
229,-3.963,0.100138
230,-3.962,0.101877
231,-3.961,0.103616
232,-3.96,0.100138
233,-3.959,0.101877
234,-3.958,0.101877
235,-3.957,0.103616
236,-3.956,0.100138
237,-3.955,0.100138
238,-3.954,0.103616
239,-3.953,0.101877
240,-3.952,0.101877
241,-3.951,0.101877
242,-3.95,0.103616
243,-3.949,0.100138
244,-3.948,0.101877
245,-3.947,0.103616
246,-3.946,0.100138
247,-3.945,0.100138
248,-3.944,0.100138
249,-3.943,0.100138
250,-3.942,0.100138
251,-3.941,0.103616
252,-3.94,0.101877
253,-3.939,0.101877
254,-3.938,0.101877
255,-3.937,0.101877
256,-3.936,0.103616
257,-3.935,0.100138
258,-3.934,0.100138
259,-3.933,0.100138
260,-3.932,0.100138
261,-3.931,0.100138
262,-3.93,0.100138
263,-3.929,0.100138
264,-3.928,0.100138
265,-3.927,0.100138
266,-3.926,0.103616
267,-3.925,0.101877
268,-3.924,0.100138
269,-3.923,0.100138
270,-3.922,0.101877
271,-3.921,0.101877
272,-3.92,0.101877
273,-3.919,0.101877
274,-3.918,0.101877
275,-3.917,0.101877
276,-3.916,0.101877
277,-3.915,0.101877
278,-3.914,0.101877
279,-3.913,0.100138
280,-3.912,0.100138
281,-3.911,0.100138
282,-3.91,0.100138
283,-3.909,0.100138
284,-3.908,0.101877
285,-3.907,0.101877
286,-3.906,0.101877
287,-3.905,0.101877
288,-3.904,0.103616
289,-3.903,0.100138
290,-3.902,0.100138
291,-3.901,0.100138
292,-3.9,0.101877
293,-3.899,0.101877
294,-3.898,0.101877
295,-3.897,0.101877
296,-3.896,0.101877
297,-3.895,0.101877
298,-3.894,0.101877
299,-3.893,0.103616
300,-3.892,0.100138
301,-3.891,0.100138
302,-3.89,0.100138
303,-3.889,0.100138
304,-3.888,0.100138
305,-3.887,0.100138
306,-3.886,0.100138
307,-3.885,0.100138
308,-3.884,0.101877
309,-3.883,0.101877
310,-3.882,0.101877
311,-3.881,0.100138
312,-3.88,0.100138
313,-3.879,0.101877
314,-3.878,0.101877
315,-3.877,0.101877
316,-3.876,0.101877
317,-3.875,0.101877
318,-3.874,0.101877
319,-3.873,0.101877
320,-3.872,0.103616
321,-3.871,0.100138
322,-3.87,0.100138
323,-3.869,0.100138
324,-3.868,0.100138
325,-3.867,0.100138
326,-3.866,0.100138
327,-3.865,0.100138
328,-3.864,0.100138
329,-3.863,0.100138
330,-3.862,0.101877
331,-3.861,0.103616
332,-3.86,0.107094
333,-3.859,0.126221
334,-3.858,0.180125
335,-3.857,0.214902
336,-3.856,0.23403
337,-3.855,0.242724
338,-3.854,0.29489
339,-3.853,0.364444
340,-3.852,0.404437
341,-3.851,0.435737
342,-3.85,0.453125
343,-3.849,0.465297
344,-3.848,0.472252
345,-3.847,0.479208
346,-3.846,0.484424
347,-3.845,0.486163
348,-3.844,0.487902
349,-3.843,0.49138
350,-3.842,0.49138
351,-3.841,0.49138
352,-3.84,0.49138
353,-3.839,0.493119
354,-3.838,0.498335
355,-3.837,0.519201
356,-3.836,0.529634
357,-3.835,0.534851
358,-3.834,0.529634
359,-3.833,0.515724
360,-3.832,0.508768
361,-3.831,0.505291
362,-3.83,0.500074
363,-3.829,0.498335
364,-3.828,0.496596
365,-3.827,0.494857
366,-3.826,0.494857
367,-3.825,0.496596
368,-3.824,0.493119
369,-3.823,0.496596
370,-3.822,0.513985
371,-3.821,0.527896
372,-3.82,0.53659
373,-3.819,0.534851
374,-3.818,0.519201
375,-3.817,0.513985
376,-3.816,0.507029
377,-3.815,0.501813
378,-3.814,0.498335
379,-3.813,0.496596
380,-3.812,0.494857
381,-3.811,0.494857
382,-3.81,0.494857
383,-3.809,0.494857
384,-3.808,0.494857
385,-3.807,0.508768
386,-3.806,0.522679
387,-3.805,0.534851
388,-3.804,0.538329
389,-3.803,0.524418
390,-3.802,0.515724
391,-3.801,0.508768
392,-3.8,0.505291
393,-3.799,0.500074
394,-3.798,0.498335
395,-3.797,0.498335
396,-3.796,0.494857
397,-3.795,0.494857
398,-3.794,0.494857
399,-3.793,0.496596
400,-3.792,0.500074
401,-3.791,0.519201
402,-3.79,0.531373
403,-3.789,0.53659
404,-3.788,0.533112
405,-3.787,0.519201
406,-3.786,0.510507
407,-3.785,0.505291
408,-3.784,0.501813
409,-3.783,0.498335
410,-3.782,0.496596
411,-3.781,0.496596
412,-3.78,0.494857
413,-3.779,0.494857
414,-3.778,0.496596
415,-3.777,0.494857
416,-3.776,0.513985
417,-3.775,0.527896
418,-3.774,0.53659
419,-3.773,0.53659
420,-3.772,0.522679
421,-3.771,0.512246
422,-3.77,0.508768
423,-3.769,0.501813
424,-3.768,0.500074
425,-3.767,0.498335
426,-3.766,0.498335
427,-3.765,0.494857
428,-3.764,0.494857
429,-3.763,0.494857
430,-3.762,0.493119
431,-3.761,0.508768
432,-3.76,0.522679
433,-3.759,0.534851
434,-3.758,0.538329
435,-3.757,0.527896
436,-3.756,0.515724
437,-3.755,0.508768
438,-3.754,0.505291
439,-3.753,0.500074
440,-3.752,0.498335
441,-3.751,0.496596
442,-3.75,0.496596
443,-3.749,0.494857
444,-3.748,0.494857
445,-3.747,0.494857
446,-3.746,0.498335
447,-3.745,0.517462
448,-3.744,0.531373
449,-3.743,0.538329
450,-3.742,0.533112
451,-3.741,0.519201
452,-3.74,0.510507
453,-3.739,0.507029
454,-3.738,0.501813
455,-3.737,0.498335
456,-3.736,0.496596
457,-3.735,0.498335
458,-3.734,0.494857
459,-3.733,0.494857
460,-3.732,0.496596
461,-3.731,0.494857
462,-3.73,0.512246
463,-3.729,0.512246
464,-3.728,0.501813
465,-3.727,0.505291
466,-3.726,0.505291
467,-3.725,0.500074
468,-3.724,0.498335
469,-3.723,0.498335
470,-3.722,0.494857
471,-3.721,0.46008
472,-3.72,0.310539
473,-3.719,0.230552
474,-3.718,0.183603
475,-3.717,0.152304
476,-3.716,0.133176
477,-3.715,0.122743
478,-3.714,0.115788
479,-3.713,0.110571
480,-3.712,0.110571
481,-3.711,0.107094
482,-3.71,0.107094
483,-3.709,0.108833
484,-3.708,0.105355
485,-3.707,0.105355
486,-3.706,0.105355
487,-3.705,0.105355
488,-3.704,0.105355
489,-3.703,0.105355
490,-3.702,0.105355
491,-3.701,0.105355
492,-3.7,0.105355
493,-3.699,0.105355
494,-3.698,0.105355
495,-3.697,0.105355
496,-3.696,0.105355
497,-3.695,0.105355
498,-3.694,0.105355
499,-3.693,0.105355
500,-3.692,0.105355
501,-3.691,0.105355
502,-3.69,0.105355
503,-3.689,0.105355
504,-3.688,0.105355
505,-3.687,0.105355
506,-3.686,0.105355
507,-3.685,0.105355
508,-3.684,0.105355
509,-3.683,0.105355
510,-3.682,0.105355
511,-3.681,0.105355
512,-3.68,0.105355
513,-3.679,0.105355
514,-3.678,0.105355
515,-3.677,0.105355
516,-3.676,0.105355
517,-3.675,0.105355
518,-3.674,0.105355
519,-3.673,0.105355
520,-3.672,0.105355
521,-3.671,0.105355
522,-3.67,0.105355
523,-3.669,0.105355
524,-3.668,0.105355
525,-3.667,0.105355
526,-3.666,0.105355
527,-3.665,0.105355
528,-3.664,0.105355
529,-3.663,0.105355
530,-3.662,0.105355
531,-3.661,0.105355
532,-3.66,0.105355
533,-3.659,0.105355
534,-3.658,0.105355
535,-3.657,0.105355
536,-3.656,0.105355
537,-3.655,0.105355
538,-3.654,0.105355
539,-3.653,0.105355
540,-3.652,0.105355
541,-3.651,0.105355
542,-3.65,0.105355
543,-3.649,0.105355
544,-3.648,0.105355
545,-3.647,0.105355
546,-3.646,0.105355
547,-3.645,0.105355
548,-3.644,0.105355
549,-3.643,0.105355
550,-3.642,0.105355
551,-3.641,0.105355
552,-3.64,0.105355
553,-3.639,0.105355
554,-3.638,0.105355
555,-3.637,0.105355
556,-3.636,0.105355
557,-3.635,0.0949218
558,-3.634,0.0862275
559,-3.633,0.0827498
560,-3.632,0.0792721
561,-3.631,0.0775333
562,-3.63,0.0775333
563,-3.629,0.0757944
564,-3.628,0.0757944
565,-3.627,0.0775333
566,-3.626,0.0740556
567,-3.625,0.0740556
568,-3.624,0.0740556
569,-3.623,0.0740556
570,-3.622,0.0740556
571,-3.621,0.0740556
572,-3.62,0.0740556
573,-3.619,0.0740556
574,-3.618,0.0740556
575,-3.617,0.0740556
576,-3.616,0.0740556
577,-3.615,0.0740556
578,-3.614,0.0740556
579,-3.613,0.0740556
580,-3.612,0.0740556
581,-3.611,0.0740556
582,-3.61,0.0740556
583,-3.609,0.0740556
584,-3.608,0.0740556
585,-3.607,0.0740556
586,-3.606,0.0740556
587,-3.605,0.0740556
588,-3.604,0.0740556
589,-3.603,0.0740556
590,-3.602,0.0740556
591,-3.601,0.0740556
592,-3.6,0.0740556
593,-3.599,0.0740556
594,-3.598,0.0740556
595,-3.597,0.0740556
596,-3.596,0.0740556
597,-3.595,0.0740556
598,-3.594,0.0740556
599,-3.593,0.0740556
600,-3.592,0.0740556
601,-3.591,0.0740556
602,-3.59,0.0740556
603,-3.589,0.0740556
604,-3.588,0.0740556
605,-3.587,0.0740556
606,-3.586,0.0740556
607,-3.585,0.0740556
608,-3.584,0.0740556
609,-3.583,0.0740556
610,-3.582,0.0740556
611,-3.581,0.0740556
612,-3.58,0.0740556
613,-3.579,0.0740556
614,-3.578,0.0740556
615,-3.577,0.0740556
616,-3.576,0.0740556
617,-3.575,0.0740556
618,-3.574,0.0740556
619,-3.573,0.0775333
620,-3.572,0.0879664
621,-3.571,0.0949218
622,-3.57,0.103616
623,-3.569,0.107094
624,-3.568,0.114049
625,-3.567,0.115788
626,-3.566,0.115788
627,-3.565,0.110571
628,-3.564,0.108833
629,-3.563,0.108833
630,-3.562,0.110571
631,-3.561,0.107094
632,-3.56,0.107094
633,-3.559,0.101877
634,-3.558,0.0914441
635,-3.557,0.0844887
636,-3.556,0.0792721
637,-3.555,0.0792721
638,-3.554,0.0775333
639,-3.553,0.0757944
640,-3.552,0.0757944
641,-3.551,0.0775333
642,-3.55,0.0740556
643,-3.549,0.0740556
644,-3.548,0.0740556
645,-3.547,0.0740556
646,-3.546,0.0740556
647,-3.545,0.0740556
648,-3.544,0.0740556
649,-3.543,0.0740556
650,-3.542,0.0740556
651,-3.541,0.0740556
652,-3.54,0.0740556
653,-3.539,0.0740556
654,-3.538,0.0740556
655,-3.537,0.0740556
656,-3.536,0.0740556
657,-3.535,0.0740556
658,-3.534,0.0740556
659,-3.533,0.0740556
660,-3.532,0.0740556
661,-3.531,0.0740556
662,-3.53,0.0740556
663,-3.529,0.0740556
664,-3.528,0.0740556
665,-3.527,0.0740556
666,-3.526,0.0740556
667,-3.525,0.0740556
668,-3.524,0.0740556
669,-3.523,0.0740556
670,-3.522,0.0740556
671,-3.521,0.0740556
672,-3.52,0.0740556
673,-3.519,0.0740556
674,-3.518,0.0740556
675,-3.517,0.0740556
676,-3.516,0.0740556
677,-3.515,0.0740556
678,-3.514,0.0740556
679,-3.513,0.0740556
680,-3.512,0.0740556
681,-3.511,0.0757944
682,-3.51,0.0792721
683,-3.509,0.0931829
684,-3.508,0.0966606
685,-3.507,0.105355
686,-3.506,0.108833
687,-3.505,0.115788
688,-3.504,0.115788
689,-3.503,0.114049
690,-3.502,0.110571
691,-3.501,0.108833
692,-3.5,0.108833
693,-3.499,0.107094
694,-3.498,0.107094
695,-3.497,0.107094
696,-3.496,0.100138
697,-3.495,0.0879664
698,-3.494,0.0844887
699,-3.493,0.081011
700,-3.492,0.0775333
701,-3.491,0.0775333
702,-3.49,0.0757944
703,-3.489,0.0757944
704,-3.488,0.0757944
705,-3.487,0.0740556
706,-3.486,0.0740556
707,-3.485,0.0740556
708,-3.484,0.0740556
709,-3.483,0.0740556
710,-3.482,0.0740556
711,-3.481,0.0740556
712,-3.48,0.0740556
713,-3.479,0.0740556
714,-3.478,0.0740556
715,-3.477,0.0740556
716,-3.476,0.0740556
717,-3.475,0.0740556
718,-3.474,0.0740556
719,-3.473,0.0740556
720,-3.472,0.0740556
721,-3.471,0.0740556
722,-3.47,0.0740556
723,-3.469,0.0740556
724,-3.468,0.0740556
725,-3.467,0.0740556
726,-3.466,0.0740556
727,-3.465,0.0740556
728,-3.464,0.0740556
729,-3.463,0.0740556
730,-3.462,0.0740556
731,-3.461,0.0740556
732,-3.46,0.0740556
733,-3.459,0.0740556
734,-3.458,0.0740556
735,-3.457,0.0740556
736,-3.456,0.0740556
737,-3.455,0.0740556
738,-3.454,0.0740556
739,-3.453,0.0740556
740,-3.452,0.0740556
741,-3.451,0.0740556
742,-3.45,0.0740556
743,-3.449,0.0740556
744,-3.448,0.0740556
745,-3.447,0.0827498
746,-3.446,0.0949218
747,-3.445,0.100138
748,-3.444,0.105355
749,-3.443,0.110571
750,-3.442,0.115788
751,-3.441,0.115788
752,-3.44,0.114049
753,-3.439,0.110571
754,-3.438,0.108833
755,-3.437,0.108833
756,-3.436,0.110571
757,-3.435,0.107094
758,-3.434,0.105355
759,-3.433,0.0966606
760,-3.432,0.0879664
761,-3.431,0.0827498
762,-3.43,0.0792721
763,-3.429,0.0775333
764,-3.428,0.0757944
765,-3.427,0.0757944
766,-3.426,0.0757944
767,-3.425,0.0757944
768,-3.424,0.0740556
769,-3.423,0.0740556
770,-3.422,0.0740556
771,-3.421,0.0740556
772,-3.42,0.0740556
773,-3.419,0.0740556
774,-3.418,0.0740556
775,-3.417,0.0740556
776,-3.416,0.0740556
777,-3.415,0.0740556
778,-3.414,0.0740556
779,-3.413,0.0740556
780,-3.412,0.0740556
781,-3.411,0.0740556
782,-3.41,0.0740556
783,-3.409,0.0740556
784,-3.408,0.0740556
785,-3.407,0.0740556
786,-3.406,0.0740556
787,-3.405,0.0740556
788,-3.404,0.0740556
789,-3.403,0.0740556
790,-3.402,0.0740556
791,-3.401,0.0740556
792,-3.4,0.0740556
793,-3.399,0.0740556
794,-3.398,0.0740556
795,-3.397,0.0740556
796,-3.396,0.0740556
797,-3.395,0.0740556
798,-3.394,0.0740556
799,-3.393,0.0740556
800,-3.392,0.0740556
801,-3.391,0.0740556
802,-3.39,0.0740556
803,-3.389,0.0740556
804,-3.388,0.0740556
805,-3.387,0.0740556
806,-3.386,0.0740556
807,-3.385,0.0757944
808,-3.384,0.0862275
809,-3.383,0.0949218
810,-3.382,0.101877
811,-3.381,0.107094
812,-3.38,0.110571
813,-3.379,0.117527
814,-3.378,0.114049
815,-3.377,0.114049
816,-3.376,0.108833
817,-3.375,0.108833
818,-3.374,0.108833
819,-3.373,0.107094
820,-3.372,0.107094
821,-3.371,0.105355
822,-3.37,0.0949218
823,-3.369,0.0862275
824,-3.368,0.0827498
825,-3.367,0.0792721
826,-3.366,0.0792721
827,-3.365,0.0757944
828,-3.364,0.0757944
829,-3.363,0.0775333
830,-3.362,0.0740556
831,-3.361,0.0740556
832,-3.36,0.0740556
833,-3.359,0.0740556
834,-3.358,0.0740556
835,-3.357,0.0740556
836,-3.356,0.0740556
837,-3.355,0.0740556
838,-3.354,0.0740556
839,-3.353,0.0740556
840,-3.352,0.0740556
841,-3.351,0.0740556
842,-3.35,0.0740556
843,-3.349,0.0740556
844,-3.348,0.0740556
845,-3.347,0.0740556
846,-3.346,0.0740556
847,-3.345,0.0740556
848,-3.344,0.0740556
849,-3.343,0.0740556
850,-3.342,0.0740556
851,-3.341,0.0740556
852,-3.34,0.0740556
853,-3.339,0.0740556
854,-3.338,0.0740556
855,-3.337,0.0740556
856,-3.336,0.0740556
857,-3.335,0.0740556
858,-3.334,0.0740556
859,-3.333,0.0740556
860,-3.332,0.0740556
861,-3.331,0.0740556
862,-3.33,0.0740556
863,-3.329,0.0740556
864,-3.328,0.0740556
865,-3.327,0.0740556
866,-3.326,0.0740556
867,-3.325,0.0740556
868,-3.324,0.0740556
869,-3.323,0.0740556
870,-3.322,0.0792721
871,-3.321,0.0879664
872,-3.32,0.0949218
873,-3.319,0.103616
874,-3.318,0.108833
875,-3.317,0.114049
876,-3.316,0.117527
877,-3.315,0.114049
878,-3.314,0.110571
879,-3.313,0.108833
880,-3.312,0.107094
881,-3.311,0.108833
882,-3.31,0.107094
883,-3.309,0.107094
884,-3.308,0.101877
885,-3.307,0.0914441
886,-3.306,0.0844887
887,-3.305,0.0792721
888,-3.304,0.0792721
889,-3.303,0.0775333
890,-3.302,0.0757944
891,-3.301,0.0757944
892,-3.3,0.0757944
893,-3.299,0.0757944
894,-3.298,0.0740556
895,-3.297,0.0740556
896,-3.296,0.0740556
897,-3.295,0.0740556
898,-3.294,0.0740556
899,-3.293,0.0740556
900,-3.292,0.0740556
901,-3.291,0.0740556
902,-3.29,0.0740556
903,-3.289,0.0740556
904,-3.288,0.0740556
905,-3.287,0.0740556
906,-3.286,0.0740556
907,-3.285,0.0740556
908,-3.284,0.0740556
909,-3.283,0.0740556
910,-3.282,0.0740556
911,-3.281,0.0740556
912,-3.28,0.0740556
913,-3.279,0.0740556
914,-3.278,0.0740556
915,-3.277,0.0740556
916,-3.276,0.0740556
917,-3.275,0.0740556
918,-3.274,0.0740556
919,-3.273,0.0740556
920,-3.272,0.0740556
921,-3.271,0.0740556
922,-3.27,0.0740556
923,-3.269,0.0740556
924,-3.268,0.0740556
925,-3.267,0.0740556
926,-3.266,0.0740556
927,-3.265,0.0740556
928,-3.264,0.0740556
929,-3.263,0.0740556
930,-3.262,0.0740556
931,-3.261,0.0740556
932,-3.26,0.0757944
933,-3.259,0.0792721
934,-3.258,0.0931829
935,-3.257,0.0966606
936,-3.256,0.105355
937,-3.255,0.108833
938,-3.254,0.117527
939,-3.253,0.117527
940,-3.252,0.114049
941,-3.251,0.110571
942,-3.25,0.108833
943,-3.249,0.108833
944,-3.248,0.108833
945,-3.247,0.108833
946,-3.246,0.105355
947,-3.245,0.100138
948,-3.244,0.0879664
949,-3.243,0.0844887
950,-3.242,0.081011
951,-3.241,0.0775333
952,-3.24,0.0775333
953,-3.239,0.0757944
954,-3.238,0.0757944
955,-3.237,0.0757944
956,-3.236,0.0757944
957,-3.235,0.0740556
958,-3.234,0.0740556
959,-3.233,0.0740556
960,-3.232,0.0740556
961,-3.231,0.0740556
962,-3.23,0.0740556
963,-3.229,0.0740556
964,-3.228,0.0740556
965,-3.227,0.0740556
966,-3.226,0.0740556
967,-3.225,0.0740556
968,-3.224,0.0740556
969,-3.223,0.0740556
970,-3.222,0.0740556
971,-3.221,0.0740556
972,-3.22,0.0740556
973,-3.219,0.0740556
974,-3.218,0.0740556
975,-3.217,0.0740556
976,-3.216,0.0740556
977,-3.215,0.0740556
978,-3.214,0.0740556
979,-3.213,0.0740556
980,-3.212,0.0740556
981,-3.211,0.0740556
982,-3.21,0.0740556
983,-3.209,0.0740556
984,-3.208,0.0740556
