measure/8MHz,SRAM1_Deactivated_99.9Ohm.csv

;Scopy version,f4beeb1
;Exported on,dimanche mars 03/03/2024
;Device,M2K
;Nr of samples,160000
;Sample rate,10000
;Tool,Oscilloscope
;Additional Information,
Sample,Time(S),CH1(V)
0,-0.8192,0.21741
1,-0.8191,0.21741
2,-0.819,0.21741
3,-0.8189,0.21741
4,-0.8188,0.21741
5,-0.8187,0.21741
6,-0.8186,0.219066
7,-0.8185,0.215754
8,-0.8184,0.215754
9,-0.8183,0.215754
10,-0.8182,0.215754
11,-0.8181,0.215754
12,-0.818,0.215754
13,-0.8179,0.215754
14,-0.8178,0.215754
15,-0.8177,0.215754
16,-0.8176,0.215754
17,-0.8175,0.214098
18,-0.8174,0.214098
19,-0.8173,0.214098
20,-0.8172,0.214098
21,-0.8171,0.214098
22,-0.817,0.214098
23,-0.8169,0.214098
24,-0.8168,0.215754
25,-0.8167,0.212442
26,-0.8166,0.212442
27,-0.8165,0.212442
28,-0.8164,0.212442
29,-0.8163,0.214098
30,-0.8162,0.210786
31,-0.8161,0.210786
32,-0.816,0.210786
33,-0.8159,0.210786
34,-0.8158,0.210786
35,-0.8157,0.210786
36,-0.8156,0.210786
37,-0.8155,0.20913
38,-0.8154,0.20913
39,-0.8153,0.20913
40,-0.8152,0.20913
41,-0.8151,0.20913
42,-0.815,0.20913
43,-0.8149,0.20913
44,-0.8148,0.20913
45,-0.8147,0.20913
46,-0.8146,0.20913
47,-0.8145,0.20913
48,-0.8144,0.20913
49,-0.8143,0.20913
50,-0.8142,0.20913
51,-0.8141,0.20913
52,-0.814,0.20913
53,-0.8139,0.20913
54,-0.8138,0.20913
55,-0.8137,0.20913
56,-0.8136,0.20913
57,-0.8135,0.20913
58,-0.8134,0.20913
59,-0.8133,0.20913
60,-0.8132,0.20913
61,-0.8131,0.20913
62,-0.813,0.20913
63,-0.8129,0.20913
64,-0.8128,0.210786
65,-0.8127,0.207474
66,-0.8126,0.207474
67,-0.8125,0.207474
68,-0.8124,0.207474
69,-0.8123,0.207474
70,-0.8122,0.205818
71,-0.8121,0.205818
72,-0.812,0.205818
73,-0.8119,0.205818
74,-0.8118,0.205818
75,-0.8117,0.204162
76,-0.8116,0.204162
77,-0.8115,0.204162
78,-0.8114,0.204162
79,-0.8113,0.204162
80,-0.8112,0.204162
81,-0.8111,0.204162
82,-0.811,0.204162
83,-0.8109,0.202506
84,-0.8108,0.204162
85,-0.8107,0.199193
86,-0.8106,0.197537
87,-0.8105,0.192569
88,-0.8104,0.192569
89,-0.8103,0.187601
90,-0.8102,0.187601
91,-0.8101,0.184289
92,-0.81,0.180977
93,-0.8099,0.180977
94,-0.8098,0.177665
95,-0.8097,0.176009
96,-0.8096,0.172697
97,-0.8095,0.171041
98,-0.8094,0.169385
99,-0.8093,0.169385
100,-0.8092,0.167728
101,-0.8091,0.167728
102,-0.809,0.164416
103,-0.8089,0.16276
104,-0.8088,0.161104
105,-0.8087,0.161104
106,-0.8086,0.159448
107,-0.8085,0.159448
108,-0.8084,0.156136
109,-0.8083,0.15448
110,-0.8082,0.15448
111,-0.8081,0.152824
112,-0.808,0.152824
113,-0.8079,0.151168
114,-0.8078,0.151168
115,-0.8077,0.149512
116,-0.8076,0.149512
117,-0.8075,0.147856
118,-0.8074,0.147856
119,-0.8073,0.147856
120,-0.8072,0.1462
121,-0.8071,0.1462
122,-0.807,0.144544
123,-0.8069,0.144544
124,-0.8068,0.144544
125,-0.8067,0.142888
126,-0.8066,0.142888
127,-0.8065,0.142888
128,-0.8064,0.142888
129,-0.8063,0.142888
130,-0.8062,0.141232
131,-0.8061,0.141232
132,-0.806,0.141232
133,-0.8059,0.141232
134,-0.8058,0.141232
135,-0.8057,0.139576
136,-0.8056,0.139576
137,-0.8055,0.139576
138,-0.8054,0.139576
139,-0.8053,0.139576
140,-0.8052,0.139576
141,-0.8051,0.13792
142,-0.805,0.13792
143,-0.8049,0.13792
144,-0.8048,0.13792
145,-0.8047,0.13792
146,-0.8046,0.13792
147,-0.8045,0.13792
148,-0.8044,0.13792
149,-0.8043,0.13792
150,-0.8042,0.136264
151,-0.8041,0.136264
152,-0.804,0.136264
153,-0.8039,0.136264
154,-0.8038,0.136264
155,-0.8037,0.136264
156,-0.8036,0.136264
157,-0.8035,0.136264
158,-0.8034,0.136264
159,-0.8033,0.136264
160,-0.8032,0.136264
161,-0.8031,0.136264
162,-0.803,0.132951
163,-0.8029,0.132951
164,-0.8028,0.132951
165,-0.8027,0.132951
166,-0.8026,0.132951
167,-0.8025,0.132951
168,-0.8024,0.132951
169,-0.8023,0.132951
170,-0.8022,0.132951
171,-0.8021,0.132951
172,-0.802,0.132951
173,-0.8019,0.132951
174,-0.8018,0.132951
175,-0.8017,0.132951
176,-0.8016,0.132951
177,-0.8015,0.132951
178,-0.8014,0.132951
179,-0.8013,0.132951
180,-0.8012,0.132951
181,-0.8011,0.132951
182,-0.801,0.132951
183,-0.8009,0.132951
184,-0.8008,0.132951
185,-0.8007,0.132951
186,-0.8006,0.132951
187,-0.8005,0.132951
188,-0.8004,0.132951
189,-0.8003,0.132951
190,-0.8002,0.132951
191,-0.8001,0.132951
192,-0.8,0.132951
193,-0.7999,0.131295
194,-0.7998,0.131295
195,-0.7997,0.131295
196,-0.7996,0.131295
197,-0.7995,0.131295
198,-0.7994,0.132951
199,-0.7993,0.131295
200,-0.7992,0.131295
201,-0.7991,0.131295
202,-0.799,0.131295
203,-0.7989,0.131295
204,-0.7988,0.131295
205,-0.7987,0.131295
206,-0.7986,0.131295
207,-0.7985,0.131295
208,-0.7984,0.131295
209,-0.7983,0.131295
210,-0.7982,0.131295
211,-0.7981,0.131295
212,-0.798,0.131295
213,-0.7979,0.131295
214,-0.7978,0.131295
215,-0.7977,0.131295
216,-0.7976,0.131295
217,-0.7975,0.131295
218,-0.7974,0.131295
219,-0.7973,0.131295
220,-0.7972,0.131295
221,-0.7971,0.131295
222,-0.797,0.131295
223,-0.7969,0.131295
224,-0.7968,0.131295
225,-0.7967,0.131295
226,-0.7966,0.131295
227,-0.7965,0.131295
228,-0.7964,0.131295
229,-0.7963,0.131295
230,-0.7962,0.131295
231,-0.7961,0.131295
232,-0.796,0.131295
233,-0.7959,0.131295
234,-0.7958,0.131295
235,-0.7957,0.131295
236,-0.7956,0.131295
237,-0.7955,0.131295
238,-0.7954,0.131295
239,-0.7953,0.131295
240,-0.7952,0.131295
241,-0.7951,0.131295
242,-0.795,0.131295
243,-0.7949,0.131295
244,-0.7948,0.131295
245,-0.7947,0.131295
246,-0.7946,0.131295
247,-0.7945,0.131295
248,-0.7944,0.131295
249,-0.7943,0.131295
250,-0.7942,0.131295
251,-0.7941,0.131295
252,-0.794,0.131295
253,-0.7939,0.131295
254,-0.7938,0.131295
255,-0.7937,0.131295
256,-0.7936,0.131295
257,-0.7935,0.131295
258,-0.7934,0.131295
259,-0.7933,0.131295
260,-0.7932,0.131295
261,-0.7931,0.131295
262,-0.793,0.131295
263,-0.7929,0.131295
264,-0.7928,0.131295
265,-0.7927,0.131295
266,-0.7926,0.131295
267,-0.7925,0.131295
268,-0.7924,0.131295
269,-0.7923,0.131295
270,-0.7922,0.131295
271,-0.7921,0.131295
272,-0.792,0.131295
273,-0.7919,0.131295
274,-0.7918,0.131295
275,-0.7917,0.131295
276,-0.7916,0.131295
277,-0.7915,0.131295
278,-0.7914,0.131295
279,-0.7913,0.131295
280,-0.7912,0.131295
281,-0.7911,0.131295
282,-0.791,0.131295
283,-0.7909,0.131295
284,-0.7908,0.131295
285,-0.7907,0.131295
286,-0.7906,0.131295
287,-0.7905,0.131295
288,-0.7904,0.131295
289,-0.7903,0.131295
290,-0.7902,0.131295
291,-0.7901,0.131295
292,-0.79,0.131295
293,-0.7899,0.131295
294,-0.7898,0.131295
295,-0.7897,0.131295
296,-0.7896,0.131295
297,-0.7895,0.131295
298,-0.7894,0.131295
299,-0.7893,0.131295
300,-0.7892,0.131295
301,-0.7891,0.131295
302,-0.789,0.131295
303,-0.7889,0.131295
304,-0.7888,0.131295
305,-0.7887,0.131295
306,-0.7886,0.131295
307,-0.7885,0.131295
308,-0.7884,0.131295
309,-0.7883,0.131295
310,-0.7882,0.131295
311,-0.7881,0.131295
312,-0.788,0.131295
313,-0.7879,0.131295
314,-0.7878,0.131295
315,-0.7877,0.131295
316,-0.7876,0.131295
317,-0.7875,0.131295
318,-0.7874,0.131295
319,-0.7873,0.131295
320,-0.7872,0.131295
321,-0.7871,0.131295
322,-0.787,0.131295
323,-0.7869,0.131295
324,-0.7868,0.131295
325,-0.7867,0.131295
326,-0.7866,0.131295
327,-0.7865,0.131295
328,-0.7864,0.131295
329,-0.7863,0.131295
330,-0.7862,0.131295
331,-0.7861,0.131295
332,-0.786,0.131295
333,-0.7859,0.131295
334,-0.7858,0.131295
335,-0.7857,0.131295
336,-0.7856,0.131295
337,-0.7855,0.131295
338,-0.7854,0.131295
339,-0.7853,0.131295
340,-0.7852,0.131295
341,-0.7851,0.131295
342,-0.785,0.131295
343,-0.7849,0.131295
344,-0.7848,0.131295
345,-0.7847,0.131295
346,-0.7846,0.131295
347,-0.7845,0.131295
348,-0.7844,0.131295
349,-0.7843,0.131295
350,-0.7842,0.131295
351,-0.7841,0.131295
352,-0.784,0.131295
353,-0.7839,0.131295
354,-0.7838,0.131295
355,-0.7837,0.131295
356,-0.7836,0.131295
357,-0.7835,0.131295
358,-0.7834,0.131295
359,-0.7833,0.131295
360,-0.7832,0.131295
361,-0.7831,0.131295
362,-0.783,0.131295
363,-0.7829,0.131295
364,-0.7828,0.131295
365,-0.7827,0.131295
366,-0.7826,0.131295
367,-0.7825,0.131295
368,-0.7824,0.131295
369,-0.7823,0.131295
370,-0.7822,0.131295
371,-0.7821,0.131295
372,-0.782,0.131295
373,-0.7819,0.131295
374,-0.7818,0.131295
375,-0.7817,0.131295
376,-0.7816,0.131295
377,-0.7815,0.131295
378,-0.7814,0.131295
379,-0.7813,0.131295
380,-0.7812,0.131295
381,-0.7811,0.131295
382,-0.781,0.131295
383,-0.7809,0.131295
384,-0.7808,0.131295
385,-0.7807,0.131295
386,-0.7806,0.131295
387,-0.7805,0.131295
388,-0.7804,0.131295
389,-0.7803,0.131295
390,-0.7802,0.131295
391,-0.7801,0.131295
392,-0.78,0.131295
393,-0.7799,0.131295
394,-0.7798,0.131295
395,-0.7797,0.131295
396,-0.7796,0.131295
397,-0.7795,0.131295
398,-0.7794,0.131295
399,-0.7793,0.131295
400,-0.7792,0.131295
401,-0.7791,0.131295
402,-0.779,0.131295
403,-0.7789,0.131295
404,-0.7788,0.131295
405,-0.7787,0.131295
406,-0.7786,0.131295
407,-0.7785,0.131295
408,-0.7784,0.131295
409,-0.7783,0.131295
410,-0.7782,0.131295
411,-0.7781,0.131295
412,-0.778,0.131295
413,-0.7779,0.131295
414,-0.7778,0.131295
415,-0.7777,0.131295
416,-0.7776,0.131295
417,-0.7775,0.131295
418,-0.7774,0.131295
419,-0.7773,0.131295
420,-0.7772,0.131295
421,-0.7771,0.131295
422,-0.777,0.131295
423,-0.7769,0.131295
424,-0.7768,0.131295
425,-0.7767,0.131295
426,-0.7766,0.131295
427,-0.7765,0.131295
428,-0.7764,0.131295
429,-0.7763,0.131295
430,-0.7762,0.131295
431,-0.7761,0.131295
432,-0.776,0.131295
433,-0.7759,0.131295
434,-0.7758,0.131295
435,-0.7757,0.131295
436,-0.7756,0.131295
437,-0.7755,0.131295
438,-0.7754,0.131295
439,-0.7753,0.131295
440,-0.7752,0.131295
441,-0.7751,0.131295
442,-0.775,0.131295
443,-0.7749,0.131295
444,-0.7748,0.131295
445,-0.7747,0.131295
446,-0.7746,0.131295
447,-0.7745,0.131295
448,-0.7744,0.131295
449,-0.7743,0.131295
450,-0.7742,0.131295
451,-0.7741,0.131295
452,-0.774,0.131295
453,-0.7739,0.131295
454,-0.7738,0.131295
455,-0.7737,0.131295
456,-0.7736,0.131295
457,-0.7735,0.131295
458,-0.7734,0.131295
459,-0.7733,0.131295
460,-0.7732,0.131295
461,-0.7731,0.131295
462,-0.773,0.131295
463,-0.7729,0.131295
464,-0.7728,0.131295
465,-0.7727,0.131295
466,-0.7726,0.131295
467,-0.7725,0.131295
468,-0.7724,0.131295
469,-0.7723,0.131295
470,-0.7722,0.131295
471,-0.7721,0.131295
472,-0.772,0.131295
473,-0.7719,0.131295
474,-0.7718,0.131295
475,-0.7717,0.131295
476,-0.7716,0.131295
477,-0.7715,0.131295
478,-0.7714,0.131295
479,-0.7713,0.131295
480,-0.7712,0.131295
481,-0.7711,0.131295
482,-0.771,0.131295
483,-0.7709,0.131295
484,-0.7708,0.131295
485,-0.7707,0.131295
486,-0.7706,0.131295
487,-0.7705,0.131295
488,-0.7704,0.131295
489,-0.7703,0.131295
490,-0.7702,0.131295
491,-0.7701,0.131295
492,-0.77,0.131295
493,-0.7699,0.131295
494,-0.7698,0.131295
495,-0.7697,0.131295
496,-0.7696,0.131295
497,-0.7695,0.131295
498,-0.7694,0.131295
499,-0.7693,0.131295
500,-0.7692,0.131295
501,-0.7691,0.131295
502,-0.769,0.131295
503,-0.7689,0.131295
504,-0.7688,0.131295
505,-0.7687,0.131295
506,-0.7686,0.131295
507,-0.7685,0.131295
508,-0.7684,0.131295
509,-0.7683,0.131295
510,-0.7682,0.131295
511,-0.7681,0.131295
512,-0.768,0.131295
513,-0.7679,0.131295
514,-0.7678,0.131295
515,-0.7677,0.131295
516,-0.7676,0.131295
517,-0.7675,0.131295
518,-0.7674,0.131295
519,-0.7673,0.131295
520,-0.7672,0.131295
521,-0.7671,0.131295
522,-0.767,0.131295
523,-0.7669,0.131295
524,-0.7668,0.131295
525,-0.7667,0.131295
526,-0.7666,0.131295
527,-0.7665,0.131295
528,-0.7664,0.131295
529,-0.7663,0.131295
530,-0.7662,0.131295
531,-0.7661,0.131295
532,-0.766,0.131295
533,-0.7659,0.131295
534,-0.7658,0.131295
535,-0.7657,0.131295
536,-0.7656,0.131295
537,-0.7655,0.131295
538,-0.7654,0.131295
539,-0.7653,0.131295
540,-0.7652,0.131295
541,-0.7651,0.131295
542,-0.765,0.131295
543,-0.7649,0.131295
544,-0.7648,0.131295
545,-0.7647,0.131295
546,-0.7646,0.131295
547,-0.7645,0.131295
548,-0.7644,0.131295
549,-0.7643,0.131295
550,-0.7642,0.131295
551,-0.7641,0.131295
552,-0.764,0.131295
553,-0.7639,0.131295
554,-0.7638,0.131295
555,-0.7637,0.131295
556,-0.7636,0.131295
557,-0.7635,0.131295
558,-0.7634,0.131295
559,-0.7633,0.131295
560,-0.7632,0.131295
561,-0.7631,0.131295
562,-0.763,0.131295
563,-0.7629,0.131295
564,-0.7628,0.131295
565,-0.7627,0.131295
566,-0.7626,0.131295
567,-0.7625,0.131295
568,-0.7624,0.131295
569,-0.7623,0.136264
570,-0.7622,0.139576
571,-0.7621,0.144544
572,-0.762,0.144544
573,-0.7619,0.149512
574,-0.7618,0.149512
575,-0.7617,0.152824
576,-0.7616,0.15448
577,-0.7615,0.156136
578,-0.7614,0.161104
579,-0.7613,0.16276
580,-0.7612,0.164416
581,-0.7611,0.166072
582,-0.761,0.166072
583,-0.7609,0.167728
584,-0.7608,0.169385
585,-0.7607,0.171041
586,-0.7606,0.174353
587,-0.7605,0.174353
588,-0.7604,0.174353
589,-0.7603,0.177665
590,-0.7602,0.177665
591,-0.7601,0.177665
592,-0.76,0.180977
593,-0.7599,0.182633
594,-0.7598,0.185945
595,-0.7597,0.185945
596,-0.7596,0.187601
597,-0.7595,0.189257
598,-0.7594,0.190913
599,-0.7593,0.192569
600,-0.7592,0.194225
601,-0.7591,0.195881
602,-0.759,0.195881
603,-0.7589,0.199193
604,-0.7588,0.197537
605,-0.7587,0.202506
606,-0.7586,0.199193
607,-0.7585,0.204162
608,-0.7584,0.202506
609,-0.7583,0.204162
610,-0.7582,0.204162
611,-0.7581,0.204162
612,-0.758,0.207474
613,-0.7579,0.205818
614,-0.7578,0.205818
615,-0.7577,0.205818
616,-0.7576,0.205818
617,-0.7575,0.207474
618,-0.7574,0.20913
619,-0.7573,0.210786
620,-0.7572,0.214098
621,-0.7571,0.214098
622,-0.757,0.214098
623,-0.7569,0.215754
624,-0.7568,0.219066
625,-0.7567,0.21741
626,-0.7566,0.21741
627,-0.7565,0.21741
628,-0.7564,0.21741
629,-0.7563,0.21741
630,-0.7562,0.21741
631,-0.7561,0.21741
632,-0.756,0.21741
633,-0.7559,0.21741
634,-0.7558,0.215754
635,-0.7557,0.215754
636,-0.7556,0.215754
637,-0.7555,0.215754
638,-0.7554,0.215754
639,-0.7553,0.215754
640,-0.7552,0.215754
641,-0.7551,0.215754
642,-0.755,0.215754
643,-0.7549,0.21741
644,-0.7548,0.214098
645,-0.7547,0.214098
646,-0.7546,0.214098
647,-0.7545,0.214098
648,-0.7544,0.214098
649,-0.7543,0.214098
650,-0.7542,0.214098
651,-0.7541,0.212442
652,-0.754,0.212442
653,-0.7539,0.212442
654,-0.7538,0.212442
655,-0.7537,0.212442
656,-0.7536,0.210786
657,-0.7535,0.210786
658,-0.7534,0.210786
659,-0.7533,0.210786
660,-0.7532,0.210786
661,-0.7531,0.210786
662,-0.753,0.20913
663,-0.7529,0.20913
664,-0.7528,0.20913
665,-0.7527,0.20913
666,-0.7526,0.20913
667,-0.7525,0.20913
668,-0.7524,0.20913
669,-0.7523,0.20913
670,-0.7522,0.20913
671,-0.7521,0.20913
672,-0.752,0.20913
673,-0.7519,0.20913
674,-0.7518,0.20913
675,-0.7517,0.20913
676,-0.7516,0.20913
677,-0.7515,0.20913
678,-0.7514,0.20913
679,-0.7513,0.20913
680,-0.7512,0.20913
681,-0.7511,0.20913
682,-0.751,0.20913
683,-0.7509,0.20913
684,-0.7508,0.20913
685,-0.7507,0.20913
686,-0.7506,0.20913
687,-0.7505,0.20913
688,-0.7504,0.207474
689,-0.7503,0.207474
690,-0.7502,0.207474
691,-0.7501,0.207474
692,-0.75,0.207474
693,-0.7499,0.207474
694,-0.7498,0.207474
695,-0.7497,0.205818
696,-0.7496,0.205818
697,-0.7495,0.205818
698,-0.7494,0.205818
699,-0.7493,0.207474
700,-0.7492,0.204162
701,-0.7491,0.204162
702,-0.749,0.204162
703,-0.7489,0.204162
704,-0.7488,0.204162
705,-0.7487,0.204162
706,-0.7486,0.204162
707,-0.7485,0.204162
708,-0.7484,0.202506
709,-0.7483,0.202506
710,-0.7482,0.202506
711,-0.7481,0.195881
712,-0.748,0.195881
713,-0.7479,0.192569
714,-0.7478,0.189257
715,-0.7477,0.185945
716,-0.7476,0.185945
717,-0.7475,0.182633
718,-0.7474,0.180977
719,-0.7473,0.176009
720,-0.7472,0.176009
721,-0.7471,0.174353
722,-0.747,0.172697
723,-0.7469,0.171041
724,-0.7468,0.169385
725,-0.7467,0.169385
726,-0.7466,0.166072
727,-0.7465,0.164416
728,-0.7464,0.16276
729,-0.7463,0.16276
730,-0.7462,0.16276
731,-0.7461,0.159448
732,-0.746,0.159448
733,-0.7459,0.156136
734,-0.7458,0.156136
735,-0.7457,0.15448
736,-0.7456,0.15448
737,-0.7455,0.152824
738,-0.7454,0.152824
739,-0.7453,0.151168
740,-0.7452,0.151168
741,-0.7451,0.149512
742,-0.745,0.149512
743,-0.7449,0.147856
744,-0.7448,0.147856
745,-0.7447,0.1462
746,-0.7446,0.1462
747,-0.7445,0.1462
748,-0.7444,0.144544
749,-0.7443,0.144544
750,-0.7442,0.144544
751,-0.7441,0.142888
752,-0.744,0.142888
753,-0.7439,0.142888
754,-0.7438,0.142888
755,-0.7437,0.141232
756,-0.7436,0.141232
757,-0.7435,0.141232
758,-0.7434,0.141232
759,-0.7433,0.141232
760,-0.7432,0.139576
761,-0.7431,0.139576
762,-0.743,0.139576
763,-0.7429,0.139576
764,-0.7428,0.139576
765,-0.7427,0.139576
766,-0.7426,0.139576
767,-0.7425,0.13792
768,-0.7424,0.13792
769,-0.7423,0.13792
770,-0.7422,0.13792
771,-0.7421,0.13792
772,-0.742,0.13792
773,-0.7419,0.13792
774,-0.7418,0.13792
775,-0.7417,0.13792
776,-0.7416,0.132951
777,-0.7415,0.136264
778,-0.7414,0.136264
779,-0.7413,0.136264
780,-0.7412,0.136264
781,-0.7411,0.136264
782,-0.741,0.136264
783,-0.7409,0.136264
784,-0.7408,0.136264
785,-0.7407,0.136264
786,-0.7406,0.136264
787,-0.7405,0.136264
788,-0.7404,0.136264
789,-0.7403,0.132951
790,-0.7402,0.132951
791,-0.7401,0.132951
792,-0.74,0.132951
793,-0.7399,0.132951
794,-0.7398,0.132951
795,-0.7397,0.132951
796,-0.7396,0.132951
797,-0.7395,0.132951
798,-0.7394,0.132951
799,-0.7393,0.132951
800,-0.7392,0.132951
801,-0.7391,0.132951
802,-0.739,0.132951
803,-0.7389,0.132951
804,-0.7388,0.132951
805,-0.7387,0.132951
806,-0.7386,0.132951
807,-0.7385,0.132951
808,-0.7384,0.132951
809,-0.7383,0.132951
810,-0.7382,0.132951
811,-0.7381,0.132951
812,-0.738,0.132951
813,-0.7379,0.132951
814,-0.7378,0.132951
815,-0.7377,0.132951
816,-0.7376,0.132951
817,-0.7375,0.132951
818,-0.7374,0.132951
819,-0.7373,0.132951
820,-0.7372,0.132951
821,-0.7371,0.131295
822,-0.737,0.131295
823,-0.7369,0.131295
824,-0.7368,0.131295
825,-0.7367,0.132951
826,-0.7366,0.132951
827,-0.7365,0.132951
828,-0.7364,0.132951
829,-0.7363,0.131295
830,-0.7362,0.131295
831,-0.7361,0.131295
832,-0.736,0.131295
833,-0.7359,0.131295
834,-0.7358,0.131295
835,-0.7357,0.131295
836,-0.7356,0.131295
837,-0.7355,0.131295
838,-0.7354,0.131295
839,-0.7353,0.131295
840,-0.7352,0.131295
841,-0.7351,0.131295
842,-0.735,0.131295
843,-0.7349,0.131295
844,-0.7348,0.131295
845,-0.7347,0.131295
846,-0.7346,0.131295
847,-0.7345,0.131295
848,-0.7344,0.131295
849,-0.7343,0.131295
850,-0.7342,0.131295
851,-0.7341,0.131295
852,-0.734,0.131295
853,-0.7339,0.131295
854,-0.7338,0.131295
855,-0.7337,0.131295
856,-0.7336,0.131295
857,-0.7335,0.131295
858,-0.7334,0.131295
859,-0.7333,0.131295
860,-0.7332,0.131295
861,-0.7331,0.131295
862,-0.733,0.131295
863,-0.7329,0.131295
864,-0.7328,0.131295
865,-0.7327,0.131295
866,-0.7326,0.131295
867,-0.7325,0.131295
868,-0.7324,0.131295
869,-0.7323,0.131295
870,-0.7322,0.131295
871,-0.7321,0.131295
872,-0.732,0.131295
873,-0.7319,0.131295
874,-0.7318,0.131295
875,-0.7317,0.131295
876,-0.7316,0.131295
877,-0.7315,0.131295
878,-0.7314,0.131295
879,-0.7313,0.131295
880,-0.7312,0.131295
881,-0.7311,0.131295
882,-0.731,0.131295
883,-0.7309,0.131295
884,-0.7308,0.131295
885,-0.7307,0.131295
886,-0.7306,0.131295
887,-0.7305,0.131295
888,-0.7304,0.131295
889,-0.7303,0.131295
890,-0.7302,0.131295
891,-0.7301,0.131295
892,-0.73,0.131295
893,-0.7299,0.131295
894,-0.7298,0.131295
895,-0.7297,0.131295
896,-0.7296,0.131295
897,-0.7295,0.131295
898,-0.7294,0.131295
899,-0.7293,0.131295
900,-0.7292,0.131295
901,-0.7291,0.131295
902,-0.729,0.131295
903,-0.7289,0.131295
904,-0.7288,0.131295
905,-0.7287,0.131295
906,-0.7286,0.131295
907,-0.7285,0.131295
908,-0.7284,0.131295
909,-0.7283,0.131295
910,-0.7282,0.131295
911,-0.7281,0.131295
912,-0.728,0.131295
913,-0.7279,0.131295
914,-0.7278,0.131295
915,-0.7277,0.131295
916,-0.7276,0.131295
917,-0.7275,0.131295
918,-0.7274,0.131295
919,-0.7273,0.131295
920,-0.7272,0.131295
921,-0.7271,0.131295
922,-0.727,0.131295
923,-0.7269,0.131295
924,-0.7268,0.131295
925,-0.7267,0.131295
926,-0.7266,0.131295
927,-0.7265,0.131295
928,-0.7264,0.131295
929,-0.7263,0.131295
930,-0.7262,0.131295
931,-0.7261,0.131295
932,-0.726,0.131295
933,-0.7259,0.131295
934,-0.7258,0.131295
935,-0.7257,0.131295
936,-0.7256,0.131295
937,-0.7255,0.131295
938,-0.7254,0.131295
939,-0.7253,0.131295
940,-0.7252,0.131295
941,-0.7251,0.131295
942,-0.725,0.131295
943,-0.7249,0.131295
944,-0.7248,0.131295
945,-0.7247,0.131295
946,-0.7246,0.131295
947,-0.7245,0.131295
948,-0.7244,0.131295
949,-0.7243,0.131295
950,-0.7242,0.131295
951,-0.7241,0.131295
952,-0.724,0.131295
953,-0.7239,0.131295
954,-0.7238,0.131295
955,-0.7237,0.131295
956,-0.7236,0.131295
957,-0.7235,0.131295
958,-0.7234,0.131295
