measure/SYSCLK=4MHz_52.2Ohm.csv

;Scopy version,f4beeb1
;Exported on,samedi mars 02/03/2024
;Device,M2K
;Nr of samples,160000
;Sample rate,10000
;Tool,Oscilloscope
;Additional Information,
Sample,Time(S),CH1(V)
0,-0.8192,0.119816
1,-0.8191,0.121472
2,-0.819,0.123128
3,-0.8189,0.124784
4,-0.8188,0.12644
5,-0.8187,0.129752
6,-0.8186,0.128096
7,-0.8185,0.131408
8,-0.8184,0.131408
9,-0.8183,0.131408
10,-0.8182,0.131408
11,-0.8181,0.134721
12,-0.818,0.131408
13,-0.8179,0.131408
14,-0.8178,0.136377
15,-0.8177,0.134721
16,-0.8176,0.136377
17,-0.8175,0.136377
18,-0.8174,0.136377
19,-0.8173,0.139689
20,-0.8172,0.136377
21,-0.8171,0.134721
22,-0.817,0.131408
23,-0.8169,0.129752
24,-0.8168,0.128096
25,-0.8167,0.128096
26,-0.8166,0.128096
27,-0.8165,0.124784
28,-0.8164,0.123128
29,-0.8163,0.123128
30,-0.8162,0.123128
31,-0.8161,0.119816
32,-0.816,0.119816
33,-0.8159,0.11816
34,-0.8158,0.11816
35,-0.8157,0.114848
36,-0.8156,0.113192
37,-0.8155,0.113192
38,-0.8154,0.10988
39,-0.8153,0.10988
40,-0.8152,0.10988
41,-0.8151,0.10988
42,-0.815,0.113192
43,-0.8149,0.113192
44,-0.8148,0.116504
45,-0.8147,0.114848
46,-0.8146,0.116504
47,-0.8145,0.119816
48,-0.8144,0.121472
49,-0.8143,0.123128
50,-0.8142,0.124784
51,-0.8141,0.124784
52,-0.814,0.128096
53,-0.8139,0.128096
54,-0.8138,0.128096
55,-0.8137,0.128096
56,-0.8136,0.128096
57,-0.8135,0.131408
58,-0.8134,0.129752
59,-0.8133,0.131408
60,-0.8132,0.131408
61,-0.8131,0.131408
62,-0.813,0.134721
63,-0.8129,0.131408
64,-0.8128,0.134721
65,-0.8127,0.138033
66,-0.8126,0.136377
67,-0.8125,0.136377
68,-0.8124,0.136377
69,-0.8123,0.131408
70,-0.8122,0.131408
71,-0.8121,0.129752
72,-0.812,0.128096
73,-0.8119,0.12644
74,-0.8118,0.124784
75,-0.8117,0.124784
76,-0.8116,0.121472
77,-0.8115,0.119816
78,-0.8114,0.119816
79,-0.8113,0.11816
80,-0.8112,0.11816
81,-0.8111,0.114848
82,-0.811,0.114848
83,-0.8109,0.114848
84,-0.8108,0.10988
85,-0.8107,0.10988
86,-0.8106,0.10988
87,-0.8105,0.108224
88,-0.8104,0.108224
89,-0.8103,0.108224
90,-0.8102,0.113192
91,-0.8101,0.113192
92,-0.81,0.113192
93,-0.8099,0.116504
94,-0.8098,0.11816
95,-0.8097,0.121472
96,-0.8096,0.121472
97,-0.8095,0.123128
98,-0.8094,0.12644
99,-0.8093,0.12644
100,-0.8092,0.12644
101,-0.8091,0.129752
102,-0.809,0.12644
103,-0.8089,0.129752
104,-0.8088,0.128096
105,-0.8087,0.131408
106,-0.8086,0.129752
107,-0.8085,0.129752
108,-0.8084,0.134721
109,-0.8083,0.131408
110,-0.8082,0.134721
111,-0.8081,0.134721
112,-0.808,0.134721
113,-0.8079,0.138033
114,-0.8078,0.138033
115,-0.8077,0.134721
116,-0.8076,0.134721
117,-0.8075,0.134721
118,-0.8074,0.134721
119,-0.8073,0.129752
120,-0.8072,0.129752
121,-0.8071,0.128096
122,-0.807,0.12644
123,-0.8069,0.12644
124,-0.8068,0.123128
125,-0.8067,0.121472
126,-0.8066,0.119816
127,-0.8065,0.11816
128,-0.8064,0.11816
129,-0.8063,0.116504
130,-0.8062,0.114848
131,-0.8061,0.114848
132,-0.806,0.113192
133,-0.8059,0.10988
134,-0.8058,0.113192
135,-0.8057,0.108224
136,-0.8056,0.10988
137,-0.8055,0.10988
138,-0.8054,0.114848
139,-0.8053,0.114848
140,-0.8052,0.11816
141,-0.8051,0.119816
142,-0.805,0.121472
143,-0.8049,0.124784
144,-0.8048,0.124784
145,-0.8047,0.12644
146,-0.8046,0.12644
147,-0.8045,0.12644
148,-0.8044,0.128096
149,-0.8043,0.128096
150,-0.8042,0.129752
151,-0.8041,0.129752
152,-0.804,0.129752
153,-0.8039,0.131408
154,-0.8038,0.129752
155,-0.8037,0.131408
156,-0.8036,0.136377
157,-0.8035,0.134721
158,-0.8034,0.134721
159,-0.8033,0.134721
160,-0.8032,0.136377
161,-0.8031,0.136377
162,-0.803,0.138033
163,-0.8029,0.134721
164,-0.8028,0.134721
165,-0.8027,0.131408
166,-0.8026,0.131408
167,-0.8025,0.128096
168,-0.8024,0.12644
169,-0.8023,0.124784
170,-0.8022,0.123128
171,-0.8021,0.121472
172,-0.802,0.121472
173,-0.8019,0.119816
174,-0.8018,0.11816
175,-0.8017,0.11816
176,-0.8016,0.114848
177,-0.8015,0.114848
178,-0.8014,0.113192
179,-0.8013,0.113192
180,-0.8012,0.10988
181,-0.8011,0.10988
182,-0.801,0.108224
183,-0.8009,0.10988
184,-0.8008,0.114848
185,-0.8007,0.116504
186,-0.8006,0.11816
187,-0.8005,0.119816
188,-0.8004,0.121472
189,-0.8003,0.121472
190,-0.8002,0.123128
191,-0.8001,0.12644
192,-0.8,0.124784
193,-0.7999,0.124784
194,-0.7998,0.128096
195,-0.7997,0.12644
196,-0.7996,0.129752
197,-0.7995,0.128096
198,-0.7994,0.129752
199,-0.7993,0.129752
200,-0.7992,0.129752
201,-0.7991,0.131408
202,-0.799,0.131408
203,-0.7989,0.131408
204,-0.7988,0.136377
205,-0.7987,0.134721
206,-0.7986,0.134721
207,-0.7985,0.138033
208,-0.7984,0.141345
209,-0.7983,0.138033
210,-0.7982,0.138033
211,-0.7981,0.136377
212,-0.798,0.134721
213,-0.7979,0.131408
214,-0.7978,0.129752
215,-0.7977,0.128096
216,-0.7976,0.12644
217,-0.7975,0.124784
218,-0.7974,0.121472
219,-0.7973,0.121472
220,-0.7972,0.119816
221,-0.7971,0.119816
222,-0.797,0.116504
223,-0.7969,0.114848
224,-0.7968,0.116504
225,-0.7967,0.113192
226,-0.7966,0.10988
227,-0.7965,0.10988
228,-0.7964,0.108224
229,-0.7963,0.113192
230,-0.7962,0.113192
231,-0.7961,0.114848
232,-0.796,0.116504
233,-0.7959,0.11816
234,-0.7958,0.11816
235,-0.7957,0.119816
236,-0.7956,0.123128
237,-0.7955,0.121472
238,-0.7954,0.123128
239,-0.7953,0.123128
240,-0.7952,0.12644
241,-0.7951,0.12644
242,-0.795,0.12644
243,-0.7949,0.12644
244,-0.7948,0.129752
245,-0.7947,0.12644
246,-0.7946,0.129752
247,-0.7945,0.129752
248,-0.7944,0.129752
249,-0.7943,0.129752
250,-0.7942,0.129752
251,-0.7941,0.131408
252,-0.794,0.134721
253,-0.7939,0.136377
254,-0.7938,0.138033
255,-0.7937,0.141345
256,-0.7936,0.141345
257,-0.7935,0.138033
258,-0.7934,0.136377
259,-0.7933,0.134721
260,-0.7932,0.129752
261,-0.7931,0.129752
262,-0.793,0.128096
263,-0.7929,0.12644
264,-0.7928,0.124784
265,-0.7927,0.123128
266,-0.7926,0.123128
267,-0.7925,0.119816
268,-0.7924,0.11816
269,-0.7923,0.116504
270,-0.7922,0.116504
271,-0.7921,0.116504
272,-0.792,0.113192
273,-0.7919,0.10988
274,-0.7918,0.10988
275,-0.7917,0.10988
276,-0.7916,0.10988
277,-0.7915,0.113192
278,-0.7914,0.114848
279,-0.7913,0.114848
280,-0.7912,0.116504
281,-0.7911,0.119816
282,-0.791,0.11816
283,-0.7909,0.11816
284,-0.7908,0.123128
285,-0.7907,0.121472
286,-0.7906,0.124784
287,-0.7905,0.123128
288,-0.7904,0.12644
289,-0.7903,0.124784
290,-0.7902,0.12644
291,-0.7901,0.128096
292,-0.79,0.128096
293,-0.7899,0.128096
294,-0.7898,0.131408
295,-0.7897,0.129752
296,-0.7896,0.131408
297,-0.7895,0.134721
298,-0.7894,0.134721
299,-0.7893,0.138033
300,-0.7892,0.138033
301,-0.7891,0.138033
302,-0.789,0.141345
303,-0.7889,0.143001
304,-0.7888,0.139689
305,-0.7887,0.136377
306,-0.7886,0.136377
307,-0.7885,0.134721
308,-0.7884,0.131408
309,-0.7883,0.129752
310,-0.7882,0.12644
311,-0.7881,0.12644
312,-0.788,0.124784
313,-0.7879,0.123128
314,-0.7878,0.123128
315,-0.7877,0.119816
316,-0.7876,0.11816
317,-0.7875,0.116504
318,-0.7874,0.116504
319,-0.7873,0.114848
320,-0.7872,0.114848
321,-0.7871,0.114848
322,-0.787,0.113192
323,-0.7869,0.113192
324,-0.7868,0.113192
325,-0.7867,0.114848
326,-0.7866,0.114848
327,-0.7865,0.116504
328,-0.7864,0.116504
329,-0.7863,0.119816
330,-0.7862,0.119816
331,-0.7861,0.121472
332,-0.786,0.121472
333,-0.7859,0.123128
334,-0.7858,0.123128
335,-0.7857,0.124784
336,-0.7856,0.12644
337,-0.7855,0.12644
338,-0.7854,0.12644
339,-0.7853,0.129752
340,-0.7852,0.128096
341,-0.7851,0.129752
342,-0.785,0.131408
343,-0.7849,0.134721
344,-0.7848,0.134721
345,-0.7847,0.138033
346,-0.7846,0.136377
347,-0.7845,0.139689
348,-0.7844,0.138033
349,-0.7843,0.141345
350,-0.7842,0.139689
351,-0.7841,0.139689
352,-0.784,0.139689
353,-0.7839,0.138033
354,-0.7838,0.136377
355,-0.7837,0.134721
356,-0.7836,0.131408
357,-0.7835,0.129752
358,-0.7834,0.12644
359,-0.7833,0.12644
360,-0.7832,0.124784
361,-0.7831,0.124784
362,-0.783,0.121472
363,-0.7829,0.119816
364,-0.7828,0.11816
365,-0.7827,0.11816
366,-0.7826,0.11816
367,-0.7825,0.116504
368,-0.7824,0.116504
369,-0.7823,0.114848
370,-0.7822,0.114848
371,-0.7821,0.113192
372,-0.782,0.113192
373,-0.7819,0.113192
374,-0.7818,0.114848
375,-0.7817,0.114848
376,-0.7816,0.116504
377,-0.7815,0.116504
378,-0.7814,0.116504
379,-0.7813,0.121472
380,-0.7812,0.119816
381,-0.7811,0.121472
382,-0.781,0.124784
383,-0.7809,0.123128
384,-0.7808,0.12644
385,-0.7807,0.124784
386,-0.7806,0.12644
387,-0.7805,0.128096
388,-0.7804,0.131408
389,-0.7803,0.131408
390,-0.7802,0.131408
391,-0.7801,0.136377
392,-0.78,0.134721
393,-0.7799,0.136377
394,-0.7798,0.136377
395,-0.7797,0.136377
396,-0.7796,0.136377
397,-0.7795,0.138033
398,-0.7794,0.138033
399,-0.7793,0.138033
400,-0.7792,0.138033
401,-0.7791,0.136377
402,-0.779,0.136377
403,-0.7789,0.131408
404,-0.7788,0.131408
405,-0.7787,0.128096
406,-0.7786,0.12644
407,-0.7785,0.12644
408,-0.7784,0.121472
409,-0.7783,0.121472
410,-0.7782,0.121472
411,-0.7781,0.119816
412,-0.778,0.119816
413,-0.7779,0.11816
414,-0.7778,0.11816
415,-0.7777,0.11816
416,-0.7776,0.114848
417,-0.7775,0.116504
418,-0.7774,0.113192
419,-0.7773,0.10988
420,-0.7772,0.10988
421,-0.7771,0.10988
422,-0.777,0.114848
423,-0.7769,0.113192
424,-0.7768,0.114848
425,-0.7767,0.11816
426,-0.7766,0.116504
427,-0.7765,0.119816
428,-0.7764,0.119816
429,-0.7763,0.121472
430,-0.7762,0.121472
431,-0.7761,0.121472
432,-0.776,0.124784
433,-0.7759,0.12644
434,-0.7758,0.128096
435,-0.7757,0.128096
436,-0.7756,0.131408
437,-0.7755,0.131408
438,-0.7754,0.131408
439,-0.7753,0.131408
440,-0.7752,0.136377
441,-0.7751,0.131408
442,-0.775,0.136377
443,-0.7749,0.134721
444,-0.7748,0.134721
445,-0.7747,0.138033
446,-0.7746,0.136377
447,-0.7745,0.138033
448,-0.7744,0.136377
449,-0.7743,0.134721
450,-0.7742,0.131408
451,-0.7741,0.131408
452,-0.774,0.128096
453,-0.7739,0.128096
454,-0.7738,0.124784
455,-0.7737,0.124784
456,-0.7736,0.124784
457,-0.7735,0.121472
458,-0.7734,0.121472
459,-0.7733,0.119816
460,-0.7732,0.119816
461,-0.7731,0.119816
462,-0.773,0.116504
463,-0.7729,0.116504
464,-0.7728,0.114848
465,-0.7727,0.113192
466,-0.7726,0.113192
467,-0.7725,0.10988
468,-0.7724,0.113192
469,-0.7723,0.108224
470,-0.7722,0.10988
471,-0.7721,0.114848
472,-0.772,0.114848
473,-0.7719,0.116504
474,-0.7718,0.116504
475,-0.7717,0.11816
476,-0.7716,0.119816
477,-0.7715,0.121472
478,-0.7714,0.123128
479,-0.7713,0.124784
480,-0.7712,0.12644
481,-0.7711,0.12644
482,-0.771,0.129752
483,-0.7709,0.129752
484,-0.7708,0.129752
485,-0.7707,0.129752
486,-0.7706,0.134721
487,-0.7705,0.129752
488,-0.7704,0.134721
489,-0.7703,0.131408
490,-0.7702,0.134721
491,-0.7701,0.134721
492,-0.77,0.134721
493,-0.7699,0.138033
494,-0.7698,0.136377
495,-0.7697,0.136377
496,-0.7696,0.138033
497,-0.7695,0.134721
498,-0.7694,0.131408
499,-0.7693,0.129752
500,-0.7692,0.128096
501,-0.7691,0.128096
502,-0.769,0.128096
503,-0.7689,0.124784
504,-0.7688,0.124784
505,-0.7687,0.124784
506,-0.7686,0.121472
507,-0.7685,0.121472
508,-0.7684,0.121472
509,-0.7683,0.11816
510,-0.7682,0.116504
511,-0.7681,0.116504
512,-0.768,0.114848
513,-0.7679,0.113192
514,-0.7678,0.113192
515,-0.7677,0.10988
516,-0.7676,0.113192
517,-0.7675,0.10988
518,-0.7674,0.113192
519,-0.7673,0.113192
520,-0.7672,0.114848
521,-0.7671,0.11816
522,-0.767,0.116504
523,-0.7669,0.119816
524,-0.7668,0.119816
525,-0.7667,0.123128
526,-0.7666,0.12644
527,-0.7665,0.12644
528,-0.7664,0.12644
529,-0.7663,0.129752
530,-0.7662,0.129752
531,-0.7661,0.129752
532,-0.766,0.129752
533,-0.7659,0.129752
534,-0.7658,0.134721
535,-0.7657,0.131408
536,-0.7656,0.131408
537,-0.7655,0.131408
538,-0.7654,0.136377
539,-0.7653,0.134721
540,-0.7652,0.134721
541,-0.7651,0.138033
542,-0.765,0.136377
543,-0.7649,0.139689
544,-0.7648,0.136377
545,-0.7647,0.134721
546,-0.7646,0.134721
547,-0.7645,0.131408
548,-0.7644,0.129752
549,-0.7643,0.128096
550,-0.7642,0.12644
551,-0.7641,0.124784
552,-0.764,0.123128
553,-0.7639,0.123128
554,-0.7638,0.119816
555,-0.7637,0.11816
556,-0.7636,0.11816
557,-0.7635,0.11816
558,-0.7634,0.114848
559,-0.7633,0.114848
560,-0.7632,0.113192
561,-0.7631,0.114848
562,-0.763,0.10988
563,-0.7629,0.10988
564,-0.7628,0.108224
565,-0.7627,0.108224
566,-0.7626,0.113192
567,-0.7625,0.113192
568,-0.7624,0.114848
569,-0.7623,0.11816
570,-0.7622,0.116504
571,-0.7621,0.119816
572,-0.762,0.121472
573,-0.7619,0.123128
574,-0.7618,0.124784
575,-0.7617,0.12644
576,-0.7616,0.12644
577,-0.7615,0.129752
578,-0.7614,0.129752
579,-0.7613,0.129752
580,-0.7612,0.129752
581,-0.7611,0.129752
582,-0.761,0.129752
583,-0.7609,0.134721
584,-0.7608,0.131408
585,-0.7607,0.131408
586,-0.7606,0.136377
587,-0.7605,0.134721
588,-0.7604,0.136377
589,-0.7603,0.136377
590,-0.7602,0.138033
591,-0.7601,0.138033
592,-0.76,0.134721
593,-0.7599,0.136377
594,-0.7598,0.131408
595,-0.7597,0.131408
596,-0.7596,0.131408
597,-0.7595,0.128096
598,-0.7594,0.12644
599,-0.7593,0.12644
600,-0.7592,0.12644
601,-0.7591,0.123128
602,-0.759,0.119816
603,-0.7589,0.121472
604,-0.7588,0.11816
605,-0.7587,0.116504
606,-0.7586,0.116504
607,-0.7585,0.116504
608,-0.7584,0.113192
609,-0.7583,0.10988
610,-0.7582,0.10988
611,-0.7581,0.10988
612,-0.758,0.10988
613,-0.7579,0.10988
614,-0.7578,0.10988
615,-0.7577,0.114848
616,-0.7576,0.114848
617,-0.7575,0.11816
618,-0.7574,0.119816
619,-0.7573,0.121472
620,-0.7572,0.124784
621,-0.7571,0.124784
622,-0.757,0.124784
623,-0.7569,0.128096
624,-0.7568,0.12644
625,-0.7567,0.12644
626,-0.7566,0.129752
627,-0.7565,0.128096
628,-0.7564,0.129752
629,-0.7563,0.128096
630,-0.7562,0.131408
631,-0.7561,0.129752
632,-0.756,0.131408
633,-0.7559,0.134721
634,-0.7558,0.131408
635,-0.7557,0.136377
636,-0.7556,0.134721
637,-0.7555,0.134721
638,-0.7554,0.138033
639,-0.7553,0.136377
640,-0.7552,0.136377
641,-0.7551,0.131408
642,-0.755,0.131408
643,-0.7549,0.129752
644,-0.7548,0.128096
645,-0.7547,0.128096
646,-0.7546,0.123128
647,-0.7545,0.123128
648,-0.7544,0.121472
649,-0.7543,0.119816
650,-0.7542,0.119816
651,-0.7541,0.116504
652,-0.754,0.116504
653,-0.7539,0.114848
654,-0.7538,0.113192
655,-0.7537,0.113192
656,-0.7536,0.113192
657,-0.7535,0.108224
658,-0.7534,0.108224
659,-0.7533,0.108224
660,-0.7532,0.108224
661,-0.7531,0.113192
662,-0.753,0.114848
663,-0.7529,0.116504
664,-0.7528,0.11816
665,-0.7527,0.119816
666,-0.7526,0.123128
667,-0.7525,0.123128
668,-0.7524,0.123128
669,-0.7523,0.123128
670,-0.7522,0.12644
671,-0.7521,0.124784
672,-0.752,0.128096
673,-0.7519,0.12644
674,-0.7518,0.128096
675,-0.7517,0.128096
676,-0.7516,0.128096
677,-0.7515,0.131408
678,-0.7514,0.129752
679,-0.7513,0.131408
680,-0.7512,0.131408
681,-0.7511,0.131408
682,-0.751,0.131408
683,-0.7509,0.136377
684,-0.7508,0.138033
685,-0.7507,0.141345
686,-0.7506,0.141345
687,-0.7505,0.138033
688,-0.7504,0.136377
689,-0.7503,0.134721
690,-0.7502,0.129752
691,-0.7501,0.129752
692,-0.75,0.128096
693,-0.7499,0.12644
694,-0.7498,0.12644
695,-0.7497,0.121472
696,-0.7496,0.121472
697,-0.7495,0.121472
698,-0.7494,0.11816
699,-0.7493,0.116504
700,-0.7492,0.116504
701,-0.7491,0.116504
702,-0.749,0.113192
703,-0.7489,0.10988
704,-0.7488,0.10988
705,-0.7487,0.10988
706,-0.7486,0.10988
707,-0.7485,0.114848
708,-0.7484,0.114848
709,-0.7483,0.116504
710,-0.7482,0.11816
711,-0.7481,0.119816
712,-0.748,0.119816
713,-0.7479,0.119816
714,-0.7478,0.121472
715,-0.7477,0.124784
716,-0.7476,0.123128
717,-0.7475,0.12644
718,-0.7474,0.124784
719,-0.7473,0.128096
720,-0.7472,0.12644
721,-0.7471,0.128096
722,-0.747,0.128096
723,-0.7469,0.128096
724,-0.7468,0.131408
725,-0.7467,0.129752
726,-0.7466,0.131408
727,-0.7465,0.134721
728,-0.7464,0.134721
729,-0.7463,0.138033
730,-0.7462,0.138033
731,-0.7461,0.139689
732,-0.746,0.139689
733,-0.7459,0.139689
734,-0.7458,0.141345
735,-0.7457,0.138033
736,-0.7456,0.134721
737,-0.7455,0.134721
738,-0.7454,0.131408
739,-0.7453,0.128096
740,-0.7452,0.128096
741,-0.7451,0.124784
742,-0.745,0.124784
743,-0.7449,0.121472
744,-0.7448,0.121472
745,-0.7447,0.121472
746,-0.7446,0.11816
747,-0.7445,0.116504
748,-0.7444,0.116504
749,-0.7443,0.114848
750,-0.7442,0.114848
751,-0.7441,0.113192
752,-0.744,0.113192
753,-0.7439,0.113192
754,-0.7438,0.113192
755,-0.7437,0.114848
756,-0.7436,0.114848
757,-0.7435,0.116504
758,-0.7434,0.119816
759,-0.7433,0.11816
760,-0.7432,0.121472
761,-0.7431,0.121472
762,-0.743,0.123128
763,-0.7429,0.123128
764,-0.7428,0.124784
765,-0.7427,0.124784
766,-0.7426,0.124784
767,-0.7425,0.12644
768,-0.7424,0.128096
769,-0.7423,0.129752
770,-0.7422,0.128096
771,-0.7421,0.128096
772,-0.742,0.131408
773,-0.7419,0.134721
774,-0.7418,0.134721
775,-0.7417,0.138033
776,-0.7416,0.136377
777,-0.7415,0.139689
778,-0.7414,0.138033
779,-0.7413,0.139689
780,-0.7412,0.143001
781,-0.7411,0.139689
782,-0.741,0.138033
783,-0.7409,0.138033
784,-0.7408,0.134721
785,-0.7407,0.131408
786,-0.7406,0.129752
787,-0.7405,0.129752
788,-0.7404,0.12644
789,-0.7403,0.12644
790,-0.7402,0.123128
791,-0.7401,0.121472
792,-0.74,0.119816
793,-0.7399,0.119816
794,-0.7398,0.11816
795,-0.7397,0.116504
796,-0.7396,0.11816
797,-0.7395,0.114848
798,-0.7394,0.114848
799,-0.7393,0.114848
800,-0.7392,0.113192
801,-0.7391,0.113192
802,-0.739,0.113192
803,-0.7389,0.113192
804,-0.7388,0.113192
805,-0.7387,0.11816
806,-0.7386,0.116504
807,-0.7385,0.119816
808,-0.7384,0.119816
809,-0.7383,0.119816
810,-0.7382,0.123128
811,-0.7381,0.121472
812,-0.738,0.124784
813,-0.7379,0.124784
814,-0.7378,0.124784
815,-0.7377,0.128096
816,-0.7376,0.12644
817,-0.7375,0.128096
818,-0.7374,0.131408
819,-0.7373,0.131408
820,-0.7372,0.131408
821,-0.7371,0.136377
822,-0.737,0.136377
823,-0.7369,0.136377
824,-0.7368,0.138033
825,-0.7367,0.139689
826,-0.7366,0.136377
827,-0.7365,0.139689
828,-0.7364,0.139689
829,-0.7363,0.136377
830,-0.7362,0.134721
831,-0.7361,0.131408
832,-0.736,0.129752
833,-0.7359,0.128096
834,-0.7358,0.128096
835,-0.7357,0.124784
836,-0.7356,0.123128
837,-0.7355,0.121472
838,-0.7354,0.121472
839,-0.7353,0.11816
840,-0.7352,0.11816
841,-0.7351,0.11816
842,-0.735,0.116504
843,-0.7349,0.116504
844,-0.7348,0.114848
845,-0.7347,0.114848
846,-0.7346,0.113192
847,-0.7345,0.113192
848,-0.7344,0.10988
849,-0.7343,0.10988
850,-0.7342,0.113192
851,-0.7341,0.113192
852,-0.734,0.114848
853,-0.7339,0.114848
854,-0.7338,0.116504
855,-0.7337,0.119816
856,-0.7336,0.11816
857,-0.7335,0.119816
858,-0.7334,0.123128
859,-0.7333,0.121472
860,-0.7332,0.124784
861,-0.7331,0.123128
862,-0.733,0.124784
863,-0.7329,0.12644
864,-0.7328,0.128096
865,-0.7327,0.131408
866,-0.7326,0.131408
867,-0.7325,0.131408
868,-0.7324,0.134721
869,-0.7323,0.134721
870,-0.7322,0.134721
871,-0.7321,0.134721
872,-0.732,0.134721
873,-0.7319,0.138033
874,-0.7318,0.136377
875,-0.7317,0.139689
876,-0.7316,0.136377
877,-0.7315,0.134721
878,-0.7314,0.134721
879,-0.7313,0.129752
880,-0.7312,0.128096
881,-0.7311,0.128096
882,-0.731,0.124784
883,-0.7309,0.124784
884,-0.7308,0.121472
885,-0.7307,0.123128
886,-0.7306,0.119816
887,-0.7305,0.119816
888,-0.7304,0.11816
889,-0.7303,0.11816
890,-0.7302,0.116504
891,-0.7301,0.116504
892,-0.73,0.114848
893,-0.7299,0.114848
894,-0.7298,0.113192
895,-0.7297,0.10988
896,-0.7296,0.10988
897,-0.7295,0.10988
898,-0.7294,0.114848
899,-0.7293,0.113192
900,-0.7292,0.114848
901,-0.7291,0.11816
902,-0.729,0.11816
903,-0.7289,0.119816
904,-0.7288,0.119816
905,-0.7287,0.123128
906,-0.7286,0.121472
907,-0.7285,0.121472
908,-0.7284,0.124784
909,-0.7283,0.12644
910,-0.7282,0.129752
911,-0.7281,0.129752
912,-0.728,0.129752
913,-0.7279,0.134721
914,-0.7278,0.131408
915,-0.7277,0.136377
916,-0.7276,0.134721
917,-0.7275,0.134721
918,-0.7274,0.134721
919,-0.7273,0.134721
920,-0.7272,0.136377
921,-0.7271,0.136377
922,-0.727,0.136377
923,-0.7269,0.139689
924,-0.7268,0.136377
925,-0.7267,0.134721
926,-0.7266,0.134721
927,-0.7265,0.131408
928,-0.7264,0.129752
929,-0.7263,0.128096
930,-0.7262,0.124784
931,-0.7261,0.12644
932,-0.726,0.123128
933,-0.7259,0.124784
934,-0.7258,0.121472
935,-0.7257,0.121472
936,-0.7256,0.121472
937,-0.7255,0.11816
938,-0.7254,0.11816
939,-0.7253,0.116504
940,-0.7252,0.114848
941,-0.7251,0.114848
942,-0.725,0.113192
943,-0.7249,0.10988
944,-0.7248,0.10988
945,-0.7247,0.10988
946,-0.7246,0.114848
947,-0.7245,0.113192
948,-0.7244,0.116504
949,-0.7243,0.116504
950,-0.7242,0.116504
951,-0.7241,0.121472
952,-0.724,0.11816
953,-0.7239,0.121472
954,-0.7238,0.124784
955,-0.7237,0.12644
956,-0.7236,0.12644
957,-0.7235,0.129752
958,-0.7234,0.129752
959,-0.7233,0.129752
960,-0.7232,0.131408
